<?xml version="1.0" encoding="UTF-8" standalone="no"?>
<graphml xmlns="http://graphml.graphdrawing.org/xmlns" xmlns:java="http://www.yworks.com/xml/yfiles-common/1.0/java" xmlns:sys="http://www.yworks.com/xml/yfiles-common/markup/primitives/2.0" xmlns:x="http://www.yworks.com/xml/yfiles-common/markup/2.0" xmlns:xsi="http://www.w3.org/2001/XMLSchema-instance" xmlns:y="http://www.yworks.com/xml/graphml" xmlns:yed="http://www.yworks.com/xml/yed/3" xsi:schemaLocation="http://graphml.graphdrawing.org/xmlns http://www.yworks.com/xml/schema/graphml/1.1/ygraphml.xsd">
  <!--Created by yEd 3.19-->
  <key attr.name="Description" attr.type="string" for="graph" id="d0"/>
  <key for="port" id="d1" yfiles.type="portgraphics"/>
  <key for="port" id="d2" yfiles.type="portgeometry"/>
  <key for="port" id="d3" yfiles.type="portuserdata"/>
  <key attr.name="url" attr.type="string" for="node" id="d4"/>
  <key attr.name="description" attr.type="string" for="node" id="d5"/>
  <key for="node" id="d6" yfiles.type="nodegraphics"/>
  <key for="graphml" id="d7" yfiles.type="resources"/>
  <key attr.name="url" attr.type="string" for="edge" id="d8"/>
  <key attr.name="description" attr.type="string" for="edge" id="d9"/>
  <key for="edge" id="d10" yfiles.type="edgegraphics"/>
  <graph edgedefault="directed" id="G">
    <data key="d0" xml:space="preserve"/>
    <node id="n0">
      <data key="d4" xml:space="preserve"/>
      <data key="d6">
        <y:UMLClassNode>
          <y:Geometry height="1106.3498351260503" width="371.2500000000002" x="2786.792857142857" y="1413.2661009074236"/>
          <y:Fill color="#FFCC00" transparent="false"/>
          <y:BorderStyle color="#000000" type="line" width="1.0"/>
          <y:NodeLabel alignment="left" autoSizePolicy="content" fontFamily="Dialog" fontSize="13" fontStyle="bold" hasBackgroundColor="false" hasLineColor="false" height="1102.91259765625" horizontalTextPosition="center" iconTextGap="4" modelName="custom" textColor="#000000" verticalTextPosition="bottom" visible="true" width="319.326171875" x="25.961914062500114" xml:space="preserve" y="3.0">Player

- Animation rightStand
- Animation leftStand
- Animation rightWalk
- Animation leftWalk
- Animation rightKick
- Animation leftKick
- Animation rightWing
- Animation leftWing
- Animation rightSkin
- Animation leftSkin
- Animation rightSkinAlt
- Animation leftSkinAlt
- BaseActor body
- BaseActor wing
- BaseActor skin
- int nSkin
- BaseActor feetSensorL
- BaseActor feetSensorR
- BaseActor kickBox
- boolean jumping
- boolean walking
- boolean kicking
- long kickStart
- boolean wantGoDown
- boolean alive
- Direction direction
- Weapon weapon
- boolean wantsToGrab
- boolean grabing
- float walkAcceleration
- float walkDeceleration
- float maxHorizontalSpeed
- float gravity
- boolean gravityEnabled
- boolean gravityLock
- long gravityLockStart
- boolean onGround
- boolean onPlatform
- float maxVerticalSpeedUp
- float maxVerticalSpeedDown
+ getDirection(): Direction
+ isOnGround(): boolean
+ isKicking(): boolean
+ wantsToGrab(): boolean
+ isOnPlatform(): boolean
+ setOnPlatform(boolean onPlatform): void
+ isAlive(): boolean
+ setOnGround(boolean onGround): void
+ getWeapon(): Weapon
+ setWeapon(int nWeapon): void
+ getFeetSensorL(): BaseActor
+ getFeetSensorR(): BaseActor
+ getKickBox(): BaseActor
+ getVelocityVector(): Vector2
+ isGravityLock(): boolean
+ setGravityEnabled(boolean gravityEnabled): void
+ moveRight(): void
+ moveLeft(): void
+ decelerate(): void
+ jump(): void
+ goDown(boolean wantGoDown): void
+ grabItem(): void
+ throwItem(): void
+ shoot(): void
+ stopShooting(): void
+ die(Deadtype deadType): void
+ *act(float dt): void<y:LabelModel><y:SmartNodeLabelModel distance="4.0"/></y:LabelModel><y:ModelParameter><y:SmartNodeLabelModelParameter labelRatioX="0.0" labelRatioY="0.0" nodeRatioX="0.0" nodeRatioY="0.0" offsetX="0.0" offsetY="0.0" upX="0.0" upY="-1.0"/></y:ModelParameter></y:NodeLabel>
          <y:UML clipContent="true" constraint="" hasDetailsColor="false" omitDetails="false" stereotype="" use3DEffect="true">
            <y:AttributeLabel xml:space="preserve"/>
            <y:MethodLabel xml:space="preserve"/>
          </y:UML>
        </y:UMLClassNode>
      </data>
    </node>
    <node id="n1">
      <data key="d4" xml:space="preserve"/>
      <data key="d6">
        <y:UMLClassNode>
          <y:Geometry height="433.60000000000025" width="304.6624999999999" x="2102.804067460317" y="1749.6410184704487"/>
          <y:Fill color="#FFCC00" transparent="false"/>
          <y:BorderStyle color="#000000" type="line" width="1.0"/>
          <y:NodeLabel alignment="left" autoSizePolicy="content" fontFamily="Dialog" fontSize="13" fontStyle="bold" hasBackgroundColor="false" hasLineColor="false" height="418.0830078125" horizontalTextPosition="center" iconTextGap="4" modelName="custom" textColor="#000000" verticalTextPosition="bottom" visible="true" width="297.6171875" x="3.5226562499999545" xml:space="preserve" y="3.0">ControllerProfile

- String controllerType
- int joystickX
- int joystickY
- int buttonJump
- int buttonGrab
- int buttonThrow
- int buttonShow
- int buttonStart
+ getControllerType(): String
+ setControllerType(String controllertype): void
+ getJoystickX(): int
+ setJoystickX(int joystick): void
+ getJoystickY(): int
+ setJoystickY(int joystick): int
+ getButtonJump(): int
+ setButtonJump(int buttonJump): void
+ getButtonGrab(): int
+ setButtonGrab(int buttonGrab): void
+ getButtonThrow(): int
+ setButtonThrow(int buttonThrow): void
+ getButtonShoot(): int
+ setButtonShoot(int buttonShoot): void
+ getButtonStart(): int
+ setButtonStart(int buttonStart): void<y:LabelModel><y:SmartNodeLabelModel distance="4.0"/></y:LabelModel><y:ModelParameter><y:SmartNodeLabelModelParameter labelRatioX="0.0" labelRatioY="0.0" nodeRatioX="0.0" nodeRatioY="0.0" offsetX="0.0" offsetY="0.0" upX="0.0" upY="-1.0"/></y:ModelParameter></y:NodeLabel>
          <y:UML clipContent="true" constraint="" hasDetailsColor="false" omitDetails="false" stereotype="" use3DEffect="true">
            <y:AttributeLabel xml:space="preserve"/>
            <y:MethodLabel xml:space="preserve"/>
          </y:UML>
        </y:UMLClassNode>
      </data>
    </node>
    <node id="n2">
      <data key="d4" xml:space="preserve"/>
      <data key="d6">
        <y:UMLClassNode>
          <y:Geometry height="106.7919241119481" width="304.6624999999999" x="1130.7000992063493" y="1913.0450564144749"/>
          <y:Fill color="#FFCC00" transparent="false"/>
          <y:BorderStyle color="#000000" type="line" width="1.0"/>
          <y:NodeLabel alignment="left" autoSizePolicy="content" fontFamily="Dialog" fontSize="13" fontStyle="bold" hasBackgroundColor="false" hasLineColor="false" height="99.5576171875" horizontalTextPosition="center" iconTextGap="4" modelName="custom" textColor="#000000" verticalTextPosition="bottom" visible="true" width="298.41064453125" x="3.1259277343749545" xml:space="preserve" y="3.0">Util

+ loadProfiles(): ArrayList&lt;Profile&gt;
+ saveProfiles(ArrayList&lt;Profile&gt; profiles): void
+ importProfile(): void
+ exportProfile(Profile profile): void<y:LabelModel><y:SmartNodeLabelModel distance="4.0"/></y:LabelModel><y:ModelParameter><y:SmartNodeLabelModelParameter labelRatioX="0.0" labelRatioY="0.0" nodeRatioX="0.0" nodeRatioY="0.0" offsetX="0.0" offsetY="0.0" upX="0.0" upY="-1.0"/></y:ModelParameter></y:NodeLabel>
          <y:UML clipContent="true" constraint="" hasDetailsColor="false" omitDetails="false" stereotype="" use3DEffect="true">
            <y:AttributeLabel xml:space="preserve"/>
            <y:MethodLabel xml:space="preserve"/>
          </y:UML>
        </y:UMLClassNode>
      </data>
    </node>
    <node id="n3">
      <data key="d4" xml:space="preserve"/>
      <data key="d6">
        <y:UMLClassNode>
          <y:Geometry height="231.1992187499999" width="254.6875" x="1457.5502976190476" y="2563.925788389846"/>
          <y:Fill color="#FFCC00" transparent="false"/>
          <y:BorderStyle color="#000000" type="line" width="1.0"/>
          <y:NodeLabel alignment="left" autoSizePolicy="content" fontFamily="Dialog" fontSize="13" fontStyle="bold" hasBackgroundColor="false" hasLineColor="false" height="226.9677734375" horizontalTextPosition="center" iconTextGap="4" modelName="custom" textColor="#000000" verticalTextPosition="bottom" visible="true" width="219.58544921875" x="17.551025390625" xml:space="preserve" y="3.0">&lt;&lt;abstract&gt;&gt;
BaseScreen

~ Stage mainStage
~ Stage uiStage
+ initialize(): void
+ update(float dt): void
+ *render(float dt): void
+ *show(): void
+ *resize(int width, int height): void
+ *pause(): void
+ *resume(): void
+ *hide(): void
+ *dispose(): void<y:LabelModel><y:SmartNodeLabelModel distance="4.0"/></y:LabelModel><y:ModelParameter><y:SmartNodeLabelModelParameter labelRatioX="0.0" labelRatioY="0.0" nodeRatioX="0.0" nodeRatioY="0.0" offsetX="0.0" offsetY="0.0" upX="0.0" upY="-1.0"/></y:ModelParameter></y:NodeLabel>
          <y:UML clipContent="true" constraint="" hasDetailsColor="false" omitDetails="false" stereotype="" use3DEffect="true">
            <y:AttributeLabel xml:space="preserve"/>
            <y:MethodLabel xml:space="preserve"/>
          </y:UML>
        </y:UMLClassNode>
      </data>
    </node>
    <node id="n4">
      <data key="d4" xml:space="preserve"/>
      <data key="d6">
        <y:UMLClassNode>
          <y:Geometry height="40.79999999999998" width="239.0625" x="1465.3627976190476" y="1946.0410184704488"/>
          <y:Fill color="#FFCC00" transparent="false"/>
          <y:BorderStyle color="#000000" type="line" width="1.0"/>
          <y:NodeLabel alignment="center" autoSizePolicy="content" fontFamily="Dialog" fontSize="13" fontStyle="bold" hasBackgroundColor="false" hasLineColor="false" height="35.8525390625" horizontalTextPosition="center" iconTextGap="4" modelName="custom" textColor="#000000" verticalTextPosition="bottom" visible="true" width="137.681640625" x="50.6904296875" xml:space="preserve" y="3.0">&lt;&lt;abstract&gt;&gt;
BaseGamepadScreen<y:LabelModel><y:SmartNodeLabelModel distance="4.0"/></y:LabelModel><y:ModelParameter><y:SmartNodeLabelModelParameter labelRatioX="0.0" labelRatioY="0.0" nodeRatioX="0.0" nodeRatioY="0.0" offsetX="0.0" offsetY="0.0" upX="0.0" upY="-1.0"/></y:ModelParameter></y:NodeLabel>
          <y:UML clipContent="true" constraint="" hasDetailsColor="false" omitDetails="false" stereotype="" use3DEffect="true">
            <y:AttributeLabel xml:space="preserve"/>
            <y:MethodLabel xml:space="preserve"/>
          </y:UML>
        </y:UMLClassNode>
      </data>
    </node>
    <node id="n5">
      <data key="d4" xml:space="preserve"/>
      <data key="d6">
        <y:UMLClassNode>
          <y:Geometry height="103.33183311087186" width="239.0625" x="401.95009920634925" y="1914.7751019150128"/>
          <y:Fill color="#FFCC00" transparent="false"/>
          <y:BorderStyle color="#000000" type="line" width="1.0"/>
          <y:NodeLabel alignment="left" autoSizePolicy="content" fontFamily="Dialog" fontSize="13" fontStyle="bold" hasBackgroundColor="false" hasLineColor="false" height="99.5576171875" horizontalTextPosition="center" iconTextGap="4" modelName="custom" textColor="#000000" verticalTextPosition="bottom" visible="true" width="132.20361328125" x="53.429443359375" xml:space="preserve" y="3.0">Config

+ float musicVolume
+ float soundVolume
+ loadConfig(): void
+ saveConfig(): void<y:LabelModel><y:SmartNodeLabelModel distance="4.0"/></y:LabelModel><y:ModelParameter><y:SmartNodeLabelModelParameter labelRatioX="0.0" labelRatioY="0.0" nodeRatioX="0.0" nodeRatioY="0.0" offsetX="0.0" offsetY="0.0" upX="0.0" upY="-1.0"/></y:ModelParameter></y:NodeLabel>
          <y:UML clipContent="true" constraint="" hasDetailsColor="false" omitDetails="false" stereotype="" use3DEffect="true">
            <y:AttributeLabel xml:space="preserve"/>
            <y:MethodLabel xml:space="preserve"/>
          </y:UML>
        </y:UMLClassNode>
      </data>
    </node>
    <node id="n6">
      <data key="d4" xml:space="preserve"/>
      <data key="d6">
        <y:UMLClassNode>
          <y:Geometry height="297.2133476856836" width="345.306302798708" x="20.000023203820604" y="2530.918723922004"/>
          <y:Fill color="#FFCC00" transparent="false"/>
          <y:BorderStyle color="#000000" type="line" width="1.0"/>
          <y:NodeLabel alignment="left" autoSizePolicy="content" fontFamily="Dialog" fontSize="13" fontStyle="bold" hasBackgroundColor="false" hasLineColor="false" height="290.6728515625" horizontalTextPosition="center" iconTextGap="4" modelName="custom" textColor="#000000" verticalTextPosition="bottom" visible="true" width="337.33447265625" x="3.9859150712289875" xml:space="preserve" y="3.0">Skin

- float walkAcceleration
- float walkDeceleration
- float maxHorizontalSpeed
- float gravity
- float maxVerticalSpeed
- BaseActor collisionBox
- boolean isWalking
- boolean isCarry
- PenguinMenu.Direction direction
- Animation leftTexture
- Animation rightTexture
- Animation leftTextureAlt
- Animation rightTextureAlt
~ setCarry(boolean carry): void
~ setDirection(PenguinMenu.Direction direction): void
+ *act(float dt): void<y:LabelModel><y:SmartNodeLabelModel distance="4.0"/></y:LabelModel><y:ModelParameter><y:SmartNodeLabelModelParameter labelRatioX="0.0" labelRatioY="0.0" nodeRatioX="0.0" nodeRatioY="0.0" offsetX="0.0" offsetY="0.0" upX="0.0" upY="-1.0"/></y:ModelParameter></y:NodeLabel>
          <y:UML clipContent="true" constraint="" hasDetailsColor="false" omitDetails="false" stereotype="" use3DEffect="true">
            <y:AttributeLabel xml:space="preserve"/>
            <y:MethodLabel xml:space="preserve"/>
          </y:UML>
        </y:UMLClassNode>
      </data>
    </node>
    <node id="n7">
      <data key="d4" xml:space="preserve"/>
      <data key="d6">
        <y:UMLClassNode>
          <y:Geometry height="461.99523444564056" width="239.0625" x="132.88740079365078" y="1735.4434012476286"/>
          <y:Fill color="#FFCC00" transparent="false"/>
          <y:BorderStyle color="#000000" type="line" width="1.0"/>
          <y:NodeLabel alignment="left" autoSizePolicy="content" fontFamily="Dialog" fontSize="13" fontStyle="bold" hasBackgroundColor="false" hasLineColor="false" height="449.935546875" horizontalTextPosition="center" iconTextGap="4" modelName="custom" textColor="#000000" verticalTextPosition="bottom" visible="true" width="192.1572265625" x="23.45263671875" xml:space="preserve" y="3.0">PenguinMenu

- Animation rightStand
- Animation leftStand
- Animation rightWalk
- Animation leftWalk
- Animation rightKick
- Animation leftKick
- BaseActor wing
- Skin skin
- int nTexture
- boolean isWalking
- boolean isKicking
- boolean isFalling
+ enum Direction
- Direction direction
- long actStartTime
- long kickStartTime
- float walkAcceleration
- float walkDeceleration
- float maxHorizontalSpeed
- float gravity
- float maxVerticalSpeed
+ BaseActor collisionBox
+ getSkin(): Skin
- loadRandomTexture(): void
+ *act(float dt): void
+ kick(PenguinMenu pm): void<y:LabelModel><y:SmartNodeLabelModel distance="4.0"/></y:LabelModel><y:ModelParameter><y:SmartNodeLabelModelParameter labelRatioX="0.0" labelRatioY="0.0" nodeRatioX="0.0" nodeRatioY="0.0" offsetX="0.0" offsetY="0.0" upX="0.0" upY="-1.0"/></y:ModelParameter></y:NodeLabel>
          <y:UML clipContent="true" constraint="" hasDetailsColor="false" omitDetails="false" stereotype="" use3DEffect="true">
            <y:AttributeLabel xml:space="preserve"/>
            <y:MethodLabel xml:space="preserve"/>
          </y:UML>
        </y:UMLClassNode>
      </data>
    </node>
    <node id="n8">
      <data key="d4" xml:space="preserve"/>
      <data key="d6">
        <y:UMLClassNode>
          <y:Geometry height="108.6027987082885" width="304.0" x="3568.921825396825" y="521.1807911733043"/>
          <y:Fill color="#FFCC00" transparent="false"/>
          <y:BorderStyle color="#000000" type="line" width="1.0"/>
          <y:NodeLabel alignment="left" autoSizePolicy="content" fontFamily="Dialog" fontSize="13" fontStyle="bold" hasBackgroundColor="false" hasLineColor="false" height="99.5576171875" horizontalTextPosition="center" iconTextGap="4" modelName="custom" textColor="#000000" verticalTextPosition="bottom" visible="true" width="279.666015625" x="12.1669921875" xml:space="preserve" y="3.0">BaseGame

- BaseGame game
- LabelStyle styleNormal
- Skin uiSkin
+ setActiveScreen(BaseScreen screen): void<y:LabelModel><y:SmartNodeLabelModel distance="4.0"/></y:LabelModel><y:ModelParameter><y:SmartNodeLabelModelParameter labelRatioX="0.0" labelRatioY="0.0" nodeRatioX="0.0" nodeRatioY="0.0" offsetX="0.0" offsetY="0.0" upX="0.0" upY="-1.0"/></y:ModelParameter></y:NodeLabel>
          <y:UML clipContent="true" constraint="" hasDetailsColor="false" omitDetails="false" stereotype="" use3DEffect="true">
            <y:AttributeLabel xml:space="preserve"/>
            <y:MethodLabel xml:space="preserve"/>
          </y:UML>
        </y:UMLClassNode>
      </data>
    </node>
    <node id="n9">
      <data key="d4" xml:space="preserve"/>
      <data key="d6">
        <y:UMLClassNode>
          <y:Geometry height="59.537499999999795" width="219.0" x="2011.701587301587" y="79.5374999999998"/>
          <y:Fill color="#FFCC00" transparent="false"/>
          <y:BorderStyle color="#000000" type="line" width="1.0"/>
          <y:NodeLabel alignment="center" autoSizePolicy="content" fontFamily="Dialog" fontSize="13" fontStyle="bold" hasBackgroundColor="false" hasLineColor="false" height="51.77880859375" horizontalTextPosition="center" iconTextGap="4" modelName="custom" textColor="#000000" verticalTextPosition="bottom" visible="true" width="100.4462890625" x="59.27685546875" xml:space="preserve" y="3.0">PFGGame

+ create() : void<y:LabelModel><y:SmartNodeLabelModel distance="4.0"/></y:LabelModel><y:ModelParameter><y:SmartNodeLabelModelParameter labelRatioX="0.0" labelRatioY="0.0" nodeRatioX="0.0" nodeRatioY="0.0" offsetX="0.0" offsetY="0.0" upX="0.0" upY="-1.0"/></y:ModelParameter></y:NodeLabel>
          <y:UML clipContent="true" constraint="" hasDetailsColor="false" omitDetails="false" stereotype="" use3DEffect="true">
            <y:AttributeLabel xml:space="preserve"/>
            <y:MethodLabel xml:space="preserve"/>
          </y:UML>
        </y:UMLClassNode>
      </data>
    </node>
    <node id="n10">
      <data key="d4" xml:space="preserve"/>
      <data key="d6">
        <y:UMLClassNode>
          <y:Geometry height="59.537499999999795" width="219.0" x="2011.701587301587" y="0.0"/>
          <y:Fill color="#FFCC00" transparent="false"/>
          <y:BorderStyle color="#000000" type="line" width="1.0"/>
          <y:NodeLabel alignment="center" autoSizePolicy="content" fontFamily="Dialog" fontSize="13" fontStyle="bold" hasBackgroundColor="false" hasLineColor="false" height="51.77880859375" horizontalTextPosition="center" iconTextGap="4" modelName="custom" textColor="#000000" verticalTextPosition="bottom" visible="true" width="166.15087890625" x="26.424560546875" xml:space="preserve" y="3.0">Launcher

+ main(String[] args): void<y:LabelModel><y:SmartNodeLabelModel distance="4.0"/></y:LabelModel><y:ModelParameter><y:SmartNodeLabelModelParameter labelRatioX="0.0" labelRatioY="0.0" nodeRatioX="0.0" nodeRatioY="0.0" offsetX="0.0" offsetY="0.0" upX="0.0" upY="-1.0"/></y:ModelParameter></y:NodeLabel>
          <y:UML clipContent="true" constraint="" hasDetailsColor="false" omitDetails="false" stereotype="" use3DEffect="true">
            <y:AttributeLabel xml:space="preserve"/>
            <y:MethodLabel xml:space="preserve"/>
          </y:UML>
        </y:UMLClassNode>
      </data>
    </node>
    <node id="n11">
      <data key="d4" xml:space="preserve"/>
      <data key="d6">
        <y:UMLClassNode>
          <y:Geometry height="120.85442411194833" width="429.6874999999991" x="671.0125992063497" y="1906.0138064144749"/>
          <y:Fill color="#FFCC00" transparent="false"/>
          <y:BorderStyle color="#000000" type="line" width="1.0"/>
          <y:NodeLabel alignment="left" autoSizePolicy="content" fontFamily="Dialog" fontSize="13" fontStyle="bold" hasBackgroundColor="false" hasLineColor="false" height="115.48388671875" horizontalTextPosition="center" iconTextGap="4" modelName="custom" textColor="#000000" verticalTextPosition="bottom" visible="true" width="418.22900390625" x="5.729248046874545" xml:space="preserve" y="3.0">Profile

- String name
- ArrayList&lt;ControllerProfile&gt; controllerProfiles
+ getName(): String
+ addControllerProfile(ControllerProfile newControllerProfile): void
+ getControllerProfiles(): ArrayList&lt;ControllerProfile&gt;<y:LabelModel><y:SmartNodeLabelModel distance="4.0"/></y:LabelModel><y:ModelParameter><y:SmartNodeLabelModelParameter labelRatioX="0.0" labelRatioY="0.0" nodeRatioX="0.0" nodeRatioY="0.0" offsetX="0.0" offsetY="0.0" upX="0.0" upY="-1.0"/></y:ModelParameter></y:NodeLabel>
          <y:UML clipContent="true" constraint="" hasDetailsColor="false" omitDetails="false" stereotype="" use3DEffect="true">
            <y:AttributeLabel xml:space="preserve"/>
            <y:MethodLabel xml:space="preserve"/>
          </y:UML>
        </y:UMLClassNode>
      </data>
    </node>
    <node id="n12">
      <data key="d4" xml:space="preserve"/>
      <data key="d6">
        <y:UMLClassNode>
          <y:Geometry height="540.4340316974506" width="371.2500000000002" x="1557.2503968253968" y="305.26517467872327"/>
          <y:Fill color="#FFCC00" transparent="false"/>
          <y:BorderStyle color="#000000" type="line" width="1.0"/>
          <y:NodeLabel alignment="left" autoSizePolicy="content" fontFamily="Dialog" fontSize="13" fontStyle="bold" hasBackgroundColor="false" hasLineColor="false" height="529.56689453125" horizontalTextPosition="center" iconTextGap="4" modelName="custom" textColor="#000000" verticalTextPosition="bottom" visible="true" width="354.6826171875" x="8.283691406250114" xml:space="preserve" y="3.0">AddControllerScreen

- long startInteractionTime
- Viewport viewport
- Camera camera
- ControllerProfile controllerProfile
- Controller controllerInUse
- ArrayList&lt;Profile&gt; profiles
- Profile currentProfile
- enum State
- State state
- BaseActor tvImage
- Label pulsaBtnMandoLabel
- Label caminaDerechaLabel
- Label caminaIzquierdaLabel
- Label dejarCaerLabel
- Label saltarLabel
- Label cogerArmaLabel
- Label dispararLabel
- Label lanzarLabel
- Label startLabel
- BaseActor player
- BaseActor wing
- BaseActor enemy
- BaseActor enemyWing
- BaseActor weapon
- BaseActor enemyWeapon
+ *initialize(): void
+ *axisMoved(Controller controller, int i, float v): boolean
+ *buttonUp(Controller controller, int i): boolean
+ *update(float dt): void
- saveProfileConfiguration(): void
+ *resize(int arg0, int arg1): void<y:LabelModel><y:SmartNodeLabelModel distance="4.0"/></y:LabelModel><y:ModelParameter><y:SmartNodeLabelModelParameter labelRatioX="0.0" labelRatioY="-0.4527916109217346" nodeRatioX="0.0" nodeRatioY="0.5" offsetX="0.0" offsetY="0.0" upX="0.0" upY="-1.0"/></y:ModelParameter></y:NodeLabel>
          <y:UML clipContent="true" constraint="" hasDetailsColor="false" omitDetails="false" stereotype="" use3DEffect="true">
            <y:AttributeLabel xml:space="preserve"/>
            <y:MethodLabel xml:space="preserve"/>
          </y:UML>
        </y:UMLClassNode>
      </data>
    </node>
    <node id="n13">
      <data key="d4" xml:space="preserve"/>
      <data key="d6">
        <y:UMLClassNode>
          <y:Geometry height="258.0965316974506" width="488.4374999999998" x="3050.4840277777776" y="446.43392467872326"/>
          <y:Fill color="#FFCC00" transparent="false"/>
          <y:BorderStyle color="#000000" type="line" width="1.0"/>
          <y:NodeLabel alignment="left" autoSizePolicy="content" fontFamily="Dialog" fontSize="13" fontStyle="bold" hasBackgroundColor="false" hasLineColor="false" height="242.89404296875" horizontalTextPosition="center" iconTextGap="4" modelName="custom" textColor="#000000" verticalTextPosition="bottom" visible="true" width="477.458984375" x="5.489257812499886" xml:space="preserve" y="3.0">TestControllerScreen

- Viewport viewPort
- Camera camera
- Controller currentController
- ControllerProfile controllerProfile
- TiledMapActor tma
- Player player
+ *initialize(): void
+ *povMoved(Controller controller, int i, PovDirection povDirection): boolean
+ *axisMoved(Controller controller, int i, float v): boolean
+ *buttonDown(Controller controller, int i): boolean
+ *buttonUp(Controller controller, int i): boolean
+ *update(float dt): void
+ *resize(int arg0, int arg1):void<y:LabelModel><y:SmartNodeLabelModel distance="4.0"/></y:LabelModel><y:ModelParameter><y:SmartNodeLabelModelParameter labelRatioX="0.0" labelRatioY="0.0" nodeRatioX="0.0" nodeRatioY="0.0" offsetX="0.0" offsetY="0.0" upX="0.0" upY="-1.0"/></y:ModelParameter></y:NodeLabel>
          <y:UML clipContent="true" constraint="" hasDetailsColor="false" omitDetails="false" stereotype="" use3DEffect="true">
            <y:AttributeLabel xml:space="preserve"/>
            <y:MethodLabel xml:space="preserve"/>
          </y:UML>
        </y:UMLClassNode>
      </data>
    </node>
    <node id="n14">
      <data key="d4" xml:space="preserve"/>
      <data key="d6">
        <y:UMLClassNode>
          <y:Geometry height="551.9181916038752" width="488.4375" x="277.26259920634925" y="299.52309472551093"/>
          <y:Fill color="#FFCC00" transparent="false"/>
          <y:BorderStyle color="#000000" type="line" width="1.0"/>
          <y:NodeLabel alignment="left" autoSizePolicy="content" fontFamily="Dialog" fontSize="13" fontStyle="bold" hasBackgroundColor="false" hasLineColor="false" height="545.4931640625" horizontalTextPosition="center" iconTextGap="4" modelName="custom" textColor="#000000" verticalTextPosition="bottom" visible="true" width="477.458984375" x="5.4892578125" xml:space="preserve" y="3.0">StartMenuScreen

- long startInteractionTime
- Viewport viewport
- Camera camera
- PenguinMenu pm1
- PenguinMenu pm2
- BaseActor platform
- int selectedOption
- int maxMenuOption
- enum Menu
- Menu currentMenu
- Label unJugadorLabel
- Label multijugadorLabel
- Label configuracionLabel
- Label musicaLabel
- Slider musicSlider
- Label effectosSonidoLabel
- Slider soundSlider
- Label perfilesLabel
- Music titleMusic
- Sound navigateSound
- Sound acceptSound
+ *initialize(): void
- animateMainMenu(boolean delay, boolean intro): void
- animateConfMenu(boolean intro): void
+ *povMoved(Controller controller, int i, PovDirection povDirection): boolean
+ *axisMoved(Controller controller, int i, float v): boolean
- goBack(): void
+ * buttonUp(Controller controller, int i): boolean
- updateMenu(int value): void
- optionSelected(): void
+ *update(float dt): void
+ *resize(int arg0, int arg1): void<y:LabelModel><y:SmartNodeLabelModel distance="4.0"/></y:LabelModel><y:ModelParameter><y:SmartNodeLabelModelParameter labelRatioX="0.0" labelRatioY="0.0" nodeRatioX="0.0" nodeRatioY="0.0" offsetX="0.0" offsetY="0.0" upX="0.0" upY="-1.0"/></y:ModelParameter></y:NodeLabel>
          <y:UML clipContent="true" constraint="" hasDetailsColor="false" omitDetails="false" stereotype="" use3DEffect="true">
            <y:AttributeLabel xml:space="preserve"/>
            <y:MethodLabel xml:space="preserve"/>
          </y:UML>
        </y:UMLClassNode>
      </data>
    </node>
    <node id="n15">
      <data key="d4" xml:space="preserve"/>
      <data key="d6">
        <y:UMLClassNode>
          <y:Geometry height="810.8143810548979" width="488.4375" x="1038.8125992063492" y="170.0749999999996"/>
          <y:Fill color="#FFCC00" transparent="false"/>
          <y:BorderStyle color="#000000" type="line" width="1.0"/>
          <y:NodeLabel alignment="left" autoSizePolicy="content" fontFamily="Dialog" fontSize="13" fontStyle="bold" hasBackgroundColor="false" hasLineColor="false" height="800.3134765625" horizontalTextPosition="center" iconTextGap="4" modelName="custom" textColor="#000000" verticalTextPosition="bottom" visible="true" width="477.458984375" x="5.4892578125" xml:space="preserve" y="3.0">ProfilesScreen

- long startInteractionTime
- Viewport viewport
- Camera camera
- BaseActor television
- int selectedOption
- int maxMenuOption
- enum Menu
- Menu currentMenu
+ ArrayList&lt;Profile&gt; profiles
- Label nuevoPerfilLabel
- Label editarPerfilLabel
- Label importarPerfilLabel
- Label exportarPerfilLabel
- Label nombreLabel
- Label typedNameLabel
- BaseActor blackScreen
- Label seleccionaPerfilLabel
- Label selectedProfileLabel
- Label selectArrowLeftLabel
- Label selectArrowRightLabel
- int selectedProfileId
- Label profileNameLabel
- Label probarPerfilLabel
- Label borrarPerfilLabel
- BaseActor deleteProfileBlackScreen
- Label eliminarPefilLabel
- Label siEliminarPerfilLabel
- Label noEliminarPefilLabel
- boolean deleteProfileSelection
- Sound navigateSound
- Sound acceptSound
+ *initialize(): void
- animateMainMenu(boolean intro): void
- animateNewProfileMenu(boolean intro): void
- animateProfileSelectMenu(boolean intro): void
- animateEditProfileMenu(boolean intro): void
- animateDeleteProfileMenu(boolean intro): void
+ *povMoved(Controller controller, int i, PovDirection povDirection): boolean
+ *axisMoved(Controller controller, int i, float v): boolean
+ *buttonUp(Controller controller, int i): boolean
- optionSelected(): void
- goBack(): void
- updateMenuSelection(int value, boolean sound): void
- updateSelectedProfile(int value): void
- addCharacter(String character): void
- deleteCharacter(StringBuilder text): String
+ *update(float dt): void
+ *resize(int arg0, int ag1): void<y:LabelModel><y:SmartNodeLabelModel distance="4.0"/></y:LabelModel><y:ModelParameter><y:SmartNodeLabelModelParameter labelRatioX="0.0" labelRatioY="0.0" nodeRatioX="0.0" nodeRatioY="0.0" offsetX="0.0" offsetY="0.0" upX="0.0" upY="-1.0"/></y:ModelParameter></y:NodeLabel>
          <y:UML clipContent="true" constraint="" hasDetailsColor="false" omitDetails="false" stereotype="" use3DEffect="true">
            <y:AttributeLabel xml:space="preserve"/>
            <y:MethodLabel xml:space="preserve"/>
          </y:UML>
        </y:UMLClassNode>
      </data>
    </node>
    <node id="n16">
      <data key="d4" xml:space="preserve"/>
      <data key="d6">
        <y:UMLClassNode>
          <y:Geometry height="87.8430449946178" width="188.70851375672737" x="2871.7854256613186" y="2635.6038752675368"/>
          <y:Fill color="#FFCC00" transparent="false"/>
          <y:BorderStyle color="#000000" type="line" width="1.0"/>
          <y:NodeLabel alignment="left" autoSizePolicy="content" fontFamily="Dialog" fontSize="13" fontStyle="bold" hasBackgroundColor="false" hasLineColor="false" height="83.63134765625" horizontalTextPosition="center" iconTextGap="4" modelName="custom" textColor="#000000" verticalTextPosition="bottom" visible="true" width="70.47900390625" x="59.114754925238685" xml:space="preserve" y="3.0">&lt;&lt;Enum&gt;&gt;
Direction

RIGHT
LEFT<y:LabelModel><y:SmartNodeLabelModel distance="4.0"/></y:LabelModel><y:ModelParameter><y:SmartNodeLabelModelParameter labelRatioX="0.0" labelRatioY="0.0" nodeRatioX="0.0" nodeRatioY="0.0" offsetX="0.0" offsetY="0.0" upX="0.0" upY="-1.0"/></y:ModelParameter></y:NodeLabel>
          <y:UML clipContent="true" constraint="" hasDetailsColor="false" omitDetails="false" stereotype="" use3DEffect="true">
            <y:AttributeLabel xml:space="preserve"/>
            <y:MethodLabel xml:space="preserve"/>
          </y:UML>
        </y:UMLClassNode>
      </data>
    </node>
    <node id="n17">
      <data key="d4" xml:space="preserve"/>
      <data key="d6">
        <y:UMLClassNode>
          <y:Geometry height="103.33183311087191" width="188.70851375672737" x="3090.494155820049" y="2627.8594812094098"/>
          <y:Fill color="#FFCC00" transparent="false"/>
          <y:BorderStyle color="#000000" type="line" width="1.0"/>
          <y:NodeLabel alignment="left" autoSizePolicy="content" fontFamily="Dialog" fontSize="13" fontStyle="bold" hasBackgroundColor="false" hasLineColor="false" height="99.5576171875" horizontalTextPosition="center" iconTextGap="4" modelName="custom" textColor="#000000" verticalTextPosition="bottom" visible="true" width="70.47900390625" x="59.114754925238685" xml:space="preserve" y="3.0">&lt;&lt;Enum&gt;&gt;
DeadType

CRUSHED
SHOT
VOID<y:LabelModel><y:SmartNodeLabelModel distance="4.0"/></y:LabelModel><y:ModelParameter><y:SmartNodeLabelModelParameter labelRatioX="0.0" labelRatioY="0.0" nodeRatioX="0.0" nodeRatioY="0.0" offsetX="0.0" offsetY="0.0" upX="0.0" upY="-1.0"/></y:ModelParameter></y:NodeLabel>
          <y:UML clipContent="true" constraint="" hasDetailsColor="false" omitDetails="false" stereotype="" use3DEffect="true">
            <y:AttributeLabel xml:space="preserve"/>
            <y:MethodLabel xml:space="preserve"/>
          </y:UML>
        </y:UMLClassNode>
      </data>
    </node>
    <node id="n18">
      <data key="d4" xml:space="preserve"/>
      <data key="d6">
        <y:UMLClassNode>
          <y:Geometry height="185.52801550053823" width="411.09840775026896" x="3674.6825421566114" y="1873.6770107201796"/>
          <y:Fill color="#FFCC00" transparent="false"/>
          <y:BorderStyle color="#000000" type="line" width="1.0"/>
          <y:NodeLabel alignment="left" autoSizePolicy="content" fontFamily="Dialog" fontSize="13" fontStyle="bold" hasBackgroundColor="false" hasLineColor="false" height="179.18896484375" horizontalTextPosition="center" iconTextGap="4" modelName="custom" textColor="#000000" verticalTextPosition="bottom" visible="true" width="404.5625" x="3.2679538751344808" xml:space="preserve" y="3.0">TiledMapActor

+ int windowWidth
+ int windowHeight
- TiledMap tiledMap
- OrthographicCamera tiledCamera
- OrthoCachedTiledMapRenderer tiledMapRenderer
+ getRectangleList(String propertyName): ArrayList&lt;MapObject&gt;
+ getTileList(String propertyName): ArrayList&lt;MapObject&gt;
+ *act(float dt): void
+ *draw(Batch batch, float parentAlpha): void<y:LabelModel><y:SmartNodeLabelModel distance="4.0"/></y:LabelModel><y:ModelParameter><y:SmartNodeLabelModelParameter labelRatioX="0.0" labelRatioY="0.0" nodeRatioX="0.0" nodeRatioY="0.0" offsetX="0.0" offsetY="0.0" upX="0.0" upY="-1.0"/></y:ModelParameter></y:NodeLabel>
          <y:UML clipContent="true" constraint="" hasDetailsColor="false" omitDetails="false" stereotype="" use3DEffect="true">
            <y:AttributeLabel xml:space="preserve"/>
            <y:MethodLabel xml:space="preserve"/>
          </y:UML>
        </y:UMLClassNode>
      </data>
    </node>
    <node id="n19">
      <data key="d4" xml:space="preserve"/>
      <data key="d6">
        <y:UMLClassNode>
          <y:Geometry height="78.54878449946187" width="229.74807491926776" x="2612.037073651477" y="2640.2510055151147"/>
          <y:Fill color="#FFCC00" transparent="false"/>
          <y:BorderStyle color="#000000" type="line" width="1.0"/>
          <y:NodeLabel alignment="left" autoSizePolicy="content" fontFamily="Dialog" fontSize="13" fontStyle="bold" hasBackgroundColor="false" hasLineColor="false" height="67.705078125" horizontalTextPosition="center" iconTextGap="4" modelName="custom" textColor="#000000" verticalTextPosition="bottom" visible="true" width="132.9462890625" x="48.40089292838388" xml:space="preserve" y="3.0">Mobile

+ *remove(): boolean
+ *act(float dt): void<y:LabelModel><y:SmartNodeLabelModel distance="4.0"/></y:LabelModel><y:ModelParameter><y:SmartNodeLabelModelParameter labelRatioX="0.0" labelRatioY="0.0" nodeRatioX="0.0" nodeRatioY="0.0" offsetX="0.0" offsetY="0.0" upX="0.0" upY="-1.0"/></y:ModelParameter></y:NodeLabel>
          <y:UML clipContent="true" constraint="" hasDetailsColor="false" omitDetails="false" stereotype="" use3DEffect="true">
            <y:AttributeLabel xml:space="preserve"/>
            <y:MethodLabel xml:space="preserve"/>
          </y:UML>
        </y:UMLClassNode>
      </data>
    </node>
    <node id="n20">
      <data key="d4" xml:space="preserve"/>
      <data key="d6">
        <y:UMLClassNode>
          <y:Geometry height="521.197552292788" width="338.3784039612483" x="1734.4254805590583" y="1705.842242324055"/>
          <y:Fill color="#FFCC00" transparent="false"/>
          <y:BorderStyle color="#000000" type="line" width="1.0"/>
          <y:NodeLabel alignment="left" autoSizePolicy="content" fontFamily="Dialog" fontSize="13" fontStyle="bold" hasBackgroundColor="false" hasLineColor="false" height="513.640625" horizontalTextPosition="center" iconTextGap="4" modelName="custom" textColor="#000000" verticalTextPosition="bottom" visible="true" width="330.904296875" x="3.737053543124148" xml:space="preserve" y="3.0">Crate

- float posX
- float posY
- float width
- float height
- boolean alive
- BaseActor crateDestroyed
- float accelerationX
- float accelerationY
- maxHorizontalSpeed
- float horizontalDeceleration
- float gravity
- boolean gravityEnabled
- float maxFallSpeed
- boolean moving
- Direction direction
- BaseActor feetSensor
- BaseActor grabSensor
+ getPosX(): float
+ getPosY(): float
+ *getWidth(): float
+ *getHeight(): float
+ getFeetSensor(): BaseActor
+ getGrabSensor(): BaseActor
+ setGravityEnabled(boolean gravityEnabled): void
+ getVelocityVector(): Vector2
+ move(float accelerationX, float accelerationY): void
+ reciveKick(Direction direction): void
+ drop(Direction direction): void
+ destroy(): void
+ *act(float dt): void<y:LabelModel><y:SmartNodeLabelModel distance="4.0"/></y:LabelModel><y:ModelParameter><y:SmartNodeLabelModelParameter labelRatioX="0.0" labelRatioY="0.0" nodeRatioX="0.0" nodeRatioY="0.0" offsetX="0.0" offsetY="0.0" upX="0.0" upY="-1.0"/></y:ModelParameter></y:NodeLabel>
          <y:UML clipContent="true" constraint="" hasDetailsColor="false" omitDetails="false" stereotype="" use3DEffect="true">
            <y:AttributeLabel xml:space="preserve"/>
            <y:MethodLabel xml:space="preserve"/>
          </y:UML>
        </y:UMLClassNode>
      </data>
    </node>
    <node id="n21">
      <data key="d4" xml:space="preserve"/>
      <data key="d6">
        <y:UMLClassNode>
          <y:Geometry height="153.87638493003237" width="250.9649360602798" x="2331.0718970492253" y="2602.5872052998297"/>
          <y:Fill color="#FFCC00" transparent="false"/>
          <y:BorderStyle color="#000000" type="line" width="1.0"/>
          <y:NodeLabel alignment="left" autoSizePolicy="content" fontFamily="Dialog" fontSize="13" fontStyle="bold" hasBackgroundColor="false" hasLineColor="false" height="147.33642578125" horizontalTextPosition="center" iconTextGap="4" modelName="custom" textColor="#000000" verticalTextPosition="bottom" visible="true" width="154.998046875" x="47.9834445926399" xml:space="preserve" y="3.0">Proyectile

-Direction direction
- int velocityX
- boolean gravity
- float gravityForce
- float maxVerticalSpeed

+ * act(float dt): void<y:LabelModel><y:SmartNodeLabelModel distance="4.0"/></y:LabelModel><y:ModelParameter><y:SmartNodeLabelModelParameter labelRatioX="0.0" labelRatioY="0.0" nodeRatioX="0.0" nodeRatioY="0.0" offsetX="0.0" offsetY="0.0" upX="0.0" upY="-1.0"/></y:ModelParameter></y:NodeLabel>
          <y:UML clipContent="true" constraint="" hasDetailsColor="false" omitDetails="false" stereotype="" use3DEffect="true">
            <y:AttributeLabel xml:space="preserve"/>
            <y:MethodLabel xml:space="preserve"/>
          </y:UML>
        </y:UMLClassNode>
      </data>
    </node>
    <node id="n22">
      <data key="d4" xml:space="preserve"/>
      <data key="d6">
        <y:UMLClassNode>
          <y:Geometry height="299.8189234627438" width="258.45117849302824" x="3326.2029821820574" y="2529.615936033474"/>
          <y:Fill color="#FFCC00" transparent="false"/>
          <y:BorderStyle color="#000000" type="line" width="1.0"/>
          <y:NodeLabel alignment="left" autoSizePolicy="content" fontFamily="Dialog" fontSize="13" fontStyle="bold" hasBackgroundColor="false" hasLineColor="false" height="290.6728515625" horizontalTextPosition="center" iconTextGap="4" modelName="custom" textColor="#000000" verticalTextPosition="bottom" visible="true" width="248.50537109375" x="4.972903699639119" xml:space="preserve" y="3.0">Weapon

+ int nMuniton
+ BaseActor munitionType
+ boolean loaded
+ boolean reloading
+ int reloadingTime
- int nWeapon
+ float KnockBack
+ int shootSpeed
~ Direction direction
- Animation right
- Animation left
+ getnWeapon(): int
+ shoot(): void
+ reload(): void
~ setDirection(Direction direction): void
+ drop(): void
<y:LabelModel><y:SmartNodeLabelModel distance="4.0"/></y:LabelModel><y:ModelParameter><y:SmartNodeLabelModelParameter labelRatioX="0.0" labelRatioY="0.0" nodeRatioX="0.0" nodeRatioY="0.0" offsetX="0.0" offsetY="0.0" upX="0.0" upY="-1.0"/></y:ModelParameter></y:NodeLabel>
          <y:UML clipContent="true" constraint="" hasDetailsColor="false" omitDetails="false" stereotype="" use3DEffect="true">
            <y:AttributeLabel xml:space="preserve"/>
            <y:MethodLabel xml:space="preserve"/>
          </y:UML>
        </y:UMLClassNode>
      </data>
    </node>
    <node id="n23">
      <data key="d4" xml:space="preserve"/>
      <data key="d5"/>
      <data key="d6">
        <y:UMLClassNode>
          <y:Geometry height="457.2112328109163" width="305.3369352982454" x="2444.461294255639" y="1737.8354020649908"/>
          <y:Fill color="#FFCC00" transparent="false"/>
          <y:BorderStyle color="#000000" type="line" width="1.0"/>
          <y:NodeLabel alignment="left" autoSizePolicy="content" fontFamily="Dialog" fontSize="13" fontStyle="bold" hasBackgroundColor="false" hasLineColor="false" height="449.935546875" horizontalTextPosition="center" iconTextGap="4" modelName="custom" textColor="#000000" verticalTextPosition="bottom" visible="true" width="319.326171875" x="-6.994618288377296" xml:space="preserve" y="3.0">WeaponItem

- float posX
- float posY
- float accelerationX
- float accelerationY
- float maxHorizontalSpeed
- float horizontalDeceleration
- float gravity
- boolean gravityEnabled
- float maxFallSpeed
- boolean moving
- Direction direction
- BaseActor feetSensor
- BaseActor grabSensor
- int nWeapon
- BaseActor body
- Animation right
- Animation left
+ getPosX(): float
+ getPosY(): float
+ getNWeapon(): int
+ getFeetSensor(): BaseActor
+ getGrabSensor(): BaseActor
+ setGravityEnabled(boolean gravityEnabled): void
~ drop(Direction direction): void
+ *remove(): boolean
+ *act(float dt): void<y:LabelModel><y:SmartNodeLabelModel distance="4.0"/></y:LabelModel><y:ModelParameter><y:SmartNodeLabelModelParameter labelRatioX="0.0" labelRatioY="0.0" nodeRatioX="0.0" nodeRatioY="0.0" offsetX="0.0" offsetY="0.0" upX="0.0" upY="-1.0"/></y:ModelParameter></y:NodeLabel>
          <y:UML clipContent="true" constraint="" hasDetailsColor="false" omitDetails="false" stereotype="" use3DEffect="true">
            <y:AttributeLabel xml:space="preserve"/>
            <y:MethodLabel xml:space="preserve"/>
          </y:UML>
        </y:UMLClassNode>
      </data>
    </node>
    <node id="n24">
      <data key="d4" xml:space="preserve"/>
      <data key="d5"/>
      <data key="d6">
        <y:UMLClassNode>
          <y:Geometry height="153.87638493003237" width="250.9649360602798" x="395.306420858749" y="2602.5872052998297"/>
          <y:Fill color="#FFCC00" transparent="false"/>
          <y:BorderStyle color="#000000" type="line" width="1.0"/>
          <y:NodeLabel alignment="left" autoSizePolicy="content" fontFamily="Dialog" fontSize="13" fontStyle="bold" hasBackgroundColor="false" hasLineColor="false" height="147.33642578125" horizontalTextPosition="center" iconTextGap="4" modelName="custom" textColor="#000000" verticalTextPosition="bottom" visible="true" width="248.50537109375" x="1.2297824832648985" xml:space="preserve" y="3.0">Skin

- boolean isCarry
- Direction direction
- Animation leftTexture
- Animation rightTexture
- Animation leftTextureAlt
- Animation rightTextureAlt
~ setDirection(Direction direction): void<y:LabelModel><y:SmartNodeLabelModel distance="4.0"/></y:LabelModel><y:ModelParameter><y:SmartNodeLabelModelParameter labelRatioX="0.0" labelRatioY="0.0" nodeRatioX="0.0" nodeRatioY="0.0" offsetX="0.0" offsetY="0.0" upX="0.0" upY="-1.0"/></y:ModelParameter></y:NodeLabel>
          <y:UML clipContent="true" constraint="" hasDetailsColor="false" omitDetails="false" stereotype="" use3DEffect="true">
            <y:AttributeLabel xml:space="preserve"/>
            <y:MethodLabel xml:space="preserve"/>
          </y:UML>
        </y:UMLClassNode>
      </data>
    </node>
    <node id="n25">
      <data key="d4" xml:space="preserve"/>
      <data key="d5"/>
      <data key="d6">
        <y:UMLClassNode>
          <y:Geometry height="172.09679854035102" width="213.31983125560146" x="3188.042862149977" y="1880.3926192002732"/>
          <y:Fill color="#FFCC00" transparent="false"/>
          <y:BorderStyle color="#000000" type="line" width="1.0"/>
          <y:NodeLabel alignment="left" autoSizePolicy="content" fontFamily="Dialog" fontSize="13" fontStyle="bold" hasBackgroundColor="false" hasLineColor="false" height="163.2626953125" horizontalTextPosition="center" iconTextGap="4" modelName="custom" textColor="#000000" verticalTextPosition="bottom" visible="true" width="124.24365234375" x="44.53808945592573" xml:space="preserve" y="3.0">Solid

- float posX
- float posY
- float width
- float height
+ getPosX(): float
+ getPosY(): float
+ *getWidth(): float
+ *getHeight(): float<y:LabelModel><y:SmartNodeLabelModel distance="4.0"/></y:LabelModel><y:ModelParameter><y:SmartNodeLabelModelParameter labelRatioX="0.0" labelRatioY="0.0" nodeRatioX="0.0" nodeRatioY="0.0" offsetX="0.0" offsetY="0.0" upX="0.0" upY="-1.0"/></y:ModelParameter></y:NodeLabel>
          <y:UML clipContent="true" constraint="" hasDetailsColor="false" omitDetails="false" stereotype="" use3DEffect="true">
            <y:AttributeLabel xml:space="preserve"/>
            <y:MethodLabel xml:space="preserve"/>
          </y:UML>
        </y:UMLClassNode>
      </data>
    </node>
    <node id="n26">
      <data key="d4" xml:space="preserve"/>
      <data key="d5"/>
      <data key="d6">
        <y:UMLClassNode>
          <y:Geometry height="28.0" width="213.31983125560146" x="3431.3627034198184" y="1952.4410184704489"/>
          <y:Fill color="#FFCC00" transparent="false"/>
          <y:BorderStyle color="#000000" type="line" width="1.0"/>
          <y:NodeLabel alignment="center" autoSizePolicy="content" fontFamily="Dialog" fontSize="13" fontStyle="bold" hasBackgroundColor="false" hasLineColor="false" height="19.92626953125" horizontalTextPosition="center" iconTextGap="4" modelName="custom" textColor="#000000" verticalTextPosition="bottom" visible="true" width="56.72998046875" x="78.29492539342573" xml:space="preserve" y="3.0">Platform<y:LabelModel><y:SmartNodeLabelModel distance="4.0"/></y:LabelModel><y:ModelParameter><y:SmartNodeLabelModelParameter labelRatioX="0.0" labelRatioY="0.0" nodeRatioX="0.0" nodeRatioY="0.0" offsetX="0.0" offsetY="0.0" upX="0.0" upY="-1.0"/></y:ModelParameter></y:NodeLabel>
          <y:UML clipContent="true" constraint="" hasDetailsColor="false" omitDetails="false" stereotype="" use3DEffect="true">
            <y:AttributeLabel xml:space="preserve"/>
            <y:MethodLabel xml:space="preserve"/>
          </y:UML>
        </y:UMLClassNode>
      </data>
    </node>
    <node id="n27">
      <data key="d4" xml:space="preserve"/>
      <data key="d5"/>
      <data key="d6">
        <y:UMLClassNode>
          <y:Geometry height="199.4750565801171" width="250.9649360602798" x="3122.479039906368" y="2860.434859496218"/>
          <y:Fill color="#FFCC00" transparent="false"/>
          <y:BorderStyle color="#000000" type="line" width="1.0"/>
          <y:NodeLabel alignment="left" autoSizePolicy="content" fontFamily="Dialog" fontSize="13" fontStyle="bold" hasBackgroundColor="false" hasLineColor="false" height="195.115234375" horizontalTextPosition="center" iconTextGap="4" modelName="custom" textColor="#000000" verticalTextPosition="bottom" visible="true" width="243.08447265625" x="3.9402317020148985" xml:space="preserve" y="3.0">BaseActor

-Animation&lt;TextureRegion&gt; animation
- float elapsedTime
- boolean animationPaused
~ Vector2 velocityVec
~ Vector2 accelerationVec
- float acceleration
- float maxSpeed
- float deceleration
- Polygon boundaryPolygon
- Rectangle worldBounds<y:LabelModel><y:SmartNodeLabelModel distance="4.0"/></y:LabelModel><y:ModelParameter><y:SmartNodeLabelModelParameter labelRatioX="0.0" labelRatioY="0.0" nodeRatioX="0.0" nodeRatioY="0.0" offsetX="0.0" offsetY="0.0" upX="0.0" upY="-1.0"/></y:ModelParameter></y:NodeLabel>
          <y:UML clipContent="true" constraint="" hasDetailsColor="false" omitDetails="false" stereotype="" use3DEffect="true">
            <y:AttributeLabel xml:space="preserve"/>
            <y:MethodLabel xml:space="preserve"/>
          </y:UML>
        </y:UMLClassNode>
      </data>
    </node>
    <edge id="e0" source="n13" target="n0">
      <data key="d8" xml:space="preserve"/>
      <data key="d10">
        <y:PolyLineEdge>
          <y:Path sx="-97.68749999999994" sy="129.0482658487253" tx="0.0" ty="-553.1749175630251">
            <y:Point x="3197.0152777777776" y="1397.7661009074238"/>
            <y:Point x="2972.417857142857" y="1397.7661009074238"/>
          </y:Path>
          <y:LineStyle color="#000000" type="dashed" width="1.0"/>
          <y:Arrows source="none" target="white_delta"/>
          <y:BendStyle smoothed="false"/>
        </y:PolyLineEdge>
      </data>
    </edge>
    <edge id="e1" source="n12" target="n1">
      <data key="d8" xml:space="preserve"/>
      <data key="d10">
        <y:PolyLineEdge>
          <y:Path sx="92.81250000000006" sy="270.2170158487253" tx="0.0" ty="-216.80000000000013">
            <y:Point x="1835.6878968253968" y="1365.7661009074238"/>
            <y:Point x="2255.1353174603173" y="1365.7661009074238"/>
          </y:Path>
          <y:LineStyle color="#000000" type="dashed" width="1.0"/>
          <y:Arrows source="none" target="plain"/>
          <y:BendStyle smoothed="false"/>
        </y:PolyLineEdge>
      </data>
    </edge>
    <edge id="e2" source="n4" target="n3">
      <data key="d8" xml:space="preserve"/>
      <data key="d10">
        <y:PolyLineEdge>
          <y:Path sx="0.0" sy="20.39999999999999" tx="0.0" ty="-115.59960937499994"/>
          <y:LineStyle color="#000000" type="line" width="1.0"/>
          <y:Arrows source="none" target="white_delta"/>
          <y:BendStyle smoothed="false"/>
        </y:PolyLineEdge>
      </data>
    </edge>
    <edge id="e3" source="n12" target="n4">
      <data key="d8" xml:space="preserve"/>
      <data key="d10">
        <y:PolyLineEdge>
          <y:Path sx="-92.81250000000006" sy="270.2170158487253" tx="29.8828125" ty="-20.39999999999999">
            <y:Point x="1650.0628968253968" y="1365.7661009074238"/>
            <y:Point x="1614.7768601190476" y="1365.7661009074238"/>
          </y:Path>
          <y:LineStyle color="#000000" type="line" width="1.0"/>
          <y:Arrows source="none" target="white_delta"/>
          <y:BendStyle smoothed="false"/>
        </y:PolyLineEdge>
      </data>
    </edge>
    <edge id="e4" source="n13" target="n4">
      <data key="d8" xml:space="preserve"/>
      <data key="d10">
        <y:PolyLineEdge>
          <y:Path sx="-195.3749999999999" sy="129.0482658487253" tx="89.6484375" ty="-20.39999999999999">
            <y:Point x="3099.3277777777776" y="1381.7661009074238"/>
            <y:Point x="1674.5424851190476" y="1381.7661009074238"/>
          </y:Path>
          <y:LineStyle color="#000000" type="line" width="1.0"/>
          <y:Arrows source="none" target="white_delta"/>
          <y:BendStyle smoothed="false"/>
        </y:PolyLineEdge>
      </data>
    </edge>
    <edge id="e5" source="n14" target="n4">
      <data key="d8" xml:space="preserve"/>
      <data key="d10">
        <y:PolyLineEdge>
          <y:Path sx="162.8125" sy="275.9590958019376" tx="-89.6484375" ty="-20.39999999999999">
            <y:Point x="684.2938492063493" y="1381.7661009074238"/>
            <y:Point x="1495.2456101190476" y="1381.7661009074238"/>
          </y:Path>
          <y:LineStyle color="#000000" type="line" width="1.0"/>
          <y:Arrows source="none" target="white_delta"/>
          <y:BendStyle smoothed="false"/>
        </y:PolyLineEdge>
      </data>
    </edge>
    <edge id="e6" source="n15" target="n4">
      <data key="d8" xml:space="preserve"/>
      <data key="d10">
        <y:PolyLineEdge>
          <y:Path sx="162.8125" sy="405.40719052744896" tx="-29.8828125" ty="-20.39999999999999">
            <y:Point x="1445.8438492063492" y="1365.7661009074238"/>
            <y:Point x="1555.0112351190476" y="1365.7661009074238"/>
          </y:Path>
          <y:LineStyle color="#000000" type="line" width="1.0"/>
          <y:Arrows source="none" target="white_delta"/>
          <y:BendStyle smoothed="false"/>
        </y:PolyLineEdge>
      </data>
    </edge>
    <edge id="e7" source="n14" target="n5">
      <data key="d8" xml:space="preserve"/>
      <data key="d10">
        <y:PolyLineEdge>
          <y:Path sx="0.0" sy="275.9590958019376" tx="0.0" ty="-51.66591655543593"/>
          <y:LineStyle color="#000000" type="dashed" width="1.0"/>
          <y:Arrows source="none" target="plain"/>
          <y:BendStyle smoothed="false"/>
        </y:PolyLineEdge>
      </data>
    </edge>
    <edge id="e8" source="n14" target="n7">
      <data key="d8" xml:space="preserve"/>
      <data key="d10">
        <y:PolyLineEdge>
          <y:Path sx="-162.8125" sy="275.9590958019376" tx="0.0" ty="-230.99761722282028">
            <y:Point x="358.66884920634925" y="866.9412863293862"/>
            <y:Point x="252.41865079365078" y="866.9412863293862"/>
          </y:Path>
          <y:LineStyle color="#000000" type="dashed" width="1.0"/>
          <y:Arrows source="none" target="plain"/>
          <y:BendStyle smoothed="false"/>
        </y:PolyLineEdge>
      </data>
    </edge>
    <edge id="e9" source="n7" target="n6">
      <data key="d8" xml:space="preserve"/>
      <data key="d10">
        <y:PolyLineEdge>
          <y:Path sx="-59.765625" sy="230.99761722282028" tx="0.0" ty="-148.6066738428418"/>
          <y:LineStyle color="#000000" type="dashed" width="1.0"/>
          <y:Arrows source="none" target="plain"/>
          <y:BendStyle smoothed="false"/>
        </y:PolyLineEdge>
      </data>
    </edge>
    <edge id="e10" source="n9" target="n8">
      <data key="d8" xml:space="preserve"/>
      <data key="d10">
        <y:PolyLineEdge>
          <y:Path sx="54.75" sy="29.768749999999898" tx="0.0" ty="-54.30139935414425">
            <y:Point x="2175.951587301587" y="154.5749999999996"/>
            <y:Point x="3720.921825396825" y="154.5749999999996"/>
          </y:Path>
          <y:LineStyle color="#000000" type="line" width="1.0"/>
          <y:Arrows source="none" target="white_delta"/>
          <y:BendStyle smoothed="false"/>
        </y:PolyLineEdge>
      </data>
    </edge>
    <edge id="e11" source="n10" target="n9">
      <data key="d8" xml:space="preserve"/>
      <data key="d10">
        <y:PolyLineEdge>
          <y:Path sx="0.0" sy="29.768749999999898" tx="0.0" ty="-29.768749999999898"/>
          <y:LineStyle color="#000000" type="dashed" width="1.0"/>
          <y:Arrows source="none" target="plain"/>
          <y:BendStyle smoothed="false"/>
        </y:PolyLineEdge>
      </data>
    </edge>
    <edge id="e12" source="n9" target="n14">
      <data key="d8" xml:space="preserve"/>
      <data key="d10">
        <y:PolyLineEdge>
          <y:Path sx="-54.75" sy="29.768749999999898" tx="0.0" ty="-275.9590958019376">
            <y:Point x="2066.451587301587" y="154.5749999999996"/>
            <y:Point x="521.4813492063493" y="154.5749999999996"/>
          </y:Path>
          <y:LineStyle color="#000000" type="dashed" width="1.0"/>
          <y:Arrows source="none" target="plain"/>
          <y:BendStyle smoothed="false"/>
        </y:PolyLineEdge>
      </data>
    </edge>
    <edge id="e13" source="n15" target="n11">
      <data key="d8" xml:space="preserve"/>
      <data key="d10">
        <y:PolyLineEdge>
          <y:Path sx="-162.8125" sy="405.40719052744896" tx="0.0" ty="-60.42721205597417">
            <y:Point x="1120.2188492063492" y="996.3893810548975"/>
            <y:Point x="885.8563492063493" y="996.3893810548975"/>
          </y:Path>
          <y:LineStyle color="#000000" type="dashed" width="1.0"/>
          <y:Arrows source="none" target="plain"/>
          <y:BendStyle smoothed="false"/>
        </y:PolyLineEdge>
      </data>
    </edge>
    <edge id="e14" source="n15" target="n2">
      <data key="d8" xml:space="preserve"/>
      <data key="d10">
        <y:PolyLineEdge>
          <y:Path sx="0.0" sy="405.40719052744896" tx="0.0" ty="-53.39596205597405"/>
          <y:LineStyle color="#000000" type="dashed" width="1.0"/>
          <y:Arrows source="none" target="plain"/>
          <y:BendStyle smoothed="false"/>
        </y:PolyLineEdge>
      </data>
    </edge>
    <edge id="e15" source="n0" target="n16">
      <data key="d8" xml:space="preserve"/>
      <data key="d10">
        <y:PolyLineEdge>
          <y:Path sx="0.0" sy="553.1749175630251" tx="0.0" ty="-43.9215224973089">
            <y:Point x="2972.417857142857" y="2535.115936033474"/>
            <y:Point x="2966.1396825396823" y="2535.115936033474"/>
          </y:Path>
          <y:LineStyle color="#000000" type="dashed" width="1.0"/>
          <y:Arrows source="none" target="white_delta"/>
          <y:BendStyle smoothed="false"/>
        </y:PolyLineEdge>
      </data>
    </edge>
    <edge id="e16" source="n0" target="n17">
      <data key="d8" xml:space="preserve"/>
      <data key="d10">
        <y:PolyLineEdge>
          <y:Path sx="123.75000000000009" sy="553.1749175630251" tx="0.0" ty="-51.665916555435956">
            <y:Point x="3096.167857142857" y="2535.115936033474"/>
            <y:Point x="3184.8484126984126" y="2535.115936033474"/>
          </y:Path>
          <y:LineStyle color="#000000" type="dashed" width="1.0"/>
          <y:Arrows source="none" target="white_delta"/>
          <y:BendStyle smoothed="false"/>
        </y:PolyLineEdge>
      </data>
    </edge>
    <edge id="e17" source="n13" target="n18">
      <data key="d8" xml:space="preserve"/>
      <data key="d10">
        <y:PolyLineEdge>
          <y:Path sx="195.37499999999991" sy="129.0482658487253" tx="0.0" ty="-92.76400775026912">
            <y:Point x="3490.0777777777776" y="720.0304563761738"/>
            <y:Point x="3880.231746031746" y="720.0304563761738"/>
          </y:Path>
          <y:LineStyle color="#000000" type="dashed" width="1.0"/>
          <y:Arrows source="none" target="white_delta"/>
          <y:BendStyle smoothed="false"/>
        </y:PolyLineEdge>
      </data>
    </edge>
    <edge id="e18" source="n20" target="n19">
      <data key="d8" xml:space="preserve"/>
      <data key="d10">
        <y:PolyLineEdge>
          <y:Path sx="0.0" sy="260.598776146394" tx="-76.58269163975592" ty="-39.27439224973094">
            <y:Point x="1903.6146825396825" y="2242.539794616843"/>
            <y:Point x="2650.3284194713547" y="2242.539794616843"/>
          </y:Path>
          <y:LineStyle color="#000000" type="line" width="1.0"/>
          <y:Arrows source="none" target="white_delta"/>
          <y:BendStyle smoothed="false"/>
        </y:PolyLineEdge>
      </data>
    </edge>
    <edge id="e19" source="n23" target="n19">
      <data key="d8" xml:space="preserve"/>
      <data key="d9"/>
      <data key="d10">
        <y:PolyLineEdge>
          <y:Path sx="0.0" sy="228.60561640545814" tx="0.0" ty="-39.27439224973094">
            <y:Point x="2597.129761904762" y="2210.5466348759073"/>
            <y:Point x="2726.9111111111106" y="2210.5466348759073"/>
          </y:Path>
          <y:LineStyle color="#000000" type="line" width="1.0"/>
          <y:Arrows source="none" target="white_delta"/>
          <y:BendStyle smoothed="false"/>
        </y:PolyLineEdge>
      </data>
    </edge>
    <edge id="e20" source="n22" target="n27">
      <data key="d8" xml:space="preserve"/>
      <data key="d9"/>
      <data key="d10">
        <y:PolyLineEdge>
          <y:Path sx="0.0" sy="149.9094617313719" tx="104.56872335844992" ty="-99.73752829005855">
            <y:Point x="3455.4285714285716" y="2844.934859496218"/>
            <y:Point x="3352.530231294958" y="2844.934859496218"/>
          </y:Path>
          <y:LineStyle color="#000000" type="line" width="1.0"/>
          <y:Arrows source="none" target="white_delta"/>
          <y:BendStyle smoothed="false"/>
        </y:PolyLineEdge>
      </data>
    </edge>
    <edge id="e21" source="n21" target="n27">
      <data key="d8" xml:space="preserve"/>
      <data key="d9"/>
      <data key="d10">
        <y:PolyLineEdge>
          <y:Path sx="0.0" sy="76.93819246501619" tx="-62.74123401506995" ty="-99.73752829005855">
            <y:Point x="2456.554365079365" y="2771.9635902298623"/>
            <y:Point x="3185.220273921438" y="2771.9635902298623"/>
          </y:Path>
          <y:LineStyle color="#000000" type="line" width="1.0"/>
          <y:Arrows source="none" target="white_delta"/>
          <y:BendStyle smoothed="false"/>
        </y:PolyLineEdge>
      </data>
    </edge>
    <edge id="e22" source="n24" target="n27">
      <data key="d8" xml:space="preserve"/>
      <data key="d9"/>
      <data key="d10">
        <y:PolyLineEdge>
          <y:Path sx="0.0" sy="76.93819246501619" tx="-104.56872335844992" ty="-99.73752829005855">
            <y:Point x="520.7888888888889" y="2810.625007139846"/>
            <y:Point x="3143.392784578058" y="2810.625007139846"/>
          </y:Path>
          <y:LineStyle color="#000000" type="line" width="1.0"/>
          <y:Arrows source="none" target="white_delta"/>
          <y:BendStyle smoothed="false"/>
        </y:PolyLineEdge>
      </data>
    </edge>
    <edge id="e23" source="n25" target="n27">
      <data key="d8" xml:space="preserve"/>
      <data key="d9"/>
      <data key="d10">
        <y:PolyLineEdge>
          <y:Path sx="0.0" sy="86.04839927017542" tx="20.913744671689983" ty="-99.73752829005844">
            <y:Point x="3294.7027777777776" y="2746.691314320282"/>
            <y:Point x="3268.875252608198" y="2746.691314320282"/>
          </y:Path>
          <y:LineStyle color="#000000" type="line" width="1.0"/>
          <y:Arrows source="none" target="white_delta"/>
          <y:BendStyle smoothed="false"/>
        </y:PolyLineEdge>
      </data>
    </edge>
    <edge id="e24" source="n19" target="n27">
      <data key="d8" xml:space="preserve"/>
      <data key="d9"/>
      <data key="d10">
        <y:PolyLineEdge>
          <y:Path sx="0.0" sy="39.27439224973094" tx="-20.913744671689983" ty="-99.73752829005855">
            <y:Point x="2726.9111111111106" y="2746.691314320282"/>
            <y:Point x="3227.047763264818" y="2746.691314320282"/>
          </y:Path>
          <y:LineStyle color="#000000" type="line" width="1.0"/>
          <y:Arrows source="none" target="white_delta"/>
          <y:BendStyle smoothed="false"/>
        </y:PolyLineEdge>
      </data>
    </edge>
    <edge id="e25" source="n26" target="n27">
      <data key="d8" xml:space="preserve"/>
      <data key="d9"/>
      <data key="d10">
        <y:PolyLineEdge>
          <y:Path sx="0.0" sy="14.0" tx="62.74123401506995" ty="-99.73752829005844">
            <y:Point x="3538.022619047619" y="2067.989417740624"/>
            <y:Point x="3310.7027777777776" y="2067.989417740624"/>
          </y:Path>
          <y:LineStyle color="#000000" type="line" width="1.0"/>
          <y:Arrows source="none" target="white_delta"/>
          <y:BendStyle smoothed="false"/>
        </y:PolyLineEdge>
      </data>
    </edge>
    <edge id="e26" source="n0" target="n19">
      <data key="d8" xml:space="preserve"/>
      <data key="d9"/>
      <data key="d10">
        <y:PolyLineEdge>
          <y:Path sx="-123.75000000000011" sy="553.1749175630251" tx="76.58269163975592" ty="-39.27439224973094">
            <y:Point x="2848.667857142857" y="2535.115936033474"/>
            <y:Point x="2803.4938027508665" y="2535.115936033474"/>
          </y:Path>
          <y:LineStyle color="#000000" type="line" width="1.0"/>
          <y:Arrows source="none" target="white_delta"/>
          <y:BendStyle smoothed="false"/>
        </y:PolyLineEdge>
      </data>
    </edge>
    <edge id="e27" source="n7" target="n24">
      <data key="d8" xml:space="preserve"/>
      <data key="d9"/>
      <data key="d10">
        <y:PolyLineEdge>
          <y:Path sx="59.765625" sy="230.99761722282028" tx="0.0" ty="-76.93819246501619">
            <y:Point x="312.1842757936508" y="2212.938635693269"/>
            <y:Point x="520.7888888888889" y="2212.938635693269"/>
          </y:Path>
          <y:LineStyle color="#000000" type="dashed" width="1.0"/>
          <y:Arrows source="none" target="white_delta"/>
          <y:BendStyle smoothed="false"/>
        </y:PolyLineEdge>
      </data>
    </edge>
    <edge id="e28" source="n13" target="n25">
      <data key="d8" xml:space="preserve"/>
      <data key="d9"/>
      <data key="d10">
        <y:PolyLineEdge>
          <y:Path sx="0.0" sy="129.0482658487253" tx="0.0" ty="-86.04839927017551"/>
          <y:LineStyle color="#000000" type="dashed" width="1.0"/>
          <y:Arrows source="none" target="white_delta"/>
          <y:BendStyle smoothed="false"/>
        </y:PolyLineEdge>
      </data>
    </edge>
    <edge id="e29" source="n13" target="n26">
      <data key="d8" xml:space="preserve"/>
      <data key="d9"/>
      <data key="d10">
        <y:PolyLineEdge>
          <y:Path sx="97.68749999999994" sy="129.0482658487253" tx="0.0" ty="-14.0">
            <y:Point x="3392.3902777777776" y="736.0304563761738"/>
            <y:Point x="3538.022619047619" y="736.0304563761738"/>
          </y:Path>
          <y:LineStyle color="#000000" type="dashed" width="1.0"/>
          <y:Arrows source="none" target="white_delta"/>
          <y:BendStyle smoothed="false"/>
        </y:PolyLineEdge>
      </data>
    </edge>
  </graph>
  <data key="d7">
    <y:Resources/>
  </data>
</graphml>
