# MagicaVoxel @ Ephtracy

# group
o 

# material
mtllib tramo03.mtl
usemtl palette

# normals
vn -1 0 0
vn 1 0 0
vn 0 0 1
vn 0 0 -1
vn 0 -1 0
vn 0 1 0

# texcoords
vt 0.0566406 0.5
vt 0.0605469 0.5
vt 0.427734 0.5
vt 0.923828 0.5
vt 0.927734 0.5
vt 0.970703 0.5
vt 0.974609 0.5

# verts
v 0 1.9 -2.1
v 0 1.9 -2.2
v 0 1.9 -6.3
v 0 1.9 -6.4
v 0 1.9 -10.4
v 0 1.9 -10.5
v 0 2 -2.1
v 0 2 -2.2
v 0 2 -6.3
v 0 2 -6.4
v 0 2 -10.4
v 0 2 -10.5
v 0 2.7 -2.1
v 0 2.7 -2.2
v 0 2.7 -6.3
v 0 2.7 -6.4
v 0 2.7 -10.4
v 0 2.7 -10.5
v 0 2.8 -2.1
v 0 2.8 -2.2
v 0 2.8 -6.3
v 0 2.8 -6.4
v 0 2.8 -10.4
v 0 2.8 -10.5
v 0.1 1.9 -1.9
v 0.1 1.9 -2
v 0.1 1.9 -2.1
v 0.1 1.9 -2.2
v 0.1 1.9 -2.3
v 0.1 1.9 -2.4
v 0.1 1.9 -6.1
v 0.1 1.9 -6.2
v 0.1 1.9 -6.3
v 0.1 1.9 -6.4
v 0.1 1.9 -6.5
v 0.1 1.9 -6.6
v 0.1 1.9 -10.2
v 0.1 1.9 -10.3
v 0.1 1.9 -10.4
v 0.1 1.9 -10.5
v 0.1 1.9 -10.6
v 0.1 1.9 -10.7
v 0.1 2 -1.9
v 0.1 2 -2
v 0.1 2 -2.1
v 0.1 2 -2.2
v 0.1 2 -2.3
v 0.1 2 -2.4
v 0.1 2 -6.1
v 0.1 2 -6.2
v 0.1 2 -6.3
v 0.1 2 -6.4
v 0.1 2 -6.5
v 0.1 2 -6.6
v 0.1 2 -10.2
v 0.1 2 -10.3
v 0.1 2 -10.4
v 0.1 2 -10.5
v 0.1 2 -10.6
v 0.1 2 -10.7
v 0.1 2.7 -1.9
v 0.1 2.7 -2
v 0.1 2.7 -2.1
v 0.1 2.7 -2.2
v 0.1 2.7 -2.3
v 0.1 2.7 -2.4
v 0.1 2.7 -6.1
v 0.1 2.7 -6.2
v 0.1 2.7 -6.3
v 0.1 2.7 -6.4
v 0.1 2.7 -6.5
v 0.1 2.7 -6.6
v 0.1 2.7 -10.2
v 0.1 2.7 -10.3
v 0.1 2.7 -10.4
v 0.1 2.7 -10.5
v 0.1 2.7 -10.6
v 0.1 2.7 -10.7
v 0.1 2.8 -1.9
v 0.1 2.8 -2
v 0.1 2.8 -2.1
v 0.1 2.8 -2.2
v 0.1 2.8 -2.3
v 0.1 2.8 -2.4
v 0.1 2.8 -6.1
v 0.1 2.8 -6.2
v 0.1 2.8 -6.3
v 0.1 2.8 -6.4
v 0.1 2.8 -6.5
v 0.1 2.8 -6.6
v 0.1 2.8 -10.2
v 0.1 2.8 -10.3
v 0.1 2.8 -10.4
v 0.1 2.8 -10.5
v 0.1 2.8 -10.6
v 0.1 2.8 -10.7
v 0.1 2.9 -2.1
v 0.1 2.9 -2.2
v 0.1 2.9 -6.3
v 0.1 2.9 -6.4
v 0.1 2.9 -10.4
v 0.1 2.9 -10.5
v 0.1 3 -2.1
v 0.1 3 -2.2
v 0.1 3 -6.3
v 0.1 3 -6.4
v 0.1 3 -10.4
v 0.1 3 -10.5
v 0.2 1.9 -2.1
v 0.2 1.9 -2.2
v 0.2 1.9 -6.3
v 0.2 1.9 -6.4
v 0.2 1.9 -10.4
v 0.2 1.9 -10.5
v 0.2 2 -2.1
v 0.2 2 -2.2
v 0.2 2 -6.3
v 0.2 2 -6.4
v 0.2 2 -10.4
v 0.2 2 -10.5
v 0.2 2.7 -2.1
v 0.2 2.7 -2.2
v 0.2 2.7 -6.3
v 0.2 2.7 -6.4
v 0.2 2.7 -10.4
v 0.2 2.7 -10.5
v 0.2 2.8 -2.1
v 0.2 2.8 -2.2
v 0.2 2.8 -6.3
v 0.2 2.8 -6.4
v 0.2 2.8 -10.4
v 0.2 2.8 -10.5
v 0.4 1 0
v 0.4 1 -12.6
v 0.4 1.7 0
v 0.4 1.7 -12.6
v 0.4 1.8 0
v 0.4 1.8 -12.6
v 9 1.7 0
v 9 1.7 -12.6
v 9 1.8 0
v 9 1.8 -12.6
v 9.2 1.8 -2.9
v 9.2 1.8 -3
v 9.2 1.8 -3.1
v 9.2 1.8 -3.9
v 9.2 1.8 -4
v 9.2 1.8 -4.1
v 9.2 1.8 -4.9
v 9.2 1.8 -5
v 9.2 1.8 -5.1
v 9.2 2.7 -2.9
v 9.2 2.7 -3
v 9.2 2.7 -3.1
v 9.2 2.7 -3.9
v 9.2 2.7 -4
v 9.2 2.7 -4.1
v 9.2 2.7 -4.9
v 9.2 2.7 -5
v 9.2 2.7 -5.1
v 9.4 1.8 -6.4
v 9.4 1.8 -6.5
v 9.4 1.9 -6.4
v 9.4 1.9 -6.5
v 9.7 1.9 -2.1
v 9.7 1.9 -2.2
v 9.7 1.9 -10.4
v 9.7 1.9 -10.5
v 9.7 2 -2.1
v 9.7 2 -2.2
v 9.7 2 -10.4
v 9.7 2 -10.5
v 9.7 2.7 -2.1
v 9.7 2.7 -2.2
v 9.7 2.7 -6.3
v 9.7 2.7 -6.4
v 9.7 2.7 -10.4
v 9.7 2.7 -10.5
v 9.7 2.8 -2.1
v 9.7 2.8 -2.2
v 9.7 2.8 -6.3
v 9.7 2.8 -6.4
v 9.7 2.8 -10.4
v 9.7 2.8 -10.5
v 9.8 1.9 -1.9
v 9.8 1.9 -2
v 9.8 1.9 -2.1
v 9.8 1.9 -2.2
v 9.8 1.9 -2.3
v 9.8 1.9 -2.4
v 9.8 1.9 -6.2
v 9.8 1.9 -6.3
v 9.8 1.9 -6.4
v 9.8 1.9 -6.5
v 9.8 1.9 -6.6
v 9.8 1.9 -10.2
v 9.8 1.9 -10.3
v 9.8 1.9 -10.4
v 9.8 1.9 -10.5
v 9.8 1.9 -10.6
v 9.8 1.9 -10.7
v 9.8 2 -1.9
v 9.8 2 -2
v 9.8 2 -2.1
v 9.8 2 -2.2
v 9.8 2 -2.3
v 9.8 2 -2.4
v 9.8 2 -6.2
v 9.8 2 -6.3
v 9.8 2 -6.4
v 9.8 2 -6.5
v 9.8 2 -6.6
v 9.8 2 -10.2
v 9.8 2 -10.3
v 9.8 2 -10.4
v 9.8 2 -10.5
v 9.8 2 -10.6
v 9.8 2 -10.7
v 9.8 2.7 -1.9
v 9.8 2.7 -2
v 9.8 2.7 -2.1
v 9.8 2.7 -2.2
v 9.8 2.7 -2.3
v 9.8 2.7 -2.4
v 9.8 2.7 -6.1
v 9.8 2.7 -6.2
v 9.8 2.7 -6.3
v 9.8 2.7 -6.4
v 9.8 2.7 -6.5
v 9.8 2.7 -6.6
v 9.8 2.7 -10.2
v 9.8 2.7 -10.3
v 9.8 2.7 -10.4
v 9.8 2.7 -10.5
v 9.8 2.7 -10.6
v 9.8 2.7 -10.7
v 9.8 2.8 -1.9
v 9.8 2.8 -2
v 9.8 2.8 -2.1
v 9.8 2.8 -2.2
v 9.8 2.8 -2.3
v 9.8 2.8 -2.4
v 9.8 2.8 -6.1
v 9.8 2.8 -6.2
v 9.8 2.8 -6.3
v 9.8 2.8 -6.4
v 9.8 2.8 -6.5
v 9.8 2.8 -6.6
v 9.8 2.8 -10.2
v 9.8 2.8 -10.3
v 9.8 2.8 -10.4
v 9.8 2.8 -10.5
v 9.8 2.8 -10.6
v 9.8 2.8 -10.7
v 9.8 2.9 -2.1
v 9.8 2.9 -2.2
v 9.8 2.9 -10.4
v 9.8 2.9 -10.5
v 9.8 3 -2.1
v 9.8 3 -2.2
v 9.8 3 -10.4
v 9.8 3 -10.5
v 9.9 1.9 -2.1
v 9.9 1.9 -2.2
v 9.9 1.9 -6.3
v 9.9 1.9 -6.4
v 9.9 1.9 -10.4
v 9.9 1.9 -10.5
v 9.9 2 -2.1
v 9.9 2 -2.2
v 9.9 2 -6.3
v 9.9 2 -6.4
v 9.9 2 -10.4
v 9.9 2 -10.5
v 9.9 2.7 -2.1
v 9.9 2.7 -2.2
v 9.9 2.7 -6.3
v 9.9 2.7 -6.4
v 9.9 2.7 -10.4
v 9.9 2.7 -10.5
v 9.9 2.8 -2.1
v 9.9 2.8 -2.2
v 9.9 2.8 -6.3
v 9.9 2.8 -6.4
v 9.9 2.8 -10.4
v 9.9 2.8 -10.5
v 0.1 1.9 -2.1
v 0.1 1.9 -2.2
v 0.1 1.9 -6.3
v 0.1 1.9 -6.4
v 0.1 1.9 -10.4
v 0.1 1.9 -10.5
v 0.1 2 -2.1
v 0.1 2 -2.2
v 0.1 2 -6.3
v 0.1 2 -6.4
v 0.1 2 -10.4
v 0.1 2 -10.5
v 0.1 2.7 -2.1
v 0.1 2.7 -2.2
v 0.1 2.7 -6.3
v 0.1 2.7 -6.4
v 0.1 2.7 -10.4
v 0.1 2.7 -10.5
v 0.1 2.8 -2.1
v 0.1 2.8 -2.2
v 0.1 2.8 -6.3
v 0.1 2.8 -6.4
v 0.1 2.8 -10.4
v 0.1 2.8 -10.5
v 0.2 1.9 -1.9
v 0.2 1.9 -2
v 0.2 1.9 -2.1
v 0.2 1.9 -2.2
v 0.2 1.9 -2.3
v 0.2 1.9 -2.4
v 0.2 1.9 -6.1
v 0.2 1.9 -6.2
v 0.2 1.9 -6.3
v 0.2 1.9 -6.4
v 0.2 1.9 -6.5
v 0.2 1.9 -6.6
v 0.2 1.9 -10.2
v 0.2 1.9 -10.3
v 0.2 1.9 -10.4
v 0.2 1.9 -10.5
v 0.2 1.9 -10.6
v 0.2 1.9 -10.7
v 0.2 2 -1.9
v 0.2 2 -2
v 0.2 2 -2.1
v 0.2 2 -2.2
v 0.2 2 -2.3
v 0.2 2 -2.4
v 0.2 2 -6.1
v 0.2 2 -6.2
v 0.2 2 -6.3
v 0.2 2 -6.4
v 0.2 2 -6.5
v 0.2 2 -6.6
v 0.2 2 -10.2
v 0.2 2 -10.3
v 0.2 2 -10.4
v 0.2 2 -10.5
v 0.2 2 -10.6
v 0.2 2 -10.7
v 0.2 2.7 -1.9
v 0.2 2.7 -2
v 0.2 2.7 -2.1
v 0.2 2.7 -2.2
v 0.2 2.7 -2.3
v 0.2 2.7 -2.4
v 0.2 2.7 -6.1
v 0.2 2.7 -6.2
v 0.2 2.7 -6.3
v 0.2 2.7 -6.4
v 0.2 2.7 -6.5
v 0.2 2.7 -6.6
v 0.2 2.7 -10.2
v 0.2 2.7 -10.3
v 0.2 2.7 -10.4
v 0.2 2.7 -10.5
v 0.2 2.7 -10.6
v 0.2 2.7 -10.7
v 0.2 2.8 -1.9
v 0.2 2.8 -2
v 0.2 2.8 -2.1
v 0.2 2.8 -2.2
v 0.2 2.8 -2.3
v 0.2 2.8 -2.4
v 0.2 2.8 -6.1
v 0.2 2.8 -6.2
v 0.2 2.8 -6.3
v 0.2 2.8 -6.4
v 0.2 2.8 -6.5
v 0.2 2.8 -6.6
v 0.2 2.8 -10.2
v 0.2 2.8 -10.3
v 0.2 2.8 -10.4
v 0.2 2.8 -10.5
v 0.2 2.8 -10.6
v 0.2 2.8 -10.7
v 0.2 2.9 -2.1
v 0.2 2.9 -2.2
v 0.2 2.9 -6.3
v 0.2 2.9 -6.4
v 0.2 2.9 -10.4
v 0.2 2.9 -10.5
v 0.2 3 -2.1
v 0.2 3 -2.2
v 0.2 3 -6.3
v 0.2 3 -6.4
v 0.2 3 -10.4
v 0.2 3 -10.5
v 0.3 1.9 -2.1
v 0.3 1.9 -2.2
v 0.3 1.9 -6.3
v 0.3 1.9 -6.4
v 0.3 1.9 -10.4
v 0.3 1.9 -10.5
v 0.3 2 -2.1
v 0.3 2 -2.2
v 0.3 2 -6.3
v 0.3 2 -6.4
v 0.3 2 -10.4
v 0.3 2 -10.5
v 0.3 2.7 -2.1
v 0.3 2.7 -2.2
v 0.3 2.7 -6.3
v 0.3 2.7 -6.4
v 0.3 2.7 -10.4
v 0.3 2.7 -10.5
v 0.3 2.8 -2.1
v 0.3 2.8 -2.2
v 0.3 2.8 -6.3
v 0.3 2.8 -6.4
v 0.3 2.8 -10.4
v 0.3 2.8 -10.5
v 1 1.7 0
v 1 1.7 -12.6
v 1 1.8 0
v 1 1.8 -12.6
v 9.4 1.8 -2.9
v 9.4 1.8 -3.1
v 9.4 1.8 -3.9
v 9.4 1.8 -4.1
v 9.4 1.8 -4.9
v 9.4 1.8 -5.1
v 9.4 2.7 -2.9
v 9.4 2.7 -3.1
v 9.4 2.7 -3.9
v 9.4 2.7 -4.1
v 9.4 2.7 -4.9
v 9.4 2.7 -5.1
v 9.5 1.8 -6.4
v 9.5 1.8 -6.5
v 9.5 1.9 -6.4
v 9.5 1.9 -6.5
v 9.6 1 0
v 9.6 1 -12.6
v 9.6 1.7 0
v 9.6 1.7 -12.6
v 9.6 1.8 0
v 9.6 1.8 -12.6
v 9.8 1.9 -2.1
v 9.8 1.9 -2.2
v 9.8 1.9 -10.4
v 9.8 1.9 -10.5
v 9.8 2 -2.1
v 9.8 2 -2.2
v 9.8 2 -10.4
v 9.8 2 -10.5
v 9.8 2.7 -2.1
v 9.8 2.7 -2.2
v 9.8 2.7 -6.3
v 9.8 2.7 -6.4
v 9.8 2.7 -10.4
v 9.8 2.7 -10.5
v 9.8 2.8 -2.1
v 9.8 2.8 -2.2
v 9.8 2.8 -6.3
v 9.8 2.8 -6.4
v 9.8 2.8 -10.4
v 9.8 2.8 -10.5
v 9.9 1.9 -1.9
v 9.9 1.9 -2
v 9.9 1.9 -2.1
v 9.9 1.9 -2.2
v 9.9 1.9 -2.3
v 9.9 1.9 -2.4
v 9.9 1.9 -6.2
v 9.9 1.9 -6.3
v 9.9 1.9 -6.4
v 9.9 1.9 -6.5
v 9.9 1.9 -6.6
v 9.9 1.9 -10.2
v 9.9 1.9 -10.3
v 9.9 1.9 -10.4
v 9.9 1.9 -10.5
v 9.9 1.9 -10.6
v 9.9 1.9 -10.7
v 9.9 2 -1.9
v 9.9 2 -2
v 9.9 2 -2.1
v 9.9 2 -2.2
v 9.9 2 -2.3
v 9.9 2 -2.4
v 9.9 2 -6.2
v 9.9 2 -6.3
v 9.9 2 -6.4
v 9.9 2 -6.5
v 9.9 2 -6.6
v 9.9 2 -10.2
v 9.9 2 -10.3
v 9.9 2 -10.4
v 9.9 2 -10.5
v 9.9 2 -10.6
v 9.9 2 -10.7
v 9.9 2.7 -1.9
v 9.9 2.7 -2
v 9.9 2.7 -2.1
v 9.9 2.7 -2.2
v 9.9 2.7 -2.3
v 9.9 2.7 -2.4
v 9.9 2.7 -6.1
v 9.9 2.7 -6.2
v 9.9 2.7 -6.3
v 9.9 2.7 -6.4
v 9.9 2.7 -6.5
v 9.9 2.7 -6.6
v 9.9 2.7 -10.2
v 9.9 2.7 -10.3
v 9.9 2.7 -10.4
v 9.9 2.7 -10.5
v 9.9 2.7 -10.6
v 9.9 2.7 -10.7
v 9.9 2.8 -1.9
v 9.9 2.8 -2
v 9.9 2.8 -2.1
v 9.9 2.8 -2.2
v 9.9 2.8 -2.3
v 9.9 2.8 -2.4
v 9.9 2.8 -6.1
v 9.9 2.8 -6.2
v 9.9 2.8 -6.3
v 9.9 2.8 -6.4
v 9.9 2.8 -6.5
v 9.9 2.8 -6.6
v 9.9 2.8 -10.2
v 9.9 2.8 -10.3
v 9.9 2.8 -10.4
v 9.9 2.8 -10.5
v 9.9 2.8 -10.6
v 9.9 2.8 -10.7
v 9.9 2.9 -2.1
v 9.9 2.9 -2.2
v 9.9 2.9 -10.4
v 9.9 2.9 -10.5
v 9.9 3 -2.1
v 9.9 3 -2.2
v 9.9 3 -10.4
v 9.9 3 -10.5
v 10 1.9 -2.1
v 10 1.9 -2.2
v 10 1.9 -6.3
v 10 1.9 -6.4
v 10 1.9 -10.4
v 10 1.9 -10.5
v 10 2 -2.1
v 10 2 -2.2
v 10 2 -6.3
v 10 2 -6.4
v 10 2 -10.4
v 10 2 -10.5
v 10 2.7 -2.1
v 10 2.7 -2.2
v 10 2.7 -6.3
v 10 2.7 -6.4
v 10 2.7 -10.4
v 10 2.7 -10.5
v 10 2.8 -2.1
v 10 2.8 -2.2
v 10 2.8 -6.3
v 10 2.8 -6.4
v 10 2.8 -10.4
v 10 2.8 -10.5
v 0.4 1 0
v 0.4 1.7 0
v 0.4 1.8 0
v 0.5 1.7 0
v 0.5 1.8 0
v 0.9 1.7 0
v 0.9 1.8 0
v 1 1.7 0
v 1 1.8 0
v 9 1.7 0
v 9 1.8 0
v 9.1 1.7 0
v 9.1 1.8 0
v 9.5 1.7 0
v 9.5 1.8 0
v 9.6 1 0
v 9.6 1.7 0
v 9.6 1.8 0
v 0.1 1.9 -1.9
v 0.1 2 -1.9
v 0.1 2.7 -1.9
v 0.1 2.8 -1.9
v 0.2 1.9 -1.9
v 0.2 2 -1.9
v 0.2 2.7 -1.9
v 0.2 2.8 -1.9
v 9.8 1.9 -1.9
v 9.8 2 -1.9
v 9.8 2.7 -1.9
v 9.8 2.8 -1.9
v 9.9 1.9 -1.9
v 9.9 2 -1.9
v 9.9 2.7 -1.9
v 9.9 2.8 -1.9
v 0 1.9 -2.1
v 0 2 -2.1
v 0 2.7 -2.1
v 0 2.8 -2.1
v 0.1 1.9 -2.1
v 0.1 2 -2.1
v 0.1 2.7 -2.1
v 0.1 2.8 -2.1
v 0.1 2.9 -2.1
v 0.1 3 -2.1
v 0.2 1.9 -2.1
v 0.2 2 -2.1
v 0.2 2.7 -2.1
v 0.2 2.8 -2.1
v 0.2 2.9 -2.1
v 0.2 3 -2.1
v 0.3 1.9 -2.1
v 0.3 2 -2.1
v 0.3 2.7 -2.1
v 0.3 2.8 -2.1
v 9.7 1.9 -2.1
v 9.7 2 -2.1
v 9.7 2.7 -2.1
v 9.7 2.8 -2.1
v 9.8 1.9 -2.1
v 9.8 2 -2.1
v 9.8 2.7 -2.1
v 9.8 2.8 -2.1
v 9.8 2.9 -2.1
v 9.8 3 -2.1
v 9.9 1.9 -2.1
v 9.9 2 -2.1
v 9.9 2.7 -2.1
v 9.9 2.8 -2.1
v 9.9 2.9 -2.1
v 9.9 3 -2.1
v 10 1.9 -2.1
v 10 2 -2.1
v 10 2.7 -2.1
v 10 2.8 -2.1
v 0.1 1.9 -2.2
v 0.1 2 -2.2
v 0.1 2.7 -2.2
v 0.1 2.8 -2.2
v 0.2 1.9 -2.2
v 0.2 2 -2.2
v 0.2 2.7 -2.2
v 0.2 2.8 -2.2
v 9.8 1.9 -2.2
v 9.8 2 -2.2
v 9.8 2.7 -2.2
v 9.8 2.8 -2.2
v 9.9 1.9 -2.2
v 9.9 2 -2.2
v 9.9 2.7 -2.2
v 9.9 2.8 -2.2
v 9.2 1.8 -2.9
v 9.2 2.7 -2.9
v 9.4 1.8 -2.9
v 9.4 2.7 -2.9
v 9.2 1.8 -3.9
v 9.2 2.7 -3.9
v 9.4 1.8 -3.9
v 9.4 2.7 -3.9
v 9.2 1.8 -4.9
v 9.2 2.7 -4.9
v 9.4 1.8 -4.9
v 9.4 2.7 -4.9
v 0.1 1.9 -6.1
v 0.1 2 -6.1
v 0.1 2.7 -6.1
v 0.1 2.8 -6.1
v 0.2 1.9 -6.1
v 0.2 2 -6.1
v 0.2 2.7 -6.1
v 0.2 2.8 -6.1
v 9.8 2.7 -6.1
v 9.8 2.8 -6.1
v 9.9 2.7 -6.1
v 9.9 2.8 -6.1
v 9.8 1.9 -6.2
v 9.8 2 -6.2
v 9.9 1.9 -6.2
v 9.9 2 -6.2
v 0 1.9 -6.3
v 0 2 -6.3
v 0 2.7 -6.3
v 0 2.8 -6.3
v 0.1 1.9 -6.3
v 0.1 2 -6.3
v 0.1 2.7 -6.3
v 0.1 2.8 -6.3
v 0.1 2.9 -6.3
v 0.1 3 -6.3
v 0.2 1.9 -6.3
v 0.2 2 -6.3
v 0.2 2.7 -6.3
v 0.2 2.8 -6.3
v 0.2 2.9 -6.3
v 0.2 3 -6.3
v 0.3 1.9 -6.3
v 0.3 2 -6.3
v 0.3 2.7 -6.3
v 0.3 2.8 -6.3
v 9.7 2.7 -6.3
v 9.7 2.8 -6.3
v 9.8 2.7 -6.3
v 9.8 2.8 -6.3
v 9.9 1.9 -6.3
v 9.9 2 -6.3
v 9.9 2.7 -6.3
v 9.9 2.8 -6.3
v 10 1.9 -6.3
v 10 2 -6.3
v 10 2.7 -6.3
v 10 2.8 -6.3
v 0.1 1.9 -6.4
v 0.1 2 -6.4
v 0.1 2.7 -6.4
v 0.1 2.8 -6.4
v 0.2 1.9 -6.4
v 0.2 2 -6.4
v 0.2 2.7 -6.4
v 0.2 2.8 -6.4
v 9.4 1.8 -6.4
v 9.4 1.9 -6.4
v 9.5 1.8 -6.4
v 9.5 1.9 -6.4
v 9.8 1.9 -6.4
v 9.8 2 -6.4
v 9.8 2.7 -6.4
v 9.8 2.8 -6.4
v 9.9 1.9 -6.4
v 9.9 2 -6.4
v 9.9 2.7 -6.4
v 9.9 2.8 -6.4
v 0.1 1.9 -10.2
v 0.1 2 -10.2
v 0.1 2.7 -10.2
v 0.1 2.8 -10.2
v 0.2 1.9 -10.2
v 0.2 2 -10.2
v 0.2 2.7 -10.2
v 0.2 2.8 -10.2
v 9.8 1.9 -10.2
v 9.8 2 -10.2
v 9.8 2.7 -10.2
v 9.8 2.8 -10.2
v 9.9 1.9 -10.2
v 9.9 2 -10.2
v 9.9 2.7 -10.2
v 9.9 2.8 -10.2
v 0 1.9 -10.4
v 0 2 -10.4
v 0 2.7 -10.4
v 0 2.8 -10.4
v 0.1 1.9 -10.4
v 0.1 2 -10.4
v 0.1 2.7 -10.4
v 0.1 2.8 -10.4
v 0.1 2.9 -10.4
v 0.1 3 -10.4
v 0.2 1.9 -10.4
v 0.2 2 -10.4
v 0.2 2.7 -10.4
v 0.2 2.8 -10.4
v 0.2 2.9 -10.4
v 0.2 3 -10.4
v 0.3 1.9 -10.4
v 0.3 2 -10.4
v 0.3 2.7 -10.4
v 0.3 2.8 -10.4
v 9.7 1.9 -10.4
v 9.7 2 -10.4
v 9.7 2.7 -10.4
v 9.7 2.8 -10.4
v 9.8 1.9 -10.4
v 9.8 2 -10.4
v 9.8 2.7 -10.4
v 9.8 2.8 -10.4
v 9.8 2.9 -10.4
v 9.8 3 -10.4
v 9.9 1.9 -10.4
v 9.9 2 -10.4
v 9.9 2.7 -10.4
v 9.9 2.8 -10.4
v 9.9 2.9 -10.4
v 9.9 3 -10.4
v 10 1.9 -10.4
v 10 2 -10.4
v 10 2.7 -10.4
v 10 2.8 -10.4
v 0.1 1.9 -10.5
v 0.1 2 -10.5
v 0.1 2.7 -10.5
v 0.1 2.8 -10.5
v 0.2 1.9 -10.5
v 0.2 2 -10.5
v 0.2 2.7 -10.5
v 0.2 2.8 -10.5
v 9.8 1.9 -10.5
v 9.8 2 -10.5
v 9.8 2.7 -10.5
v 9.8 2.8 -10.5
v 9.9 1.9 -10.5
v 9.9 2 -10.5
v 9.9 2.7 -10.5
v 9.9 2.8 -10.5
v 0.1 1.9 -2.1
v 0.1 2 -2.1
v 0.1 2.7 -2.1
v 0.1 2.8 -2.1
v 0.2 1.9 -2.1
v 0.2 2 -2.1
v 0.2 2.7 -2.1
v 0.2 2.8 -2.1
v 9.8 1.9 -2.1
v 9.8 2 -2.1
v 9.8 2.7 -2.1
v 9.8 2.8 -2.1
v 9.9 1.9 -2.1
v 9.9 2 -2.1
v 9.9 2.7 -2.1
v 9.9 2.8 -2.1
v 0 1.9 -2.2
v 0 2 -2.2
v 0 2.7 -2.2
v 0 2.8 -2.2
v 0.1 1.9 -2.2
v 0.1 2 -2.2
v 0.1 2.7 -2.2
v 0.1 2.8 -2.2
v 0.1 2.9 -2.2
v 0.1 3 -2.2
v 0.2 1.9 -2.2
v 0.2 2 -2.2
v 0.2 2.7 -2.2
v 0.2 2.8 -2.2
v 0.2 2.9 -2.2
v 0.2 3 -2.2
v 0.3 1.9 -2.2
v 0.3 2 -2.2
v 0.3 2.7 -2.2
v 0.3 2.8 -2.2
v 9.7 1.9 -2.2
v 9.7 2 -2.2
v 9.7 2.7 -2.2
v 9.7 2.8 -2.2
v 9.8 1.9 -2.2
v 9.8 2 -2.2
v 9.8 2.7 -2.2
v 9.8 2.8 -2.2
v 9.8 2.9 -2.2
v 9.8 3 -2.2
v 9.9 1.9 -2.2
v 9.9 2 -2.2
v 9.9 2.7 -2.2
v 9.9 2.8 -2.2
v 9.9 2.9 -2.2
v 9.9 3 -2.2
v 10 1.9 -2.2
v 10 2 -2.2
v 10 2.7 -2.2
v 10 2.8 -2.2
v 0.1 1.9 -2.4
v 0.1 2 -2.4
v 0.1 2.7 -2.4
v 0.1 2.8 -2.4
v 0.2 1.9 -2.4
v 0.2 2 -2.4
v 0.2 2.7 -2.4
v 0.2 2.8 -2.4
v 9.8 1.9 -2.4
v 9.8 2 -2.4
v 9.8 2.7 -2.4
v 9.8 2.8 -2.4
v 9.9 1.9 -2.4
v 9.9 2 -2.4
v 9.9 2.7 -2.4
v 9.9 2.8 -2.4
v 9.2 1.8 -3.1
v 9.2 2.7 -3.1
v 9.3 1.8 -3.1
v 9.3 2.7 -3.1
v 9.4 1.8 -3.1
v 9.4 2.7 -3.1
v 9.2 1.8 -4.1
v 9.2 2.7 -4.1
v 9.3 1.8 -4.1
v 9.3 2.7 -4.1
v 9.4 1.8 -4.1
v 9.4 2.7 -4.1
v 9.2 1.8 -5.1
v 9.2 2.7 -5.1
v 9.3 1.8 -5.1
v 9.3 2.7 -5.1
v 9.4 1.8 -5.1
v 9.4 2.7 -5.1
v 0.1 1.9 -6.3
v 0.1 2 -6.3
v 0.1 2.7 -6.3
v 0.1 2.8 -6.3
v 0.2 1.9 -6.3
v 0.2 2 -6.3
v 0.2 2.7 -6.3
v 0.2 2.8 -6.3
v 9.8 1.9 -6.3
v 9.8 2 -6.3
v 9.8 2.7 -6.3
v 9.8 2.8 -6.3
v 9.9 1.9 -6.3
v 9.9 2 -6.3
v 9.9 2.7 -6.3
v 9.9 2.8 -6.3
v 0 1.9 -6.4
v 0 2 -6.4
v 0 2.7 -6.4
v 0 2.8 -6.4
v 0.1 1.9 -6.4
v 0.1 2 -6.4
v 0.1 2.7 -6.4
v 0.1 2.8 -6.4
v 0.1 2.9 -6.4
v 0.1 3 -6.4
v 0.2 1.9 -6.4
v 0.2 2 -6.4
v 0.2 2.7 -6.4
v 0.2 2.8 -6.4
v 0.2 2.9 -6.4
v 0.2 3 -6.4
v 0.3 1.9 -6.4
v 0.3 2 -6.4
v 0.3 2.7 -6.4
v 0.3 2.8 -6.4
v 9.7 2.7 -6.4
v 9.7 2.8 -6.4
v 9.8 2.7 -6.4
v 9.8 2.8 -6.4
v 9.9 1.9 -6.4
v 9.9 2 -6.4
v 9.9 2.7 -6.4
v 9.9 2.8 -6.4
v 10 1.9 -6.4
v 10 2 -6.4
v 10 2.7 -6.4
v 10 2.8 -6.4
v 9.4 1.8 -6.5
v 9.4 1.9 -6.5
v 9.5 1.8 -6.5
v 9.5 1.9 -6.5
v 0.1 1.9 -6.6
v 0.1 2 -6.6
v 0.1 2.7 -6.6
v 0.1 2.8 -6.6
v 0.2 1.9 -6.6
v 0.2 2 -6.6
v 0.2 2.7 -6.6
v 0.2 2.8 -6.6
v 9.8 1.9 -6.6
v 9.8 2 -6.6
v 9.8 2.7 -6.6
v 9.8 2.8 -6.6
v 9.9 1.9 -6.6
v 9.9 2 -6.6
v 9.9 2.7 -6.6
v 9.9 2.8 -6.6
v 0.1 1.9 -10.4
v 0.1 2 -10.4
v 0.1 2.7 -10.4
v 0.1 2.8 -10.4
v 0.2 1.9 -10.4
v 0.2 2 -10.4
v 0.2 2.7 -10.4
v 0.2 2.8 -10.4
v 9.8 1.9 -10.4
v 9.8 2 -10.4
v 9.8 2.7 -10.4
v 9.8 2.8 -10.4
v 9.9 1.9 -10.4
v 9.9 2 -10.4
v 9.9 2.7 -10.4
v 9.9 2.8 -10.4
v 0 1.9 -10.5
v 0 2 -10.5
v 0 2.7 -10.5
v 0 2.8 -10.5
v 0.1 1.9 -10.5
v 0.1 2 -10.5
v 0.1 2.7 -10.5
v 0.1 2.8 -10.5
v 0.1 2.9 -10.5
v 0.1 3 -10.5
v 0.2 1.9 -10.5
v 0.2 2 -10.5
v 0.2 2.7 -10.5
v 0.2 2.8 -10.5
v 0.2 2.9 -10.5
v 0.2 3 -10.5
v 0.3 1.9 -10.5
v 0.3 2 -10.5
v 0.3 2.7 -10.5
v 0.3 2.8 -10.5
v 9.7 1.9 -10.5
v 9.7 2 -10.5
v 9.7 2.7 -10.5
v 9.7 2.8 -10.5
v 9.8 1.9 -10.5
v 9.8 2 -10.5
v 9.8 2.7 -10.5
v 9.8 2.8 -10.5
v 9.8 2.9 -10.5
v 9.8 3 -10.5
v 9.9 1.9 -10.5
v 9.9 2 -10.5
v 9.9 2.7 -10.5
v 9.9 2.8 -10.5
v 9.9 2.9 -10.5
v 9.9 3 -10.5
v 10 1.9 -10.5
v 10 2 -10.5
v 10 2.7 -10.5
v 10 2.8 -10.5
v 0.1 1.9 -10.7
v 0.1 2 -10.7
v 0.1 2.7 -10.7
v 0.1 2.8 -10.7
v 0.2 1.9 -10.7
v 0.2 2 -10.7
v 0.2 2.7 -10.7
v 0.2 2.8 -10.7
v 9.8 1.9 -10.7
v 9.8 2 -10.7
v 9.8 2.7 -10.7
v 9.8 2.8 -10.7
v 9.9 1.9 -10.7
v 9.9 2 -10.7
v 9.9 2.7 -10.7
v 9.9 2.8 -10.7
v 0.4 1 -12.6
v 0.4 1.7 -12.6
v 0.4 1.8 -12.6
v 0.5 1.7 -12.6
v 0.5 1.8 -12.6
v 0.9 1.7 -12.6
v 0.9 1.8 -12.6
v 1 1.7 -12.6
v 1 1.8 -12.6
v 9 1.7 -12.6
v 9 1.8 -12.6
v 9.1 1.7 -12.6
v 9.1 1.8 -12.6
v 9.5 1.7 -12.6
v 9.5 1.8 -12.6
v 9.6 1 -12.6
v 9.6 1.7 -12.6
v 9.6 1.8 -12.6
v 0.4 1 0
v 9.6 1 0
v 0.4 1 -12.6
v 9.6 1 -12.6
v 0.1 1.9 -1.9
v 0.2 1.9 -1.9
v 9.8 1.9 -1.9
v 9.9 1.9 -1.9
v 0.1 1.9 -2
v 0.2 1.9 -2
v 9.8 1.9 -2
v 9.9 1.9 -2
v 0 1.9 -2.1
v 0.1 1.9 -2.1
v 0.2 1.9 -2.1
v 0.3 1.9 -2.1
v 9.7 1.9 -2.1
v 9.8 1.9 -2.1
v 9.9 1.9 -2.1
v 10 1.9 -2.1
v 0 1.9 -2.2
v 0.1 1.9 -2.2
v 0.2 1.9 -2.2
v 0.3 1.9 -2.2
v 9.7 1.9 -2.2
v 9.8 1.9 -2.2
v 9.9 1.9 -2.2
v 10 1.9 -2.2
v 0.1 1.9 -2.3
v 0.2 1.9 -2.3
v 9.8 1.9 -2.3
v 9.9 1.9 -2.3
v 0.1 1.9 -2.4
v 0.2 1.9 -2.4
v 9.8 1.9 -2.4
v 9.9 1.9 -2.4
v 0.1 1.9 -6.1
v 0.2 1.9 -6.1
v 0.1 1.9 -6.2
v 0.2 1.9 -6.2
v 9.8 1.9 -6.2
v 9.9 1.9 -6.2
v 0 1.9 -6.3
v 0.1 1.9 -6.3
v 0.2 1.9 -6.3
v 0.3 1.9 -6.3
v 9.8 1.9 -6.3
v 9.9 1.9 -6.3
v 10 1.9 -6.3
v 0 1.9 -6.4
v 0.1 1.9 -6.4
v 0.2 1.9 -6.4
v 0.3 1.9 -6.4
v 9.8 1.9 -6.4
v 9.9 1.9 -6.4
v 10 1.9 -6.4
v 0.1 1.9 -6.5
v 0.2 1.9 -6.5
v 9.8 1.9 -6.5
v 9.9 1.9 -6.5
v 0.1 1.9 -6.6
v 0.2 1.9 -6.6
v 9.8 1.9 -6.6
v 9.9 1.9 -6.6
v 0.1 1.9 -10.2
v 0.2 1.9 -10.2
v 9.8 1.9 -10.2
v 9.9 1.9 -10.2
v 0.1 1.9 -10.3
v 0.2 1.9 -10.3
v 9.8 1.9 -10.3
v 9.9 1.9 -10.3
v 0 1.9 -10.4
v 0.1 1.9 -10.4
v 0.2 1.9 -10.4
v 0.3 1.9 -10.4
v 9.7 1.9 -10.4
v 9.8 1.9 -10.4
v 9.9 1.9 -10.4
v 10 1.9 -10.4
v 0 1.9 -10.5
v 0.1 1.9 -10.5
v 0.2 1.9 -10.5
v 0.3 1.9 -10.5
v 9.7 1.9 -10.5
v 9.8 1.9 -10.5
v 9.9 1.9 -10.5
v 10 1.9 -10.5
v 0.1 1.9 -10.6
v 0.2 1.9 -10.6
v 9.8 1.9 -10.6
v 9.9 1.9 -10.6
v 0.1 1.9 -10.7
v 0.2 1.9 -10.7
v 9.8 1.9 -10.7
v 9.9 1.9 -10.7
v 0.1 2.7 -1.9
v 0.2 2.7 -1.9
v 9.8 2.7 -1.9
v 9.9 2.7 -1.9
v 0.1 2.7 -2
v 0.2 2.7 -2
v 9.8 2.7 -2
v 9.9 2.7 -2
v 0 2.7 -2.1
v 0.1 2.7 -2.1
v 0.2 2.7 -2.1
v 0.3 2.7 -2.1
v 9.7 2.7 -2.1
v 9.8 2.7 -2.1
v 9.9 2.7 -2.1
v 10 2.7 -2.1
v 0 2.7 -2.2
v 0.1 2.7 -2.2
v 0.2 2.7 -2.2
v 0.3 2.7 -2.2
v 9.7 2.7 -2.2
v 9.8 2.7 -2.2
v 9.9 2.7 -2.2
v 10 2.7 -2.2
v 0.1 2.7 -2.3
v 0.2 2.7 -2.3
v 9.8 2.7 -2.3
v 9.9 2.7 -2.3
v 0.1 2.7 -2.4
v 0.2 2.7 -2.4
v 9.8 2.7 -2.4
v 9.9 2.7 -2.4
v 0.1 2.7 -6.1
v 0.2 2.7 -6.1
v 9.8 2.7 -6.1
v 9.9 2.7 -6.1
v 0.1 2.7 -6.2
v 0.2 2.7 -6.2
v 9.8 2.7 -6.2
v 9.9 2.7 -6.2
v 0 2.7 -6.3
v 0.1 2.7 -6.3
v 0.2 2.7 -6.3
v 0.3 2.7 -6.3
v 9.7 2.7 -6.3
v 9.8 2.7 -6.3
v 9.9 2.7 -6.3
v 10 2.7 -6.3
v 0 2.7 -6.4
v 0.1 2.7 -6.4
v 0.2 2.7 -6.4
v 0.3 2.7 -6.4
v 9.7 2.7 -6.4
v 9.8 2.7 -6.4
v 9.9 2.7 -6.4
v 10 2.7 -6.4
v 0.1 2.7 -6.5
v 0.2 2.7 -6.5
v 9.8 2.7 -6.5
v 9.9 2.7 -6.5
v 0.1 2.7 -6.6
v 0.2 2.7 -6.6
v 9.8 2.7 -6.6
v 9.9 2.7 -6.6
v 0.1 2.7 -10.2
v 0.2 2.7 -10.2
v 9.8 2.7 -10.2
v 9.9 2.7 -10.2
v 0.1 2.7 -10.3
v 0.2 2.7 -10.3
v 9.8 2.7 -10.3
v 9.9 2.7 -10.3
v 0 2.7 -10.4
v 0.1 2.7 -10.4
v 0.2 2.7 -10.4
v 0.3 2.7 -10.4
v 9.7 2.7 -10.4
v 9.8 2.7 -10.4
v 9.9 2.7 -10.4
v 10 2.7 -10.4
v 0 2.7 -10.5
v 0.1 2.7 -10.5
v 0.2 2.7 -10.5
v 0.3 2.7 -10.5
v 9.7 2.7 -10.5
v 9.8 2.7 -10.5
v 9.9 2.7 -10.5
v 10 2.7 -10.5
v 0.1 2.7 -10.6
v 0.2 2.7 -10.6
v 9.8 2.7 -10.6
v 9.9 2.7 -10.6
v 0.1 2.7 -10.7
v 0.2 2.7 -10.7
v 9.8 2.7 -10.7
v 9.9 2.7 -10.7
v 0.1 2.9 -2.1
v 0.2 2.9 -2.1
v 9.8 2.9 -2.1
v 9.9 2.9 -2.1
v 0.1 2.9 -2.2
v 0.2 2.9 -2.2
v 9.8 2.9 -2.2
v 9.9 2.9 -2.2
v 0.1 2.9 -6.3
v 0.2 2.9 -6.3
v 0.1 2.9 -6.4
v 0.2 2.9 -6.4
v 0.1 2.9 -10.4
v 0.2 2.9 -10.4
v 9.8 2.9 -10.4
v 9.9 2.9 -10.4
v 0.1 2.9 -10.5
v 0.2 2.9 -10.5
v 9.8 2.9 -10.5
v 9.9 2.9 -10.5
v 1 1.7 0
v 9 1.7 0
v 1 1.7 -12.6
v 9 1.7 -12.6
v 0.4 1.8 0
v 0.5 1.8 0
v 0.9 1.8 0
v 1 1.8 0
v 9 1.8 0
v 9.1 1.8 0
v 9.5 1.8 0
v 9.6 1.8 0
v 0.6 1.8 -0.9
v 0.8 1.8 -0.9
v 9.2 1.8 -0.9
v 9.4 1.8 -0.9
v 0.7 1.8 -1
v 0.8 1.8 -1
v 9.2 1.8 -1
v 9.3 1.8 -1
v 0.6 1.8 -1.1
v 0.7 1.8 -1.1
v 0.8 1.8 -1.1
v 9.2 1.8 -1.1
v 9.3 1.8 -1.1
v 9.4 1.8 -1.1
v 0.6 1.8 -1.9
v 0.8 1.8 -1.9
v 9.2 1.8 -1.9
v 9.4 1.8 -1.9
v 0.7 1.8 -2
v 0.8 1.8 -2
v 9.2 1.8 -2
v 9.3 1.8 -2
v 0.6 1.8 -2.1
v 0.7 1.8 -2.1
v 0.8 1.8 -2.1
v 9.2 1.8 -2.1
v 9.3 1.8 -2.1
v 9.4 1.8 -2.1
v 0.6 1.8 -2.9
v 0.8 1.8 -2.9
v 9.2 1.8 -2.9
v 9.4 1.8 -2.9
v 0.7 1.8 -3
v 0.8 1.8 -3
v 9.2 1.8 -3
v 0.6 1.8 -3.1
v 0.7 1.8 -3.1
v 0.8 1.8 -3.1
v 9.2 1.8 -3.1
v 9.3 1.8 -3.1
v 9.4 1.8 -3.1
v 0.6 1.8 -3.9
v 0.8 1.8 -3.9
v 9.2 1.8 -3.9
v 9.4 1.8 -3.9
v 0.7 1.8 -4
v 0.8 1.8 -4
v 9.2 1.8 -4
v 0.6 1.8 -4.1
v 0.7 1.8 -4.1
v 0.8 1.8 -4.1
v 9.2 1.8 -4.1
v 9.3 1.8 -4.1
v 9.4 1.8 -4.1
v 0.6 1.8 -4.9
v 0.8 1.8 -4.9
v 9.2 1.8 -4.9
v 9.4 1.8 -4.9
v 0.7 1.8 -5
v 0.8 1.8 -5
v 9.2 1.8 -5
v 0.6 1.8 -5.1
v 0.7 1.8 -5.1
v 0.8 1.8 -5.1
v 9.2 1.8 -5.1
v 9.3 1.8 -5.1
v 9.4 1.8 -5.1
v 0.6 1.8 -5.9
v 0.8 1.8 -5.9
v 9.2 1.8 -5.9
v 9.4 1.8 -5.9
v 0.7 1.8 -6
v 0.8 1.8 -6
v 9.2 1.8 -6
v 9.3 1.8 -6
v 0.6 1.8 -6.1
v 0.7 1.8 -6.1
v 0.8 1.8 -6.1
v 9.2 1.8 -6.1
v 9.3 1.8 -6.1
v 9.4 1.8 -6.1
v 9.4 1.8 -6.4
v 9.5 1.8 -6.4
v 9.4 1.8 -6.5
v 9.5 1.8 -6.5
v 0.6 1.8 -6.9
v 0.8 1.8 -6.9
v 9.2 1.8 -6.9
v 9.4 1.8 -6.9
v 0.7 1.8 -7
v 0.8 1.8 -7
v 9.2 1.8 -7
v 9.3 1.8 -7
v 0.6 1.8 -7.1
v 0.7 1.8 -7.1
v 0.8 1.8 -7.1
v 9.2 1.8 -7.1
v 9.3 1.8 -7.1
v 9.4 1.8 -7.1
v 0.6 1.8 -7.9
v 0.8 1.8 -7.9
v 9.2 1.8 -7.9
v 9.4 1.8 -7.9
v 0.7 1.8 -8
v 0.8 1.8 -8
v 9.2 1.8 -8
v 9.3 1.8 -8
v 0.6 1.8 -8.1
v 0.7 1.8 -8.1
v 0.8 1.8 -8.1
v 9.2 1.8 -8.1
v 9.3 1.8 -8.1
v 9.4 1.8 -8.1
v 0.6 1.8 -8.9
v 0.8 1.8 -8.9
v 9.2 1.8 -8.9
v 9.4 1.8 -8.9
v 0.7 1.8 -9
v 0.8 1.8 -9
v 9.2 1.8 -9
v 9.3 1.8 -9
v 0.6 1.8 -9.1
v 0.7 1.8 -9.1
v 0.8 1.8 -9.1
v 9.2 1.8 -9.1
v 9.3 1.8 -9.1
v 9.4 1.8 -9.1
v 0.6 1.8 -9.9
v 0.8 1.8 -9.9
v 9.2 1.8 -9.9
v 9.4 1.8 -9.9
v 0.7 1.8 -10
v 0.8 1.8 -10
v 9.2 1.8 -10
v 9.3 1.8 -10
v 0.6 1.8 -10.1
v 0.7 1.8 -10.1
v 0.8 1.8 -10.1
v 9.2 1.8 -10.1
v 9.3 1.8 -10.1
v 9.4 1.8 -10.1
v 0.6 1.8 -10.9
v 0.8 1.8 -10.9
v 9.2 1.8 -10.9
v 9.4 1.8 -10.9
v 0.7 1.8 -11
v 0.8 1.8 -11
v 9.2 1.8 -11
v 9.3 1.8 -11
v 0.6 1.8 -11.1
v 0.7 1.8 -11.1
v 0.8 1.8 -11.1
v 9.2 1.8 -11.1
v 9.3 1.8 -11.1
v 9.4 1.8 -11.1
v 0.6 1.8 -11.9
v 0.8 1.8 -11.9
v 9.2 1.8 -11.9
v 9.4 1.8 -11.9
v 0.7 1.8 -12
v 0.8 1.8 -12
v 9.2 1.8 -12
v 9.3 1.8 -12
v 0.6 1.8 -12.1
v 0.7 1.8 -12.1
v 0.8 1.8 -12.1
v 9.2 1.8 -12.1
v 9.3 1.8 -12.1
v 9.4 1.8 -12.1
v 0.4 1.8 -12.6
v 0.5 1.8 -12.6
v 0.9 1.8 -12.6
v 1 1.8 -12.6
v 9 1.8 -12.6
v 9.1 1.8 -12.6
v 9.5 1.8 -12.6
v 9.6 1.8 -12.6
v 9.4 1.9 -6.4
v 9.5 1.9 -6.4
v 9.4 1.9 -6.5
v 9.5 1.9 -6.5
v 0.1 2 -1.9
v 0.2 2 -1.9
v 9.8 2 -1.9
v 9.9 2 -1.9
v 0.1 2 -2
v 0.2 2 -2
v 9.8 2 -2
v 9.9 2 -2
v 0 2 -2.1
v 0.1 2 -2.1
v 0.2 2 -2.1
v 0.3 2 -2.1
v 9.7 2 -2.1
v 9.8 2 -2.1
v 9.9 2 -2.1
v 10 2 -2.1
v 0 2 -2.2
v 0.1 2 -2.2
v 0.2 2 -2.2
v 0.3 2 -2.2
v 9.7 2 -2.2
v 9.8 2 -2.2
v 9.9 2 -2.2
v 10 2 -2.2
v 0.1 2 -2.3
v 0.2 2 -2.3
v 9.8 2 -2.3
v 9.9 2 -2.3
v 0.1 2 -2.4
v 0.2 2 -2.4
v 9.8 2 -2.4
v 9.9 2 -2.4
v 0.1 2 -6.1
v 0.2 2 -6.1
v 0.1 2 -6.2
v 0.2 2 -6.2
v 9.8 2 -6.2
v 9.9 2 -6.2
v 0 2 -6.3
v 0.1 2 -6.3
v 0.2 2 -6.3
v 0.3 2 -6.3
v 9.8 2 -6.3
v 9.9 2 -6.3
v 10 2 -6.3
v 0 2 -6.4
v 0.1 2 -6.4
v 0.2 2 -6.4
v 0.3 2 -6.4
v 9.8 2 -6.4
v 9.9 2 -6.4
v 10 2 -6.4
v 0.1 2 -6.5
v 0.2 2 -6.5
v 9.8 2 -6.5
v 9.9 2 -6.5
v 0.1 2 -6.6
v 0.2 2 -6.6
v 9.8 2 -6.6
v 9.9 2 -6.6
v 0.1 2 -10.2
v 0.2 2 -10.2
v 9.8 2 -10.2
v 9.9 2 -10.2
v 0.1 2 -10.3
v 0.2 2 -10.3
v 9.8 2 -10.3
v 9.9 2 -10.3
v 0 2 -10.4
v 0.1 2 -10.4
v 0.2 2 -10.4
v 0.3 2 -10.4
v 9.7 2 -10.4
v 9.8 2 -10.4
v 9.9 2 -10.4
v 10 2 -10.4
v 0 2 -10.5
v 0.1 2 -10.5
v 0.2 2 -10.5
v 0.3 2 -10.5
v 9.7 2 -10.5
v 9.8 2 -10.5
v 9.9 2 -10.5
v 10 2 -10.5
v 0.1 2 -10.6
v 0.2 2 -10.6
v 9.8 2 -10.6
v 9.9 2 -10.6
v 0.1 2 -10.7
v 0.2 2 -10.7
v 9.8 2 -10.7
v 9.9 2 -10.7
v 9.2 2.7 -2.9
v 9.4 2.7 -2.9
v 9.2 2.7 -3
v 9.3 2.7 -3
v 9.2 2.7 -3.1
v 9.3 2.7 -3.1
v 9.4 2.7 -3.1
v 9.2 2.7 -3.9
v 9.4 2.7 -3.9
v 9.2 2.7 -4
v 9.3 2.7 -4
v 9.2 2.7 -4.1
v 9.3 2.7 -4.1
v 9.4 2.7 -4.1
v 9.2 2.7 -4.9
v 9.4 2.7 -4.9
v 9.2 2.7 -5
v 9.3 2.7 -5
v 9.2 2.7 -5.1
v 9.3 2.7 -5.1
v 9.4 2.7 -5.1
v 0.1 2.8 -1.9
v 0.2 2.8 -1.9
v 9.8 2.8 -1.9
v 9.9 2.8 -1.9
v 0.1 2.8 -2
v 0.2 2.8 -2
v 9.8 2.8 -2
v 9.9 2.8 -2
v 0 2.8 -2.1
v 0.1 2.8 -2.1
v 0.2 2.8 -2.1
v 0.3 2.8 -2.1
v 9.7 2.8 -2.1
v 9.8 2.8 -2.1
v 9.9 2.8 -2.1
v 10 2.8 -2.1
v 0 2.8 -2.2
v 0.1 2.8 -2.2
v 0.2 2.8 -2.2
v 0.3 2.8 -2.2
v 9.7 2.8 -2.2
v 9.8 2.8 -2.2
v 9.9 2.8 -2.2
v 10 2.8 -2.2
v 0.1 2.8 -2.3
v 0.2 2.8 -2.3
v 9.8 2.8 -2.3
v 9.9 2.8 -2.3
v 0.1 2.8 -2.4
v 0.2 2.8 -2.4
v 9.8 2.8 -2.4
v 9.9 2.8 -2.4
v 0.1 2.8 -6.1
v 0.2 2.8 -6.1
v 9.8 2.8 -6.1
v 9.9 2.8 -6.1
v 0.1 2.8 -6.2
v 0.2 2.8 -6.2
v 9.8 2.8 -6.2
v 9.9 2.8 -6.2
v 0 2.8 -6.3
v 0.1 2.8 -6.3
v 0.2 2.8 -6.3
v 0.3 2.8 -6.3
v 9.7 2.8 -6.3
v 9.8 2.8 -6.3
v 9.9 2.8 -6.3
v 10 2.8 -6.3
v 0 2.8 -6.4
v 0.1 2.8 -6.4
v 0.2 2.8 -6.4
v 0.3 2.8 -6.4
v 9.7 2.8 -6.4
v 9.8 2.8 -6.4
v 9.9 2.8 -6.4
v 10 2.8 -6.4
v 0.1 2.8 -6.5
v 0.2 2.8 -6.5
v 9.8 2.8 -6.5
v 9.9 2.8 -6.5
v 0.1 2.8 -6.6
v 0.2 2.8 -6.6
v 9.8 2.8 -6.6
v 9.9 2.8 -6.6
v 0.1 2.8 -10.2
v 0.2 2.8 -10.2
v 9.8 2.8 -10.2
v 9.9 2.8 -10.2
v 0.1 2.8 -10.3
v 0.2 2.8 -10.3
v 9.8 2.8 -10.3
v 9.9 2.8 -10.3
v 0 2.8 -10.4
v 0.1 2.8 -10.4
v 0.2 2.8 -10.4
v 0.3 2.8 -10.4
v 9.7 2.8 -10.4
v 9.8 2.8 -10.4
v 9.9 2.8 -10.4
v 10 2.8 -10.4
v 0 2.8 -10.5
v 0.1 2.8 -10.5
v 0.2 2.8 -10.5
v 0.3 2.8 -10.5
v 9.7 2.8 -10.5
v 9.8 2.8 -10.5
v 9.9 2.8 -10.5
v 10 2.8 -10.5
v 0.1 2.8 -10.6
v 0.2 2.8 -10.6
v 9.8 2.8 -10.6
v 9.9 2.8 -10.6
v 0.1 2.8 -10.7
v 0.2 2.8 -10.7
v 9.8 2.8 -10.7
v 9.9 2.8 -10.7
v 0.1 3 -2.1
v 0.2 3 -2.1
v 9.8 3 -2.1
v 9.9 3 -2.1
v 0.1 3 -2.2
v 0.2 3 -2.2
v 9.8 3 -2.2
v 9.9 3 -2.2
v 0.1 3 -6.3
v 0.2 3 -6.3
v 0.1 3 -6.4
v 0.2 3 -6.4
v 0.1 3 -10.4
v 0.2 3 -10.4
v 9.8 3 -10.4
v 9.9 3 -10.4
v 0.1 3 -10.5
v 0.2 3 -10.5
v 9.8 3 -10.5
v 9.9 3 -10.5

# faces
f 7/1/1 2/1/1 1/1/1
f 8/1/1 2/1/1 7/1/1
f 9/1/1 4/1/1 3/1/1
f 10/1/1 4/1/1 9/1/1
f 11/1/1 6/1/1 5/1/1
f 12/1/1 6/1/1 11/1/1
f 19/1/1 14/1/1 13/1/1
f 20/1/1 14/1/1 19/1/1
f 21/1/1 16/1/1 15/1/1
f 22/1/1 16/1/1 21/1/1
f 23/1/1 18/1/1 17/1/1
f 24/1/1 18/1/1 23/1/1
f 43/5/1 26/5/1 25/5/1
f 44/1/1 27/1/1 26/1/1
f 44/5/1 26/5/1 43/5/1
f 45/1/1 27/1/1 44/1/1
f 46/1/1 29/1/1 28/1/1
f 47/5/1 30/5/1 29/5/1
f 47/1/1 29/1/1 46/1/1
f 48/5/1 30/5/1 47/5/1
f 49/5/1 32/5/1 31/5/1
f 50/1/1 33/1/1 32/1/1
f 50/5/1 32/5/1 49/5/1
f 51/1/1 33/1/1 50/1/1
f 52/1/1 35/1/1 34/1/1
f 53/5/1 36/5/1 35/5/1
f 53/1/1 35/1/1 52/1/1
f 54/5/1 36/5/1 53/5/1
f 55/5/1 38/5/1 37/5/1
f 56/1/1 39/1/1 38/1/1
f 56/5/1 38/5/1 55/5/1
f 57/1/1 39/1/1 56/1/1
f 58/1/1 41/1/1 40/1/1
f 59/5/1 42/5/1 41/5/1
f 59/1/1 41/1/1 58/1/1
f 60/5/1 42/5/1 59/5/1
f 79/5/1 62/5/1 61/5/1
f 80/1/1 63/1/1 62/1/1
f 80/5/1 62/5/1 79/5/1
f 81/1/1 63/1/1 80/1/1
f 82/1/1 65/1/1 64/1/1
f 83/5/1 66/5/1 65/5/1
f 83/1/1 65/1/1 82/1/1
f 84/5/1 66/5/1 83/5/1
f 85/5/1 68/5/1 67/5/1
f 86/1/1 69/1/1 68/1/1
f 86/5/1 68/5/1 85/5/1
f 87/1/1 69/1/1 86/1/1
f 88/1/1 71/1/1 70/1/1
f 89/5/1 72/5/1 71/5/1
f 89/1/1 71/1/1 88/1/1
f 90/5/1 72/5/1 89/5/1
f 91/5/1 74/5/1 73/5/1
f 92/1/1 75/1/1 74/1/1
f 92/5/1 74/5/1 91/5/1
f 93/1/1 75/1/1 92/1/1
f 94/1/1 77/1/1 76/1/1
f 95/5/1 78/5/1 77/5/1
f 95/1/1 77/1/1 94/1/1
f 96/5/1 78/5/1 95/5/1
f 103/3/1 98/3/1 97/3/1
f 104/3/1 98/3/1 103/3/1
f 105/3/1 100/3/1 99/3/1
f 106/3/1 100/3/1 105/3/1
f 107/3/1 102/3/1 101/3/1
f 108/3/1 102/3/1 107/3/1
f 115/1/1 110/1/1 109/1/1
f 116/1/1 110/1/1 115/1/1
f 117/1/1 112/1/1 111/1/1
f 118/1/1 112/1/1 117/1/1
f 119/1/1 114/1/1 113/1/1
f 120/1/1 114/1/1 119/1/1
f 127/1/1 122/1/1 121/1/1
f 128/1/1 122/1/1 127/1/1
f 129/1/1 124/1/1 123/1/1
f 130/1/1 124/1/1 129/1/1
f 131/1/1 126/1/1 125/1/1
f 132/1/1 126/1/1 131/1/1
f 135/1/1 134/1/1 133/1/1
f 136/1/1 134/1/1 135/1/1
f 137/5/1 136/5/1 135/5/1
f 138/5/1 136/5/1 137/5/1
f 141/5/1 140/5/1 139/5/1
f 142/5/1 140/5/1 141/5/1
f 152/7/1 144/7/1 143/7/1
f 153/6/1 145/6/1 144/6/1
f 153/7/1 144/7/1 152/7/1
f 154/6/1 145/6/1 153/6/1
f 155/7/1 147/7/1 146/7/1
f 156/6/1 148/6/1 147/6/1
f 156/7/1 147/7/1 155/7/1
f 157/6/1 148/6/1 156/6/1
f 158/7/1 150/7/1 149/7/1
f 159/6/1 151/6/1 150/6/1
f 159/7/1 150/7/1 158/7/1
f 160/6/1 151/6/1 159/6/1
f 163/3/1 162/3/1 161/3/1
f 164/3/1 162/3/1 163/3/1
f 169/1/1 166/1/1 165/1/1
f 170/1/1 166/1/1 169/1/1
f 171/1/1 168/1/1 167/1/1
f 172/1/1 168/1/1 171/1/1
f 179/1/1 174/1/1 173/1/1
f 180/1/1 174/1/1 179/1/1
f 181/2/1 176/2/1 175/2/1
f 182/2/1 176/2/1 181/2/1
f 183/1/1 178/1/1 177/1/1
f 184/1/1 178/1/1 183/1/1
f 202/5/1 186/5/1 185/5/1
f 203/1/1 187/1/1 186/1/1
f 203/5/1 186/5/1 202/5/1
f 204/1/1 187/1/1 203/1/1
f 205/1/1 189/1/1 188/1/1
f 206/5/1 190/5/1 189/5/1
f 206/1/1 189/1/1 205/1/1
f 207/5/1 190/5/1 206/5/1
f 208/2/1 192/2/1 191/2/1
f 209/2/1 192/2/1 208/2/1
f 210/1/1 194/1/1 193/1/1
f 211/5/1 195/5/1 194/5/1
f 211/1/1 194/1/1 210/1/1
f 212/5/1 195/5/1 211/5/1
f 213/5/1 197/5/1 196/5/1
f 214/1/1 198/1/1 197/1/1
f 214/5/1 197/5/1 213/5/1
f 215/1/1 198/1/1 214/1/1
f 216/1/1 200/1/1 199/1/1
f 217/5/1 201/5/1 200/5/1
f 217/1/1 200/1/1 216/1/1
f 218/5/1 201/5/1 217/5/1
f 237/5/1 220/5/1 219/5/1
f 238/1/1 221/1/1 220/1/1
f 238/5/1 220/5/1 237/5/1
f 239/1/1 221/1/1 238/1/1
f 240/1/1 223/1/1 222/1/1
f 241/5/1 224/5/1 223/5/1
f 241/1/1 223/1/1 240/1/1
f 242/5/1 224/5/1 241/5/1
f 243/5/1 226/5/1 225/5/1
f 244/2/1 227/2/1 226/2/1
f 244/5/1 226/5/1 243/5/1
f 245/2/1 227/2/1 244/2/1
f 246/1/1 229/1/1 228/1/1
f 247/5/1 230/5/1 229/5/1
f 247/1/1 229/1/1 246/1/1
f 248/5/1 230/5/1 247/5/1
f 249/5/1 232/5/1 231/5/1
f 250/1/1 233/1/1 232/1/1
f 250/5/1 232/5/1 249/5/1
f 251/1/1 233/1/1 250/1/1
f 252/1/1 235/1/1 234/1/1
f 253/5/1 236/5/1 235/5/1
f 253/1/1 235/1/1 252/1/1
f 254/5/1 236/5/1 253/5/1
f 259/3/1 256/3/1 255/3/1
f 260/3/1 256/3/1 259/3/1
f 261/3/1 258/3/1 257/3/1
f 262/3/1 258/3/1 261/3/1
f 269/1/1 264/1/1 263/1/1
f 270/1/1 264/1/1 269/1/1
f 271/1/1 266/1/1 265/1/1
f 272/1/1 266/1/1 271/1/1
f 273/1/1 268/1/1 267/1/1
f 274/1/1 268/1/1 273/1/1
f 281/1/1 276/1/1 275/1/1
f 282/1/1 276/1/1 281/1/1
f 283/2/1 278/2/1 277/2/1
f 284/2/1 278/2/1 283/2/1
f 285/1/1 280/1/1 279/1/1
f 286/1/1 280/1/1 285/1/1
f 287/1/2 288/1/2 293/1/2
f 293/1/2 288/1/2 294/1/2
f 289/1/2 290/1/2 295/1/2
f 295/1/2 290/1/2 296/1/2
f 291/1/2 292/1/2 297/1/2
f 297/1/2 292/1/2 298/1/2
f 299/1/2 300/1/2 305/1/2
f 305/1/2 300/1/2 306/1/2
f 301/1/2 302/1/2 307/1/2
f 307/1/2 302/1/2 308/1/2
f 303/1/2 304/1/2 309/1/2
f 309/1/2 304/1/2 310/1/2
f 311/5/2 312/5/2 329/5/2
f 312/1/2 313/1/2 330/1/2
f 329/5/2 312/5/2 330/5/2
f 330/1/2 313/1/2 331/1/2
f 314/1/2 315/1/2 332/1/2
f 315/5/2 316/5/2 333/5/2
f 332/1/2 315/1/2 333/1/2
f 333/5/2 316/5/2 334/5/2
f 317/5/2 318/5/2 335/5/2
f 318/1/2 319/1/2 336/1/2
f 335/5/2 318/5/2 336/5/2
f 336/1/2 319/1/2 337/1/2
f 320/1/2 321/1/2 338/1/2
f 321/5/2 322/5/2 339/5/2
f 338/1/2 321/1/2 339/1/2
f 339/5/2 322/5/2 340/5/2
f 323/5/2 324/5/2 341/5/2
f 324/1/2 325/1/2 342/1/2
f 341/5/2 324/5/2 342/5/2
f 342/1/2 325/1/2 343/1/2
f 326/1/2 327/1/2 344/1/2
f 327/5/2 328/5/2 345/5/2
f 344/1/2 327/1/2 345/1/2
f 345/5/2 328/5/2 346/5/2
f 347/5/2 348/5/2 365/5/2
f 348/1/2 349/1/2 366/1/2
f 365/5/2 348/5/2 366/5/2
f 366/1/2 349/1/2 367/1/2
f 350/1/2 351/1/2 368/1/2
f 351/5/2 352/5/2 369/5/2
f 368/1/2 351/1/2 369/1/2
f 369/5/2 352/5/2 370/5/2
f 353/5/2 354/5/2 371/5/2
f 354/1/2 355/1/2 372/1/2
f 371/5/2 354/5/2 372/5/2
f 372/1/2 355/1/2 373/1/2
f 356/1/2 357/1/2 374/1/2
f 357/5/2 358/5/2 375/5/2
f 374/1/2 357/1/2 375/1/2
f 375/5/2 358/5/2 376/5/2
f 359/5/2 360/5/2 377/5/2
f 360/1/2 361/1/2 378/1/2
f 377/5/2 360/5/2 378/5/2
f 378/1/2 361/1/2 379/1/2
f 362/1/2 363/1/2 380/1/2
f 363/5/2 364/5/2 381/5/2
f 380/1/2 363/1/2 381/1/2
f 381/5/2 364/5/2 382/5/2
f 383/3/2 384/3/2 389/3/2
f 389/3/2 384/3/2 390/3/2
f 385/3/2 386/3/2 391/3/2
f 391/3/2 386/3/2 392/3/2
f 387/3/2 388/3/2 393/3/2
f 393/3/2 388/3/2 394/3/2
f 395/1/2 396/1/2 401/1/2
f 401/1/2 396/1/2 402/1/2
f 397/1/2 398/1/2 403/1/2
f 403/1/2 398/1/2 404/1/2
f 399/1/2 400/1/2 405/1/2
f 405/1/2 400/1/2 406/1/2
f 407/1/2 408/1/2 413/1/2
f 413/1/2 408/1/2 414/1/2
f 409/1/2 410/1/2 415/1/2
f 415/1/2 410/1/2 416/1/2
f 411/1/2 412/1/2 417/1/2
f 417/1/2 412/1/2 418/1/2
f 419/5/2 420/5/2 421/5/2
f 421/5/2 420/5/2 422/5/2
f 423/7/2 424/7/2 429/7/2
f 429/7/2 424/7/2 430/7/2
f 425/7/2 426/7/2 431/7/2
f 431/7/2 426/7/2 432/7/2
f 427/7/2 428/7/2 433/7/2
f 433/7/2 428/7/2 434/7/2
f 435/3/2 436/3/2 437/3/2
f 437/3/2 436/3/2 438/3/2
f 439/1/2 440/1/2 441/1/2
f 441/1/2 440/1/2 442/1/2
f 441/5/2 442/5/2 443/5/2
f 443/5/2 442/5/2 444/5/2
f 445/1/2 446/1/2 449/1/2
f 449/1/2 446/1/2 450/1/2
f 447/1/2 448/1/2 451/1/2
f 451/1/2 448/1/2 452/1/2
f 453/1/2 454/1/2 459/1/2
f 459/1/2 454/1/2 460/1/2
f 455/2/2 456/2/2 461/2/2
f 461/2/2 456/2/2 462/2/2
f 457/1/2 458/1/2 463/1/2
f 463/1/2 458/1/2 464/1/2
f 465/5/2 466/5/2 482/5/2
f 466/1/2 467/1/2 483/1/2
f 482/5/2 466/5/2 483/5/2
f 483/1/2 467/1/2 484/1/2
f 468/1/2 469/1/2 485/1/2
f 469/5/2 470/5/2 486/5/2
f 485/1/2 469/1/2 486/1/2
f 486/5/2 470/5/2 487/5/2
f 471/2/2 472/2/2 488/2/2
f 488/2/2 472/2/2 489/2/2
f 473/1/2 474/1/2 490/1/2
f 474/5/2 475/5/2 491/5/2
f 490/1/2 474/1/2 491/1/2
f 491/5/2 475/5/2 492/5/2
f 476/5/2 477/5/2 493/5/2
f 477/1/2 478/1/2 494/1/2
f 493/5/2 477/5/2 494/5/2
f 494/1/2 478/1/2 495/1/2
f 479/1/2 480/1/2 496/1/2
f 480/5/2 481/5/2 497/5/2
f 496/1/2 480/1/2 497/1/2
f 497/5/2 481/5/2 498/5/2
f 499/5/2 500/5/2 517/5/2
f 500/1/2 501/1/2 518/1/2
f 517/5/2 500/5/2 518/5/2
f 518/1/2 501/1/2 519/1/2
f 502/1/2 503/1/2 520/1/2
f 503/5/2 504/5/2 521/5/2
f 520/1/2 503/1/2 521/1/2
f 521/5/2 504/5/2 522/5/2
f 505/5/2 506/5/2 523/5/2
f 506/2/2 507/2/2 524/2/2
f 523/5/2 506/5/2 524/5/2
f 524/2/2 507/2/2 525/2/2
f 508/1/2 509/1/2 526/1/2
f 509/5/2 510/5/2 527/5/2
f 526/1/2 509/1/2 527/1/2
f 527/5/2 510/5/2 528/5/2
f 511/5/2 512/5/2 529/5/2
f 512/1/2 513/1/2 530/1/2
f 529/5/2 512/5/2 530/5/2
f 530/1/2 513/1/2 531/1/2
f 514/1/2 515/1/2 532/1/2
f 515/5/2 516/5/2 533/5/2
f 532/1/2 515/1/2 533/1/2
f 533/5/2 516/5/2 534/5/2
f 535/3/2 536/3/2 539/3/2
f 539/3/2 536/3/2 540/3/2
f 537/3/2 538/3/2 541/3/2
f 541/3/2 538/3/2 542/3/2
f 543/1/2 544/1/2 549/1/2
f 549/1/2 544/1/2 550/1/2
f 545/1/2 546/1/2 551/1/2
f 551/1/2 546/1/2 552/1/2
f 547/1/2 548/1/2 553/1/2
f 553/1/2 548/1/2 554/1/2
f 555/1/2 556/1/2 561/1/2
f 561/1/2 556/1/2 562/1/2
f 557/2/2 558/2/2 563/2/2
f 563/2/2 558/2/2 564/2/2
f 559/1/2 560/1/2 565/1/2
f 565/1/2 560/1/2 566/1/2
f 570/1/3 568/1/3 567/1/3
f 570/5/3 569/5/3 568/5/3
f 571/5/3 569/5/3 570/5/3
f 572/1/3 570/1/3 567/1/3
f 572/3/3 571/3/3 570/3/3
f 573/3/3 571/3/3 572/3/3
f 574/1/3 572/1/3 567/1/3
f 574/5/3 573/5/3 572/5/3
f 575/5/3 573/5/3 574/5/3
f 576/1/3 574/1/3 567/1/3
f 578/1/3 576/1/3 567/1/3
f 578/5/3 577/5/3 576/5/3
f 579/5/3 577/5/3 578/5/3
f 580/1/3 578/1/3 567/1/3
f 580/3/3 579/3/3 578/3/3
f 581/3/3 579/3/3 580/3/3
f 582/1/3 580/1/3 567/1/3
f 583/5/3 581/5/3 580/5/3
f 583/1/3 580/1/3 582/1/3
f 584/5/3 581/5/3 583/5/3
f 589/5/3 586/5/3 585/5/3
f 590/5/3 586/5/3 589/5/3
f 591/5/3 588/5/3 587/5/3
f 592/5/3 588/5/3 591/5/3
f 597/5/3 594/5/3 593/5/3
f 598/5/3 594/5/3 597/5/3
f 599/5/3 596/5/3 595/5/3
f 600/5/3 596/5/3 599/5/3
f 605/1/3 602/1/3 601/1/3
f 606/1/3 602/1/3 605/1/3
f 607/1/3 604/1/3 603/1/3
f 608/1/3 604/1/3 607/1/3
f 615/3/3 610/3/3 609/3/3
f 616/3/3 610/3/3 615/3/3
f 617/1/3 612/1/3 611/1/3
f 618/1/3 612/1/3 617/1/3
f 619/1/3 614/1/3 613/1/3
f 620/1/3 614/1/3 619/1/3
f 625/1/3 622/1/3 621/1/3
f 626/1/3 622/1/3 625/1/3
f 627/1/3 624/1/3 623/1/3
f 628/1/3 624/1/3 627/1/3
f 635/3/3 630/3/3 629/3/3
f 636/3/3 630/3/3 635/3/3
f 637/1/3 632/1/3 631/1/3
f 638/1/3 632/1/3 637/1/3
f 639/1/3 634/1/3 633/1/3
f 640/1/3 634/1/3 639/1/3
f 645/1/3 642/1/3 641/1/3
f 646/1/3 642/1/3 645/1/3
f 647/1/3 644/1/3 643/1/3
f 648/1/3 644/1/3 647/1/3
f 653/1/3 650/1/3 649/1/3
f 654/1/3 650/1/3 653/1/3
f 655/1/3 652/1/3 651/1/3
f 656/1/3 652/1/3 655/1/3
f 659/7/3 658/7/3 657/7/3
f 660/7/3 658/7/3 659/7/3
f 663/7/3 662/7/3 661/7/3
f 664/7/3 662/7/3 663/7/3
f 667/7/3 666/7/3 665/7/3
f 668/7/3 666/7/3 667/7/3
f 673/5/3 670/5/3 669/5/3
f 674/5/3 670/5/3 673/5/3
f 675/5/3 672/5/3 671/5/3
f 676/5/3 672/5/3 675/5/3
f 679/5/3 678/5/3 677/5/3
f 680/5/3 678/5/3 679/5/3
f 683/2/3 682/2/3 681/2/3
f 684/2/3 682/2/3 683/2/3
f 689/1/3 686/1/3 685/1/3
f 690/1/3 686/1/3 689/1/3
f 691/1/3 688/1/3 687/1/3
f 692/1/3 688/1/3 691/1/3
f 699/3/3 694/3/3 693/3/3
f 700/3/3 694/3/3 699/3/3
f 701/1/3 696/1/3 695/1/3
f 702/1/3 696/1/3 701/1/3
f 703/1/3 698/1/3 697/1/3
f 704/1/3 698/1/3 703/1/3
f 707/2/3 706/2/3 705/2/3
f 708/2/3 706/2/3 707/2/3
f 713/1/3 710/1/3 709/1/3
f 714/1/3 710/1/3 713/1/3
f 715/2/3 712/2/3 711/2/3
f 716/2/3 712/2/3 715/2/3
f 721/1/3 718/1/3 717/1/3
f 722/1/3 718/1/3 721/1/3
f 723/1/3 720/1/3 719/1/3
f 724/1/3 720/1/3 723/1/3
f 727/3/3 726/3/3 725/3/3
f 728/3/3 726/3/3 727/3/3
f 733/1/3 730/1/3 729/1/3
f 734/1/3 730/1/3 733/1/3
f 735/1/3 732/1/3 731/1/3
f 736/1/3 732/1/3 735/1/3
f 741/5/3 738/5/3 737/5/3
f 742/5/3 738/5/3 741/5/3
f 743/5/3 740/5/3 739/5/3
f 744/5/3 740/5/3 743/5/3
f 749/5/3 746/5/3 745/5/3
f 750/5/3 746/5/3 749/5/3
f 751/5/3 748/5/3 747/5/3
f 752/5/3 748/5/3 751/5/3
f 757/1/3 754/1/3 753/1/3
f 758/1/3 754/1/3 757/1/3
f 759/1/3 756/1/3 755/1/3
f 760/1/3 756/1/3 759/1/3
f 767/3/3 762/3/3 761/3/3
f 768/3/3 762/3/3 767/3/3
f 769/1/3 764/1/3 763/1/3
f 770/1/3 764/1/3 769/1/3
f 771/1/3 766/1/3 765/1/3
f 772/1/3 766/1/3 771/1/3
f 777/1/3 774/1/3 773/1/3
f 778/1/3 774/1/3 777/1/3
f 779/1/3 776/1/3 775/1/3
f 780/1/3 776/1/3 779/1/3
f 787/3/3 782/3/3 781/3/3
f 788/3/3 782/3/3 787/3/3
f 789/1/3 784/1/3 783/1/3
f 790/1/3 784/1/3 789/1/3
f 791/1/3 786/1/3 785/1/3
f 792/1/3 786/1/3 791/1/3
f 797/1/3 794/1/3 793/1/3
f 798/1/3 794/1/3 797/1/3
f 799/1/3 796/1/3 795/1/3
f 800/1/3 796/1/3 799/1/3
f 805/1/3 802/1/3 801/1/3
f 806/1/3 802/1/3 805/1/3
f 807/1/3 804/1/3 803/1/3
f 808/1/3 804/1/3 807/1/3
f 809/1/4 810/1/4 813/1/4
f 813/1/4 810/1/4 814/1/4
f 811/1/4 812/1/4 815/1/4
f 815/1/4 812/1/4 816/1/4
f 817/1/4 818/1/4 821/1/4
f 821/1/4 818/1/4 822/1/4
f 819/1/4 820/1/4 823/1/4
f 823/1/4 820/1/4 824/1/4
f 825/1/4 826/1/4 829/1/4
f 829/1/4 826/1/4 830/1/4
f 827/1/4 828/1/4 831/1/4
f 831/1/4 828/1/4 832/1/4
f 833/3/4 834/3/4 839/3/4
f 839/3/4 834/3/4 840/3/4
f 835/1/4 836/1/4 841/1/4
f 841/1/4 836/1/4 842/1/4
f 837/1/4 838/1/4 843/1/4
f 843/1/4 838/1/4 844/1/4
f 845/1/4 846/1/4 849/1/4
f 849/1/4 846/1/4 850/1/4
f 847/1/4 848/1/4 851/1/4
f 851/1/4 848/1/4 852/1/4
f 853/3/4 854/3/4 859/3/4
f 859/3/4 854/3/4 860/3/4
f 855/1/4 856/1/4 861/1/4
f 861/1/4 856/1/4 862/1/4
f 857/1/4 858/1/4 863/1/4
f 863/1/4 858/1/4 864/1/4
f 865/5/4 866/5/4 869/5/4
f 869/5/4 866/5/4 870/5/4
f 867/5/4 868/5/4 871/5/4
f 871/5/4 868/5/4 872/5/4
f 873/5/4 874/5/4 877/5/4
f 877/5/4 874/5/4 878/5/4
f 875/5/4 876/5/4 879/5/4
f 879/5/4 876/5/4 880/5/4
f 881/6/4 882/6/4 883/6/4
f 883/6/4 882/6/4 884/6/4
f 883/7/4 884/7/4 885/7/4
f 885/7/4 884/7/4 886/7/4
f 887/6/4 888/6/4 889/6/4
f 889/6/4 888/6/4 890/6/4
f 889/7/4 890/7/4 891/7/4
f 891/7/4 890/7/4 892/7/4
f 893/6/4 894/6/4 895/6/4
f 895/6/4 894/6/4 896/6/4
f 895/7/4 896/7/4 897/7/4
f 897/7/4 896/7/4 898/7/4
f 899/1/4 900/1/4 903/1/4
f 903/1/4 900/1/4 904/1/4
f 901/1/4 902/1/4 905/1/4
f 905/1/4 902/1/4 906/1/4
f 907/2/4 908/2/4 911/2/4
f 911/2/4 908/2/4 912/2/4
f 909/2/4 910/2/4 913/2/4
f 913/2/4 910/2/4 914/2/4
f 915/1/4 916/1/4 919/1/4
f 919/1/4 916/1/4 920/1/4
f 917/1/4 918/1/4 921/1/4
f 921/1/4 918/1/4 922/1/4
f 923/3/4 924/3/4 929/3/4
f 929/3/4 924/3/4 930/3/4
f 925/1/4 926/1/4 931/1/4
f 931/1/4 926/1/4 932/1/4
f 927/1/4 928/1/4 933/1/4
f 933/1/4 928/1/4 934/1/4
f 935/2/4 936/2/4 937/2/4
f 937/2/4 936/2/4 938/2/4
f 939/1/4 940/1/4 943/1/4
f 943/1/4 940/1/4 944/1/4
f 941/2/4 942/2/4 945/2/4
f 945/2/4 942/2/4 946/2/4
f 947/3/4 948/3/4 949/3/4
f 949/3/4 948/3/4 950/3/4
f 951/5/4 952/5/4 955/5/4
f 955/5/4 952/5/4 956/5/4
f 953/5/4 954/5/4 957/5/4
f 957/5/4 954/5/4 958/5/4
f 959/5/4 960/5/4 963/5/4
f 963/5/4 960/5/4 964/5/4
f 961/5/4 962/5/4 965/5/4
f 965/5/4 962/5/4 966/5/4
f 967/1/4 968/1/4 971/1/4
f 971/1/4 968/1/4 972/1/4
f 969/1/4 970/1/4 973/1/4
f 973/1/4 970/1/4 974/1/4
f 975/1/4 976/1/4 979/1/4
f 979/1/4 976/1/4 980/1/4
f 977/1/4 978/1/4 981/1/4
f 981/1/4 978/1/4 982/1/4
f 983/1/4 984/1/4 987/1/4
f 987/1/4 984/1/4 988/1/4
f 985/1/4 986/1/4 989/1/4
f 989/1/4 986/1/4 990/1/4
f 991/3/4 992/3/4 997/3/4
f 997/3/4 992/3/4 998/3/4
f 993/1/4 994/1/4 999/1/4
f 999/1/4 994/1/4 1000/1/4
f 995/1/4 996/1/4 1001/1/4
f 1001/1/4 996/1/4 1002/1/4
f 1003/1/4 1004/1/4 1007/1/4
f 1007/1/4 1004/1/4 1008/1/4
f 1005/1/4 1006/1/4 1009/1/4
f 1009/1/4 1006/1/4 1010/1/4
f 1011/3/4 1012/3/4 1017/3/4
f 1017/3/4 1012/3/4 1018/3/4
f 1013/1/4 1014/1/4 1019/1/4
f 1019/1/4 1014/1/4 1020/1/4
f 1015/1/4 1016/1/4 1021/1/4
f 1021/1/4 1016/1/4 1022/1/4
f 1023/5/4 1024/5/4 1027/5/4
f 1027/5/4 1024/5/4 1028/5/4
f 1025/5/4 1026/5/4 1029/5/4
f 1029/5/4 1026/5/4 1030/5/4
f 1031/5/4 1032/5/4 1035/5/4
f 1035/5/4 1032/5/4 1036/5/4
f 1033/5/4 1034/5/4 1037/5/4
f 1037/5/4 1034/5/4 1038/5/4
f 1039/1/4 1040/1/4 1042/1/4
f 1040/5/4 1041/5/4 1042/5/4
f 1042/5/4 1041/5/4 1043/5/4
f 1039/1/4 1042/1/4 1044/1/4
f 1042/3/4 1043/3/4 1044/3/4
f 1044/3/4 1043/3/4 1045/3/4
f 1039/1/4 1044/1/4 1046/1/4
f 1044/5/4 1045/5/4 1046/5/4
f 1046/5/4 1045/5/4 1047/5/4
f 1039/1/4 1046/1/4 1048/1/4
f 1039/1/4 1048/1/4 1050/1/4
f 1048/5/4 1049/5/4 1050/5/4
f 1050/5/4 1049/5/4 1051/5/4
f 1039/1/4 1050/1/4 1052/1/4
f 1050/3/4 1051/3/4 1052/3/4
f 1052/3/4 1051/3/4 1053/3/4
f 1039/1/4 1052/1/4 1054/1/4
f 1052/5/4 1053/5/4 1055/5/4
f 1054/1/4 1052/1/4 1055/1/4
f 1055/5/4 1053/5/4 1056/5/4
f 1059/1/5 1058/1/5 1057/1/5
f 1060/1/5 1058/1/5 1059/1/5
f 1065/5/5 1062/5/5 1061/5/5
f 1066/5/5 1062/5/5 1065/5/5
f 1067/5/5 1064/5/5 1063/5/5
f 1068/5/5 1064/5/5 1067/5/5
f 1070/1/5 1066/1/5 1065/1/5
f 1071/1/5 1066/1/5 1070/1/5
f 1074/1/5 1068/1/5 1067/1/5
f 1075/1/5 1068/1/5 1074/1/5
f 1077/1/5 1070/1/5 1069/1/5
f 1078/1/5 1070/1/5 1077/1/5
f 1079/1/5 1072/1/5 1071/1/5
f 1080/1/5 1072/1/5 1079/1/5
f 1081/1/5 1074/1/5 1073/1/5
f 1082/1/5 1074/1/5 1081/1/5
f 1083/1/5 1076/1/5 1075/1/5
f 1084/1/5 1076/1/5 1083/1/5
f 1085/1/5 1079/1/5 1078/1/5
f 1086/1/5 1079/1/5 1085/1/5
f 1087/1/5 1083/1/5 1082/1/5
f 1088/1/5 1083/1/5 1087/1/5
f 1089/5/5 1086/5/5 1085/5/5
f 1090/5/5 1086/5/5 1089/5/5
f 1091/5/5 1088/5/5 1087/5/5
f 1092/5/5 1088/5/5 1091/5/5
f 1095/5/5 1094/5/5 1093/5/5
f 1096/5/5 1094/5/5 1095/5/5
f 1100/1/5 1096/1/5 1095/1/5
f 1101/1/5 1096/1/5 1100/1/5
f 1103/2/5 1098/2/5 1097/2/5
f 1104/2/5 1098/2/5 1103/2/5
f 1106/1/5 1100/1/5 1099/1/5
f 1107/1/5 1100/1/5 1106/1/5
f 1108/1/5 1102/1/5 1101/1/5
f 1109/1/5 1102/1/5 1108/1/5
f 1111/1/5 1105/1/5 1104/1/5
f 1112/1/5 1105/1/5 1111/1/5
f 1113/1/5 1108/1/5 1107/1/5
f 1114/1/5 1108/1/5 1113/1/5
f 1115/1/5 1111/1/5 1110/1/5
f 1116/1/5 1111/1/5 1115/1/5
f 1117/5/5 1114/5/5 1113/5/5
f 1118/5/5 1114/5/5 1117/5/5
f 1119/5/5 1116/5/5 1115/5/5
f 1120/5/5 1116/5/5 1119/5/5
f 1125/5/5 1122/5/5 1121/5/5
f 1126/5/5 1122/5/5 1125/5/5
f 1127/5/5 1124/5/5 1123/5/5
f 1128/5/5 1124/5/5 1127/5/5
f 1130/1/5 1126/1/5 1125/1/5
f 1131/1/5 1126/1/5 1130/1/5
f 1134/1/5 1128/1/5 1127/1/5
f 1135/1/5 1128/1/5 1134/1/5
f 1137/1/5 1130/1/5 1129/1/5
f 1138/1/5 1130/1/5 1137/1/5
f 1139/1/5 1132/1/5 1131/1/5
f 1140/1/5 1132/1/5 1139/1/5
f 1141/1/5 1134/1/5 1133/1/5
f 1142/1/5 1134/1/5 1141/1/5
f 1143/1/5 1136/1/5 1135/1/5
f 1144/1/5 1136/1/5 1143/1/5
f 1145/1/5 1139/1/5 1138/1/5
f 1146/1/5 1139/1/5 1145/1/5
f 1147/1/5 1143/1/5 1142/1/5
f 1148/1/5 1143/1/5 1147/1/5
f 1149/5/5 1146/5/5 1145/5/5
f 1150/5/5 1146/5/5 1149/5/5
f 1151/5/5 1148/5/5 1147/5/5
f 1152/5/5 1148/5/5 1151/5/5
f 1157/5/5 1154/5/5 1153/5/5
f 1158/5/5 1154/5/5 1157/5/5
f 1159/5/5 1156/5/5 1155/5/5
f 1160/5/5 1156/5/5 1159/5/5
f 1162/1/5 1158/1/5 1157/1/5
f 1163/1/5 1158/1/5 1162/1/5
f 1166/1/5 1160/1/5 1159/1/5
f 1167/1/5 1160/1/5 1166/1/5
f 1169/1/5 1162/1/5 1161/1/5
f 1170/1/5 1162/1/5 1169/1/5
f 1171/1/5 1164/1/5 1163/1/5
f 1172/1/5 1164/1/5 1171/1/5
f 1173/1/5 1166/1/5 1165/1/5
f 1174/1/5 1166/1/5 1173/1/5
f 1175/1/5 1168/1/5 1167/1/5
f 1176/1/5 1168/1/5 1175/1/5
f 1177/1/5 1171/1/5 1170/1/5
f 1178/1/5 1171/1/5 1177/1/5
f 1179/1/5 1175/1/5 1174/1/5
f 1180/1/5 1175/1/5 1179/1/5
f 1181/5/5 1178/5/5 1177/5/5
f 1182/5/5 1178/5/5 1181/5/5
f 1183/5/5 1180/5/5 1179/5/5
f 1184/5/5 1180/5/5 1183/5/5
f 1189/5/5 1186/5/5 1185/5/5
f 1190/5/5 1186/5/5 1189/5/5
f 1191/5/5 1188/5/5 1187/5/5
f 1192/5/5 1188/5/5 1191/5/5
f 1194/1/5 1190/1/5 1189/1/5
f 1195/1/5 1190/1/5 1194/1/5
f 1198/2/5 1192/2/5 1191/2/5
f 1199/2/5 1192/2/5 1198/2/5
f 1201/1/5 1194/1/5 1193/1/5
f 1202/1/5 1194/1/5 1201/1/5
f 1203/1/5 1196/1/5 1195/1/5
f 1204/1/5 1196/1/5 1203/1/5
f 1205/2/5 1198/2/5 1197/2/5
f 1206/2/5 1198/2/5 1205/2/5
f 1207/2/5 1200/2/5 1199/2/5
f 1208/2/5 1200/2/5 1207/2/5
f 1209/1/5 1203/1/5 1202/1/5
f 1210/1/5 1203/1/5 1209/1/5
f 1211/1/5 1207/1/5 1206/1/5
f 1212/1/5 1207/1/5 1211/1/5
f 1213/5/5 1210/5/5 1209/5/5
f 1214/5/5 1210/5/5 1213/5/5
f 1215/5/5 1212/5/5 1211/5/5
f 1216/5/5 1212/5/5 1215/5/5
f 1221/5/5 1218/5/5 1217/5/5
f 1222/5/5 1218/5/5 1221/5/5
f 1223/5/5 1220/5/5 1219/5/5
f 1224/5/5 1220/5/5 1223/5/5
f 1226/1/5 1222/1/5 1221/1/5
f 1227/1/5 1222/1/5 1226/1/5
f 1230/1/5 1224/1/5 1223/1/5
f 1231/1/5 1224/1/5 1230/1/5
f 1233/1/5 1226/1/5 1225/1/5
f 1234/1/5 1226/1/5 1233/1/5
f 1235/1/5 1228/1/5 1227/1/5
f 1236/1/5 1228/1/5 1235/1/5
f 1237/1/5 1230/1/5 1229/1/5
f 1238/1/5 1230/1/5 1237/1/5
f 1239/1/5 1232/1/5 1231/1/5
f 1240/1/5 1232/1/5 1239/1/5
f 1241/1/5 1235/1/5 1234/1/5
f 1242/1/5 1235/1/5 1241/1/5
f 1243/1/5 1239/1/5 1238/1/5
f 1244/1/5 1239/1/5 1243/1/5
f 1245/5/5 1242/5/5 1241/5/5
f 1246/5/5 1242/5/5 1245/5/5
f 1247/5/5 1244/5/5 1243/5/5
f 1248/5/5 1244/5/5 1247/5/5
f 1253/3/5 1250/3/5 1249/3/5
f 1254/3/5 1250/3/5 1253/3/5
f 1255/3/5 1252/3/5 1251/3/5
f 1256/3/5 1252/3/5 1255/3/5
f 1259/3/5 1258/3/5 1257/3/5
f 1260/3/5 1258/3/5 1259/3/5
f 1265/3/5 1262/3/5 1261/3/5
f 1266/3/5 1262/3/5 1265/3/5
f 1267/3/5 1264/3/5 1263/3/5
f 1268/3/5 1264/3/5 1267/3/5
f 1269/1/6 1270/1/6 1271/1/6
f 1271/1/6 1270/1/6 1272/1/6
f 1274/3/6 1275/3/6 1281/3/6
f 1281/3/6 1275/3/6 1282/3/6
f 1278/3/6 1279/3/6 1283/3/6
f 1283/3/6 1279/3/6 1284/3/6
f 1281/7/6 1282/7/6 1285/7/6
f 1282/3/6 1275/3/6 1286/3/6
f 1285/7/6 1282/7/6 1286/7/6
f 1278/3/6 1283/3/6 1287/3/6
f 1283/7/6 1284/7/6 1287/7/6
f 1287/7/6 1284/7/6 1288/7/6
f 1281/7/6 1285/7/6 1289/7/6
f 1274/3/6 1281/3/6 1289/3/6
f 1285/6/6 1286/6/6 1290/6/6
f 1289/7/6 1285/7/6 1290/7/6
f 1286/3/6 1275/3/6 1291/3/6
f 1290/6/6 1286/6/6 1291/6/6
f 1287/6/6 1288/6/6 1292/6/6
f 1278/3/6 1287/3/6 1292/3/6
f 1288/7/6 1284/7/6 1293/7/6
f 1292/6/6 1288/6/6 1293/6/6
f 1284/3/6 1279/3/6 1294/3/6
f 1293/7/6 1284/7/6 1294/7/6
f 1289/3/6 1290/3/6 1295/3/6
f 1274/3/6 1289/3/6 1295/3/6
f 1290/3/6 1291/3/6 1295/3/6
f 1291/3/6 1275/3/6 1296/3/6
f 1295/3/6 1291/3/6 1296/3/6
f 1278/3/6 1292/3/6 1297/3/6
f 1292/3/6 1293/3/6 1297/3/6
f 1293/3/6 1294/3/6 1297/3/6
f 1294/3/6 1279/3/6 1298/3/6
f 1297/3/6 1294/3/6 1298/3/6
f 1295/7/6 1296/7/6 1299/7/6
f 1296/3/6 1275/3/6 1300/3/6
f 1299/7/6 1296/7/6 1300/7/6
f 1278/3/6 1297/3/6 1301/3/6
f 1297/7/6 1298/7/6 1301/7/6
f 1301/7/6 1298/7/6 1302/7/6
f 1295/7/6 1299/7/6 1303/7/6
f 1274/3/6 1295/3/6 1303/3/6
f 1299/6/6 1300/6/6 1304/6/6
f 1303/7/6 1299/7/6 1304/7/6
f 1300/3/6 1275/3/6 1305/3/6
f 1304/6/6 1300/6/6 1305/6/6
f 1301/6/6 1302/6/6 1306/6/6
f 1278/3/6 1301/3/6 1306/3/6
f 1302/7/6 1298/7/6 1307/7/6
f 1306/6/6 1302/6/6 1307/6/6
f 1298/3/6 1279/3/6 1308/3/6
f 1307/7/6 1298/7/6 1308/7/6
f 1303/3/6 1304/3/6 1309/3/6
f 1274/3/6 1303/3/6 1309/3/6
f 1304/3/6 1305/3/6 1309/3/6
f 1305/3/6 1275/3/6 1310/3/6
f 1309/3/6 1305/3/6 1310/3/6
f 1278/3/6 1306/3/6 1311/3/6
f 1306/3/6 1307/3/6 1311/3/6
f 1307/3/6 1308/3/6 1311/3/6
f 1308/3/6 1279/3/6 1312/3/6
f 1311/3/6 1308/3/6 1312/3/6
f 1309/7/6 1310/7/6 1313/7/6
f 1310/3/6 1275/3/6 1314/3/6
f 1313/7/6 1310/7/6 1314/7/6
f 1278/3/6 1311/3/6 1315/3/6
f 1309/7/6 1313/7/6 1316/7/6
f 1274/3/6 1309/3/6 1316/3/6
f 1313/6/6 1314/6/6 1317/6/6
f 1316/7/6 1313/7/6 1317/7/6
f 1314/3/6 1275/3/6 1318/3/6
f 1317/6/6 1314/6/6 1318/6/6
f 1278/3/6 1315/3/6 1319/3/6
f 1312/3/6 1279/3/6 1321/3/6
f 1316/3/6 1317/3/6 1322/3/6
f 1274/3/6 1316/3/6 1322/3/6
f 1317/3/6 1318/3/6 1322/3/6
f 1318/3/6 1275/3/6 1323/3/6
f 1322/3/6 1318/3/6 1323/3/6
f 1278/3/6 1319/3/6 1324/3/6
f 1319/3/6 1320/3/6 1324/3/6
f 1320/3/6 1321/3/6 1324/3/6
f 1321/3/6 1279/3/6 1325/3/6
f 1324/3/6 1321/3/6 1325/3/6
f 1322/7/6 1323/7/6 1326/7/6
f 1323/3/6 1275/3/6 1327/3/6
f 1326/7/6 1323/7/6 1327/7/6
f 1278/3/6 1324/3/6 1328/3/6
f 1322/7/6 1326/7/6 1329/7/6
f 1274/3/6 1322/3/6 1329/3/6
f 1326/6/6 1327/6/6 1330/6/6
f 1329/7/6 1326/7/6 1330/7/6
f 1327/3/6 1275/3/6 1331/3/6
f 1330/6/6 1327/6/6 1331/6/6
f 1278/3/6 1328/3/6 1332/3/6
f 1325/3/6 1279/3/6 1334/3/6
f 1329/3/6 1330/3/6 1335/3/6
f 1274/3/6 1329/3/6 1335/3/6
f 1330/3/6 1331/3/6 1335/3/6
f 1331/3/6 1275/3/6 1336/3/6
f 1335/3/6 1331/3/6 1336/3/6
f 1278/3/6 1332/3/6 1337/3/6
f 1332/3/6 1333/3/6 1337/3/6
f 1333/3/6 1334/3/6 1337/3/6
f 1334/3/6 1279/3/6 1338/3/6
f 1337/3/6 1334/3/6 1338/3/6
f 1335/7/6 1336/7/6 1339/7/6
f 1336/3/6 1275/3/6 1340/3/6
f 1339/7/6 1336/7/6 1340/7/6
f 1278/3/6 1337/3/6 1341/3/6
f 1335/7/6 1339/7/6 1342/7/6
f 1274/3/6 1335/3/6 1342/3/6
f 1339/6/6 1340/6/6 1343/6/6
f 1342/7/6 1339/7/6 1343/7/6
f 1340/3/6 1275/3/6 1344/3/6
f 1343/6/6 1340/6/6 1344/6/6
f 1278/3/6 1341/3/6 1345/3/6
f 1338/3/6 1279/3/6 1347/3/6
f 1342/3/6 1343/3/6 1348/3/6
f 1274/3/6 1342/3/6 1348/3/6
f 1343/3/6 1344/3/6 1348/3/6
f 1344/3/6 1275/3/6 1349/3/6
f 1348/3/6 1344/3/6 1349/3/6
f 1278/3/6 1345/3/6 1350/3/6
f 1345/3/6 1346/3/6 1350/3/6
f 1346/3/6 1347/3/6 1350/3/6
f 1347/3/6 1279/3/6 1351/3/6
f 1350/3/6 1347/3/6 1351/3/6
f 1348/7/6 1349/7/6 1352/7/6
f 1349/3/6 1275/3/6 1353/3/6
f 1352/7/6 1349/7/6 1353/7/6
f 1278/3/6 1350/3/6 1354/3/6
f 1350/7/6 1351/7/6 1354/7/6
f 1354/7/6 1351/7/6 1355/7/6
f 1348/7/6 1352/7/6 1356/7/6
f 1274/3/6 1348/3/6 1356/3/6
f 1352/6/6 1353/6/6 1357/6/6
f 1356/7/6 1352/7/6 1357/7/6
f 1353/3/6 1275/3/6 1358/3/6
f 1357/6/6 1353/6/6 1358/6/6
f 1354/6/6 1355/6/6 1359/6/6
f 1278/3/6 1354/3/6 1359/3/6
f 1355/7/6 1351/7/6 1360/7/6
f 1359/6/6 1355/6/6 1360/6/6
f 1351/3/6 1279/3/6 1361/3/6
f 1360/7/6 1351/7/6 1361/7/6
f 1359/3/6 1360/3/6 1362/3/6
f 1361/3/6 1279/3/6 1362/3/6
f 1360/3/6 1361/3/6 1362/3/6
f 1279/5/6 1280/5/6 1363/5/6
f 1362/3/6 1279/3/6 1363/3/6
f 1359/3/6 1362/3/6 1364/3/6
f 1363/5/6 1280/5/6 1365/5/6
f 1357/3/6 1358/3/6 1366/3/6
f 1356/3/6 1357/3/6 1366/3/6
f 1274/3/6 1356/3/6 1366/3/6
f 1358/3/6 1275/3/6 1367/3/6
f 1366/3/6 1358/3/6 1367/3/6
f 1359/3/6 1364/3/6 1368/3/6
f 1278/3/6 1359/3/6 1368/3/6
f 1364/3/6 1365/3/6 1368/3/6
f 1368/3/6 1365/3/6 1369/3/6
f 1366/7/6 1367/7/6 1370/7/6
f 1367/3/6 1275/3/6 1371/3/6
f 1370/7/6 1367/7/6 1371/7/6
f 1278/3/6 1368/3/6 1372/3/6
f 1368/7/6 1369/7/6 1372/7/6
f 1372/7/6 1369/7/6 1373/7/6
f 1366/7/6 1370/7/6 1374/7/6
f 1274/3/6 1366/3/6 1374/3/6
f 1370/6/6 1371/6/6 1375/6/6
f 1374/7/6 1370/7/6 1375/7/6
f 1371/3/6 1275/3/6 1376/3/6
f 1375/6/6 1371/6/6 1376/6/6
f 1372/6/6 1373/6/6 1377/6/6
f 1278/3/6 1372/3/6 1377/3/6
f 1373/7/6 1369/7/6 1378/7/6
f 1377/6/6 1373/6/6 1378/6/6
f 1369/3/6 1365/3/6 1379/3/6
f 1378/7/6 1369/7/6 1379/7/6
f 1374/3/6 1375/3/6 1380/3/6
f 1274/3/6 1374/3/6 1380/3/6
f 1375/3/6 1376/3/6 1380/3/6
f 1376/3/6 1275/3/6 1381/3/6
f 1380/3/6 1376/3/6 1381/3/6
f 1278/3/6 1377/3/6 1382/3/6
f 1377/3/6 1378/3/6 1382/3/6
f 1378/3/6 1379/3/6 1382/3/6
f 1379/3/6 1365/3/6 1383/3/6
f 1382/3/6 1379/3/6 1383/3/6
f 1380/7/6 1381/7/6 1384/7/6
f 1381/3/6 1275/3/6 1385/3/6
f 1384/7/6 1381/7/6 1385/7/6
f 1278/3/6 1382/3/6 1386/3/6
f 1382/7/6 1383/7/6 1386/7/6
f 1386/7/6 1383/7/6 1387/7/6
f 1380/7/6 1384/7/6 1388/7/6
f 1274/3/6 1380/3/6 1388/3/6
f 1384/6/6 1385/6/6 1389/6/6
f 1388/7/6 1384/7/6 1389/7/6
f 1385/3/6 1275/3/6 1390/3/6
f 1389/6/6 1385/6/6 1390/6/6
f 1386/6/6 1387/6/6 1391/6/6
f 1278/3/6 1386/3/6 1391/3/6
f 1387/7/6 1383/7/6 1392/7/6
f 1391/6/6 1387/6/6 1392/6/6
f 1383/3/6 1365/3/6 1393/3/6
f 1392/7/6 1383/7/6 1393/7/6
f 1388/3/6 1389/3/6 1394/3/6
f 1274/3/6 1388/3/6 1394/3/6
f 1389/3/6 1390/3/6 1394/3/6
f 1390/3/6 1275/3/6 1395/3/6
f 1394/3/6 1390/3/6 1395/3/6
f 1278/3/6 1391/3/6 1396/3/6
f 1391/3/6 1392/3/6 1396/3/6
f 1392/3/6 1393/3/6 1396/3/6
f 1393/3/6 1365/3/6 1397/3/6
f 1396/3/6 1393/3/6 1397/3/6
f 1394/7/6 1395/7/6 1398/7/6
f 1395/3/6 1275/3/6 1399/3/6
f 1398/7/6 1395/7/6 1399/7/6
f 1278/3/6 1396/3/6 1400/3/6
f 1396/7/6 1397/7/6 1400/7/6
f 1400/7/6 1397/7/6 1401/7/6
f 1394/7/6 1398/7/6 1402/7/6
f 1274/3/6 1394/3/6 1402/3/6
f 1398/6/6 1399/6/6 1403/6/6
f 1402/7/6 1398/7/6 1403/7/6
f 1399/3/6 1275/3/6 1404/3/6
f 1403/6/6 1399/6/6 1404/6/6
f 1400/6/6 1401/6/6 1405/6/6
f 1278/3/6 1400/3/6 1405/3/6
f 1401/7/6 1397/7/6 1406/7/6
f 1405/6/6 1401/6/6 1406/6/6
f 1397/3/6 1365/3/6 1407/3/6
f 1406/7/6 1397/7/6 1407/7/6
f 1402/3/6 1403/3/6 1408/3/6
f 1274/3/6 1402/3/6 1408/3/6
f 1403/3/6 1404/3/6 1408/3/6
f 1404/3/6 1275/3/6 1409/3/6
f 1408/3/6 1404/3/6 1409/3/6
f 1278/3/6 1405/3/6 1410/3/6
f 1405/3/6 1406/3/6 1410/3/6
f 1406/3/6 1407/3/6 1410/3/6
f 1407/3/6 1365/3/6 1411/3/6
f 1410/3/6 1407/3/6 1411/3/6
f 1408/7/6 1409/7/6 1412/7/6
f 1409/3/6 1275/3/6 1413/3/6
f 1412/7/6 1409/7/6 1413/7/6
f 1278/3/6 1410/3/6 1414/3/6
f 1410/7/6 1411/7/6 1414/7/6
f 1414/7/6 1411/7/6 1415/7/6
f 1408/7/6 1412/7/6 1416/7/6
f 1274/3/6 1408/3/6 1416/3/6
f 1412/6/6 1413/6/6 1417/6/6
f 1416/7/6 1412/7/6 1417/7/6
f 1413/3/6 1275/3/6 1418/3/6
f 1417/6/6 1413/6/6 1418/6/6
f 1414/6/6 1415/6/6 1419/6/6
f 1278/3/6 1414/3/6 1419/3/6
f 1415/7/6 1411/7/6 1420/7/6
f 1419/6/6 1415/6/6 1420/6/6
f 1411/3/6 1365/3/6 1421/3/6
f 1420/7/6 1411/7/6 1421/7/6
f 1416/3/6 1417/3/6 1422/3/6
f 1274/3/6 1416/3/6 1422/3/6
f 1417/3/6 1418/3/6 1422/3/6
f 1418/3/6 1275/3/6 1423/3/6
f 1422/3/6 1418/3/6 1423/3/6
f 1278/3/6 1419/3/6 1424/3/6
f 1419/3/6 1420/3/6 1424/3/6
f 1420/3/6 1421/3/6 1424/3/6
f 1421/3/6 1365/3/6 1425/3/6
f 1424/3/6 1421/3/6 1425/3/6
f 1422/7/6 1423/7/6 1426/7/6
f 1423/3/6 1275/3/6 1427/3/6
f 1426/7/6 1423/7/6 1427/7/6
f 1278/3/6 1424/3/6 1428/3/6
f 1424/7/6 1425/7/6 1428/7/6
f 1428/7/6 1425/7/6 1429/7/6
f 1422/7/6 1426/7/6 1430/7/6
f 1274/3/6 1422/3/6 1430/3/6
f 1426/6/6 1427/6/6 1431/6/6
f 1430/7/6 1426/7/6 1431/7/6
f 1427/3/6 1275/3/6 1432/3/6
f 1431/6/6 1427/6/6 1432/6/6
f 1428/6/6 1429/6/6 1433/6/6
f 1278/3/6 1428/3/6 1433/3/6
f 1429/7/6 1425/7/6 1434/7/6
f 1433/6/6 1429/6/6 1434/6/6
f 1425/3/6 1365/3/6 1435/3/6
f 1434/7/6 1425/7/6 1435/7/6
f 1430/3/6 1431/3/6 1436/3/6
f 1274/3/6 1430/3/6 1436/3/6
f 1431/3/6 1432/3/6 1436/3/6
f 1432/3/6 1275/3/6 1437/3/6
f 1436/3/6 1432/3/6 1437/3/6
f 1278/3/6 1433/3/6 1438/3/6
f 1433/3/6 1434/3/6 1438/3/6
f 1434/3/6 1435/3/6 1438/3/6
f 1435/3/6 1365/3/6 1439/3/6
f 1438/3/6 1435/3/6 1439/3/6
f 1436/7/6 1437/7/6 1440/7/6
f 1437/3/6 1275/3/6 1441/3/6
f 1440/7/6 1437/7/6 1441/7/6
f 1278/3/6 1438/3/6 1442/3/6
f 1438/7/6 1439/7/6 1442/7/6
f 1442/7/6 1439/7/6 1443/7/6
f 1436/7/6 1440/7/6 1444/7/6
f 1274/3/6 1436/3/6 1444/3/6
f 1440/6/6 1441/6/6 1445/6/6
f 1444/7/6 1440/7/6 1445/7/6
f 1441/3/6 1275/3/6 1446/3/6
f 1445/6/6 1441/6/6 1446/6/6
f 1442/6/6 1443/6/6 1447/6/6
f 1278/3/6 1442/3/6 1447/3/6
f 1443/7/6 1439/7/6 1448/7/6
f 1447/6/6 1443/6/6 1448/6/6
f 1439/3/6 1365/3/6 1449/3/6
f 1448/7/6 1439/7/6 1449/7/6
f 1273/5/6 1274/5/6 1450/5/6
f 1444/3/6 1445/3/6 1451/3/6
f 1450/5/6 1274/5/6 1451/5/6
f 1274/3/6 1444/3/6 1451/3/6
f 1445/3/6 1446/3/6 1451/3/6
f 1275/5/6 1276/5/6 1452/5/6
f 1451/3/6 1446/3/6 1452/3/6
f 1446/3/6 1275/3/6 1452/3/6
f 1452/5/6 1276/5/6 1453/5/6
f 1277/5/6 1278/5/6 1454/5/6
f 1278/3/6 1447/3/6 1455/3/6
f 1454/5/6 1278/5/6 1455/5/6
f 1447/3/6 1448/3/6 1455/3/6
f 1448/3/6 1449/3/6 1455/3/6
f 1449/3/6 1365/3/6 1456/3/6
f 1455/3/6 1449/3/6 1456/3/6
f 1365/5/6 1280/5/6 1456/5/6
f 1456/5/6 1280/5/6 1457/5/6
f 1458/3/6 1459/3/6 1460/3/6
f 1460/3/6 1459/3/6 1461/3/6
f 1462/5/6 1463/5/6 1466/5/6
f 1466/5/6 1463/5/6 1467/5/6
f 1464/5/6 1465/5/6 1468/5/6
f 1468/5/6 1465/5/6 1469/5/6
f 1466/1/6 1467/1/6 1471/1/6
f 1471/1/6 1467/1/6 1472/1/6
f 1468/1/6 1469/1/6 1475/1/6
f 1475/1/6 1469/1/6 1476/1/6
f 1470/1/6 1471/1/6 1478/1/6
f 1478/1/6 1471/1/6 1479/1/6
f 1472/1/6 1473/1/6 1480/1/6
f 1480/1/6 1473/1/6 1481/1/6
f 1474/1/6 1475/1/6 1482/1/6
f 1482/1/6 1475/1/6 1483/1/6
f 1476/1/6 1477/1/6 1484/1/6
f 1484/1/6 1477/1/6 1485/1/6
f 1479/1/6 1480/1/6 1486/1/6
f 1486/1/6 1480/1/6 1487/1/6
f 1483/1/6 1484/1/6 1488/1/6
f 1488/1/6 1484/1/6 1489/1/6
f 1486/5/6 1487/5/6 1490/5/6
f 1490/5/6 1487/5/6 1491/5/6
f 1488/5/6 1489/5/6 1492/5/6
f 1492/5/6 1489/5/6 1493/5/6
f 1494/5/6 1495/5/6 1496/5/6
f 1496/5/6 1495/5/6 1497/5/6
f 1496/1/6 1497/1/6 1501/1/6
f 1501/1/6 1497/1/6 1502/1/6
f 1498/2/6 1499/2/6 1504/2/6
f 1504/2/6 1499/2/6 1505/2/6
f 1500/1/6 1501/1/6 1507/1/6
f 1507/1/6 1501/1/6 1508/1/6
f 1502/1/6 1503/1/6 1509/1/6
f 1509/1/6 1503/1/6 1510/1/6
f 1505/1/6 1506/1/6 1512/1/6
f 1512/1/6 1506/1/6 1513/1/6
f 1508/1/6 1509/1/6 1514/1/6
f 1514/1/6 1509/1/6 1515/1/6
f 1511/1/6 1512/1/6 1516/1/6
f 1516/1/6 1512/1/6 1517/1/6
f 1514/5/6 1515/5/6 1518/5/6
f 1518/5/6 1515/5/6 1519/5/6
f 1516/5/6 1517/5/6 1520/5/6
f 1520/5/6 1517/5/6 1521/5/6
f 1522/5/6 1523/5/6 1526/5/6
f 1526/5/6 1523/5/6 1527/5/6
f 1524/5/6 1525/5/6 1528/5/6
f 1528/5/6 1525/5/6 1529/5/6
f 1526/1/6 1527/1/6 1531/1/6
f 1531/1/6 1527/1/6 1532/1/6
f 1528/1/6 1529/1/6 1535/1/6
f 1535/1/6 1529/1/6 1536/1/6
f 1530/1/6 1531/1/6 1538/1/6
f 1538/1/6 1531/1/6 1539/1/6
f 1532/1/6 1533/1/6 1540/1/6
f 1540/1/6 1533/1/6 1541/1/6
f 1534/1/6 1535/1/6 1542/1/6
f 1542/1/6 1535/1/6 1543/1/6
f 1536/1/6 1537/1/6 1544/1/6
f 1544/1/6 1537/1/6 1545/1/6
f 1539/1/6 1540/1/6 1546/1/6
f 1546/1/6 1540/1/6 1547/1/6
f 1543/1/6 1544/1/6 1548/1/6
f 1548/1/6 1544/1/6 1549/1/6
f 1546/5/6 1547/5/6 1550/5/6
f 1550/5/6 1547/5/6 1551/5/6
f 1548/5/6 1549/5/6 1552/5/6
f 1552/5/6 1549/5/6 1553/5/6
f 1554/7/6 1555/7/6 1556/7/6
f 1556/7/6 1555/7/6 1557/7/6
f 1556/6/6 1557/6/6 1558/6/6
f 1557/7/6 1555/7/6 1559/7/6
f 1558/6/6 1557/6/6 1559/6/6
f 1559/7/6 1555/7/6 1560/7/6
f 1561/7/6 1562/7/6 1563/7/6
f 1563/7/6 1562/7/6 1564/7/6
f 1563/6/6 1564/6/6 1565/6/6
f 1564/7/6 1562/7/6 1566/7/6
f 1565/6/6 1564/6/6 1566/6/6
f 1566/7/6 1562/7/6 1567/7/6
f 1568/7/6 1569/7/6 1570/7/6
f 1570/7/6 1569/7/6 1571/7/6
f 1570/6/6 1571/6/6 1572/6/6
f 1571/7/6 1569/7/6 1573/7/6
f 1572/6/6 1571/6/6 1573/6/6
f 1573/7/6 1569/7/6 1574/7/6
f 1575/5/6 1576/5/6 1579/5/6
f 1579/5/6 1576/5/6 1580/5/6
f 1577/5/6 1578/5/6 1581/5/6
f 1581/5/6 1578/5/6 1582/5/6
f 1579/1/6 1580/1/6 1584/1/6
f 1584/1/6 1580/1/6 1585/1/6
f 1581/1/6 1582/1/6 1588/1/6
f 1588/1/6 1582/1/6 1589/1/6
f 1583/1/6 1584/1/6 1591/1/6
f 1591/1/6 1584/1/6 1592/1/6
f 1585/1/6 1586/1/6 1593/1/6
f 1593/1/6 1586/1/6 1594/1/6
f 1587/1/6 1588/1/6 1595/1/6
f 1595/1/6 1588/1/6 1596/1/6
f 1589/1/6 1590/1/6 1597/1/6
f 1597/1/6 1590/1/6 1598/1/6
f 1592/1/6 1593/1/6 1599/1/6
f 1599/1/6 1593/1/6 1600/1/6
f 1596/1/6 1597/1/6 1601/1/6
f 1601/1/6 1597/1/6 1602/1/6
f 1599/5/6 1600/5/6 1603/5/6
f 1603/5/6 1600/5/6 1604/5/6
f 1601/5/6 1602/5/6 1605/5/6
f 1605/5/6 1602/5/6 1606/5/6
f 1607/5/6 1608/5/6 1611/5/6
f 1611/5/6 1608/5/6 1612/5/6
f 1609/5/6 1610/5/6 1613/5/6
f 1613/5/6 1610/5/6 1614/5/6
f 1611/1/6 1612/1/6 1616/1/6
f 1616/1/6 1612/1/6 1617/1/6
f 1613/2/6 1614/2/6 1620/2/6
f 1620/2/6 1614/2/6 1621/2/6
f 1615/1/6 1616/1/6 1623/1/6
f 1623/1/6 1616/1/6 1624/1/6
f 1617/1/6 1618/1/6 1625/1/6
f 1625/1/6 1618/1/6 1626/1/6
f 1619/2/6 1620/2/6 1627/2/6
f 1627/2/6 1620/2/6 1628/2/6
f 1621/2/6 1622/2/6 1629/2/6
f 1629/2/6 1622/2/6 1630/2/6
f 1624/1/6 1625/1/6 1631/1/6
f 1631/1/6 1625/1/6 1632/1/6
f 1628/1/6 1629/1/6 1633/1/6
f 1633/1/6 1629/1/6 1634/1/6
f 1631/5/6 1632/5/6 1635/5/6
f 1635/5/6 1632/5/6 1636/5/6
f 1633/5/6 1634/5/6 1637/5/6
f 1637/5/6 1634/5/6 1638/5/6
f 1639/5/6 1640/5/6 1643/5/6
f 1643/5/6 1640/5/6 1644/5/6
f 1641/5/6 1642/5/6 1645/5/6
f 1645/5/6 1642/5/6 1646/5/6
f 1643/1/6 1644/1/6 1648/1/6
f 1648/1/6 1644/1/6 1649/1/6
f 1645/1/6 1646/1/6 1652/1/6
f 1652/1/6 1646/1/6 1653/1/6
f 1647/1/6 1648/1/6 1655/1/6
f 1655/1/6 1648/1/6 1656/1/6
f 1649/1/6 1650/1/6 1657/1/6
f 1657/1/6 1650/1/6 1658/1/6
f 1651/1/6 1652/1/6 1659/1/6
f 1659/1/6 1652/1/6 1660/1/6
f 1653/1/6 1654/1/6 1661/1/6
f 1661/1/6 1654/1/6 1662/1/6
f 1656/1/6 1657/1/6 1663/1/6
f 1663/1/6 1657/1/6 1664/1/6
f 1660/1/6 1661/1/6 1665/1/6
f 1665/1/6 1661/1/6 1666/1/6
f 1663/5/6 1664/5/6 1667/5/6
f 1667/5/6 1664/5/6 1668/5/6
f 1665/5/6 1666/5/6 1669/5/6
f 1669/5/6 1666/5/6 1670/5/6
f 1671/3/6 1672/3/6 1675/3/6
f 1675/3/6 1672/3/6 1676/3/6
f 1673/3/6 1674/3/6 1677/3/6
f 1677/3/6 1674/3/6 1678/3/6
f 1679/3/6 1680/3/6 1681/3/6
f 1681/3/6 1680/3/6 1682/3/6
f 1683/3/6 1684/3/6 1687/3/6
f 1687/3/6 1684/3/6 1688/3/6
f 1685/3/6 1686/3/6 1689/3/6
f 1689/3/6 1686/3/6 1690/3/6
