%YAML 1.1
%TAG !u! tag:unity3d.com,2011:
--- !u!1 &3971733357638758455
GameObject:
  m_ObjectHideFlags: 0
  m_CorrespondingSourceObject: {fileID: 0}
  m_PrefabInstance: {fileID: 0}
  m_PrefabAsset: {fileID: 0}
  serializedVersion: 6
  m_Component:
  - component: {fileID: 1711772285487172138}
  m_Layer: 0
  m_Name: Tile00
  m_TagString: Untagged
  m_Icon: {fileID: 0}
  m_NavMeshLayer: 0
  m_StaticEditorFlags: 0
  m_IsActive: 1
--- !u!4 &1711772285487172138
Transform:
  m_ObjectHideFlags: 0
  m_CorrespondingSourceObject: {fileID: 0}
  m_PrefabInstance: {fileID: 0}
  m_PrefabAsset: {fileID: 0}
  m_GameObject: {fileID: 3971733357638758455}
  m_LocalRotation: {x: 0, y: 0, z: 0, w: 1}
  m_LocalPosition: {x: 0, y: 0, z: 0}
  m_LocalScale: {x: 1, y: 1, z: 1}
  m_Children:
  - {fileID: 5949216882890383586}
  m_Father: {fileID: 0}
  m_RootOrder: 0
  m_LocalEulerAnglesHint: {x: 0, y: 0, z: 0}
--- !u!1001 &7303932391246599974
PrefabInstance:
  m_ObjectHideFlags: 0
  serializedVersion: 2
  m_Modification:
    m_TransformParent: {fileID: 1711772285487172138}
    m_Modifications:
    - target: {fileID: 110412043376379351, guid: 09278ecb22710624cbd7edf39fc62fd9,
        type: 3}
      propertyPath: m_Name
      value: tramo01
      objectReference: {fileID: 0}
    - target: {fileID: 4022588526637430724, guid: 09278ecb22710624cbd7edf39fc62fd9,
        type: 3}
      propertyPath: m_LocalPosition.x
      value: 5
      objectReference: {fileID: 0}
    - target: {fileID: 4022588526637430724, guid: 09278ecb22710624cbd7edf39fc62fd9,
        type: 3}
      propertyPath: m_LocalPosition.y
      value: -2
      objectReference: {fileID: 0}
    - target: {fileID: 4022588526637430724, guid: 09278ecb22710624cbd7edf39fc62fd9,
        type: 3}
      propertyPath: m_LocalPosition.z
      value: 12.6
      objectReference: {fileID: 0}
    - target: {fileID: 4022588526637430724, guid: 09278ecb22710624cbd7edf39fc62fd9,
        type: 3}
      propertyPath: m_LocalRotation.x
      value: -0
      objectReference: {fileID: 0}
    - target: {fileID: 4022588526637430724, guid: 09278ecb22710624cbd7edf39fc62fd9,
        type: 3}
      propertyPath: m_LocalRotation.y
      value: -0
      objectReference: {fileID: 0}
    - target: {fileID: 4022588526637430724, guid: 09278ecb22710624cbd7edf39fc62fd9,
        type: 3}
      propertyPath: m_LocalRotation.z
      value: -0
      objectReference: {fileID: 0}
    - target: {fileID: 4022588526637430724, guid: 09278ecb22710624cbd7edf39fc62fd9,
        type: 3}
      propertyPath: m_LocalRotation.w
      value: 1
      objectReference: {fileID: 0}
    - target: {fileID: 4022588526637430724, guid: 09278ecb22710624cbd7edf39fc62fd9,
        type: 3}
      propertyPath: m_RootOrder
      value: 0
      objectReference: {fileID: 0}
    - target: {fileID: 4022588526637430724, guid: 09278ecb22710624cbd7edf39fc62fd9,
        type: 3}
      propertyPath: m_LocalEulerAnglesHint.x
      value: 0
      objectReference: {fileID: 0}
    - target: {fileID: 4022588526637430724, guid: 09278ecb22710624cbd7edf39fc62fd9,
        type: 3}
      propertyPath: m_LocalEulerAnglesHint.y
      value: 0
      objectReference: {fileID: 0}
    - target: {fileID: 4022588526637430724, guid: 09278ecb22710624cbd7edf39fc62fd9,
        type: 3}
      propertyPath: m_LocalEulerAnglesHint.z
      value: 0
      objectReference: {fileID: 0}
    m_RemovedComponents: []
  m_SourcePrefab: {fileID: 100100000, guid: 09278ecb22710624cbd7edf39fc62fd9, type: 3}
--- !u!4 &5949216882890383586 stripped
Transform:
  m_CorrespondingSourceObject: {fileID: 4022588526637430724, guid: 09278ecb22710624cbd7edf39fc62fd9,
    type: 3}
  m_PrefabInstance: {fileID: 7303932391246599974}
  m_PrefabAsset: {fileID: 0}
