# MagicaVoxel @ Ephtracy

# group
o 

# material
mtllib decoracion02.mtl
usemtl palette

# normals
vn -1 0 0
vn 1 0 0
vn 0 0 1
vn 0 0 -1
vn 0 -1 0
vn 0 1 0

# texcoords
vt 0.0214844 0.5
vt 0.755859 0.5
vt 0.951172 0.5
vt 0.955078 0.5
vt 0.970703 0.5
vt 0.974609 0.5

# verts
v -0.6 2.4 0
v -0.6 2.4 -0.1
v -0.6 2.6 0
v -0.6 2.6 -0.1
v -0.5 2.3 0
v -0.5 2.3 -0.1
v -0.5 2.4 0
v -0.5 2.4 -0.1
v -0.5 2.6 0
v -0.5 2.6 -0.1
v -0.5 2.8 0
v -0.5 2.8 -0.1
v -0.4 2.8 0
v -0.4 2.8 -0.1
v -0.4 3 0
v -0.4 3 -0.1
v -0.3 3 0
v -0.3 3 -0.1
v -0.3 3.2 0
v -0.3 3.2 -0.1
v -0.2 3.2 0
v -0.2 3.2 -0.1
v -0.2 3.4 0
v -0.2 3.4 -0.1
v -0.1 0 0.1
v -0.1 0 0
v -0.1 0.2 0.1
v -0.1 0.2 0
v -0.1 0.5 0.1
v -0.1 0.5 0
v -0.1 1.3 0.1
v -0.1 1.3 0
v -0.1 2 0.1
v -0.1 2 0
v -0.1 2.3 0.1
v -0.1 2.3 0
v -0.1 2.4 0
v -0.1 2.6 0.1
v -0.1 2.6 0
v -0.1 2.8 0
v -0.1 2.9 0.1
v -0.1 2.9 0
v -0.1 3.4 0
v -0.1 3.4 -0.1
v -0.1 3.5 0
v -0.1 3.5 -0.1
v 0.1 0 0.1
v 0.1 0 0
v 0.1 0.1 0.1
v 0.1 0.1 0
v 0.1 0.2 0.1
v 0.1 0.2 0
v 0.1 0.4 0.1
v 0.1 0.4 0
v 0.1 0.8 0.1
v 0.1 0.8 0
v 0.1 1.7 0.1
v 0.1 1.7 0
v 0.1 2.1 0.1
v 0.1 2.1 0
v 0.1 2.3 0
v 0.1 2.4 0
v 0.1 2.5 0.1
v 0.1 2.5 0
v 0.1 2.7 0
v 0.1 2.8 0.1
v 0.1 2.8 0
v 0.1 2.9 0.1
v 0.1 2.9 0
v 0.1 3.4 0
v 0.1 3.4 -0.1
v 0.1 3.5 0
v 0.1 3.5 -0.1
v 0.2 3.2 0
v 0.2 3.2 -0.1
v 0.2 3.4 0
v 0.2 3.4 -0.1
v 0.3 3 0
v 0.3 3 -0.1
v 0.3 3.2 0
v 0.3 3.2 -0.1
v 0.4 2.8 0
v 0.4 2.8 -0.1
v 0.4 3 0
v 0.4 3 -0.1
v 0.5 2.3 0
v 0.5 2.3 -0.1
v 0.5 2.4 0
v 0.5 2.4 -0.1
v 0.5 2.6 0
v 0.5 2.6 -0.1
v 0.5 2.8 0
v 0.5 2.8 -0.1
v 0.6 2.4 0
v 0.6 2.4 -0.1
v 0.6 2.6 0
v 0.6 2.6 -0.1
v -0.1 0 0.1
v -0.1 0.2 0.1
v -0.1 0.5 0.1
v -0.1 1.3 0.1
v -0.1 2 0.1
v -0.1 2.3 0.1
v -0.1 2.6 0.1
v -0.1 2.9 0.1
v -5.96046e-008 0 0.1
v -5.96046e-008 0.1 0.1
v -5.96046e-008 0.4 0.1
v -5.96046e-008 0.5 0.1
v -5.96046e-008 0.8 0.1
v -5.96046e-008 1.3 0.1
v -5.96046e-008 1.7 0.1
v -5.96046e-008 2 0.1
v -5.96046e-008 2.1 0.1
v -5.96046e-008 2.3 0.1
v -5.96046e-008 2.5 0.1
v -5.96046e-008 2.6 0.1
v -5.96046e-008 2.8 0.1
v -5.96046e-008 2.9 0.1
v 0.1 0 0.1
v 0.1 0.1 0.1
v 0.1 0.2 0.1
v 0.1 0.4 0.1
v 0.1 0.8 0.1
v 0.1 1.7 0.1
v 0.1 2.1 0.1
v 0.1 2.5 0.1
v 0.1 2.8 0.1
v 0.1 2.9 0.1
v -0.6 2.4 0
v -0.6 2.6 0
v -0.5 2.3 0
v -0.5 2.4 0
v -0.5 2.6 0
v -0.5 2.8 0
v -0.4 2.6 0
v -0.4 2.8 0
v -0.4 3 0
v -0.3 2.7 0
v -0.3 2.8 0
v -0.3 3 0
v -0.3 3.2 0
v -0.2 2.6 0
v -0.2 2.7 0
v -0.2 2.8 0
v -0.2 2.9 0
v -0.2 3 0
v -0.2 3.2 0
v -0.2 3.4 0
v -0.1 2.3 0
v -0.1 2.4 0
v -0.1 2.6 0
v -0.1 2.8 0
v -0.1 2.9 0
v -0.1 3.2 0
v -0.1 3.4 0
v -0.1 3.5 0
v -5.96046e-008 2.9 0
v 0.1 2.3 0
v 0.1 2.4 0
v 0.1 2.5 0
v 0.1 2.7 0
v 0.1 2.8 0
v 0.1 2.9 0
v 0.1 3.2 0
v 0.1 3.4 0
v 0.1 3.5 0
v 0.2 2.6 0
v 0.2 2.7 0
v 0.2 2.8 0
v 0.2 2.9 0
v 0.2 3 0
v 0.2 3.2 0
v 0.2 3.4 0
v 0.3 2.6 0
v 0.3 2.7 0
v 0.3 2.8 0
v 0.3 2.9 0
v 0.3 3 0
v 0.3 3.2 0
v 0.4 2.6 0
v 0.4 2.8 0
v 0.4 3 0
v 0.5 2.3 0
v 0.5 2.4 0
v 0.5 2.6 0
v 0.5 2.8 0
v 0.6 2.4 0
v 0.6 2.6 0
v -0.1 0 0
v -0.1 0.2 0
v -0.1 0.5 0
v -0.1 1.3 0
v -0.1 2 0
v -0.1 2.3 0
v -5.96046e-008 0 0
v -5.96046e-008 0.1 0
v -5.96046e-008 0.4 0
v -5.96046e-008 0.5 0
v -5.96046e-008 0.8 0
v -5.96046e-008 1.3 0
v -5.96046e-008 1.7 0
v -5.96046e-008 2 0
v -5.96046e-008 2.1 0
v -5.96046e-008 2.3 0
v 0.1 0 0
v 0.1 0.1 0
v 0.1 0.2 0
v 0.1 0.4 0
v 0.1 0.8 0
v 0.1 1.7 0
v 0.1 2.1 0
v 0.1 2.3 0
v -0.6 2.4 -0.1
v -0.6 2.6 -0.1
v -0.5 2.3 -0.1
v -0.5 2.4 -0.1
v -0.5 2.6 -0.1
v -0.5 2.8 -0.1
v -0.4 2.6 -0.1
v -0.4 2.8 -0.1
v -0.4 3 -0.1
v -0.3 2.7 -0.1
v -0.3 2.8 -0.1
v -0.3 3 -0.1
v -0.3 3.2 -0.1
v -0.2 2.6 -0.1
v -0.2 2.7 -0.1
v -0.2 2.8 -0.1
v -0.2 2.9 -0.1
v -0.2 3 -0.1
v -0.2 3.2 -0.1
v -0.2 3.4 -0.1
v -0.1 2.8 -0.1
v -0.1 2.9 -0.1
v -0.1 3.2 -0.1
v -0.1 3.4 -0.1
v -0.1 3.5 -0.1
v 0.1 2.6 -0.1
v 0.1 2.7 -0.1
v 0.1 2.8 -0.1
v 0.1 2.9 -0.1
v 0.1 3.2 -0.1
v 0.1 3.4 -0.1
v 0.1 3.5 -0.1
v 0.2 2.6 -0.1
v 0.2 2.7 -0.1
v 0.2 2.8 -0.1
v 0.2 2.9 -0.1
v 0.2 3 -0.1
v 0.2 3.2 -0.1
v 0.2 3.4 -0.1
v 0.3 2.6 -0.1
v 0.3 2.7 -0.1
v 0.3 2.8 -0.1
v 0.3 2.9 -0.1
v 0.3 3 -0.1
v 0.3 3.2 -0.1
v 0.4 2.6 -0.1
v 0.4 2.8 -0.1
v 0.4 3 -0.1
v 0.5 2.3 -0.1
v 0.5 2.4 -0.1
v 0.5 2.6 -0.1
v 0.5 2.8 -0.1
v 0.6 2.4 -0.1
v 0.6 2.6 -0.1
v -0.1 0 0.1
v -5.96046e-008 0 0.1
v 0.1 0 0.1
v -0.1 0 0
v -5.96046e-008 0 0
v 0.1 0 0
v -0.5 2.3 0
v -0.1 2.3 0
v -5.96046e-008 2.3 0
v 0.1 2.3 0
v 0.5 2.3 0
v -0.5 2.3 -0.1
v 0.5 2.3 -0.1
v -0.6 2.4 0
v -0.5 2.4 0
v 0.5 2.4 0
v 0.6 2.4 0
v -0.6 2.4 -0.1
v -0.5 2.4 -0.1
v 0.5 2.4 -0.1
v 0.6 2.4 -0.1
v -0.6 2.6 0
v -0.5 2.6 0
v 0.5 2.6 0
v 0.6 2.6 0
v -0.6 2.6 -0.1
v -0.5 2.6 -0.1
v 0.5 2.6 -0.1
v 0.6 2.6 -0.1
v -0.5 2.8 0
v -0.4 2.8 0
v 0.4 2.8 0
v 0.5 2.8 0
v -0.5 2.8 -0.1
v -0.4 2.8 -0.1
v 0.4 2.8 -0.1
v 0.5 2.8 -0.1
v -0.1 2.9 0.1
v -5.96046e-008 2.9 0.1
v 0.1 2.9 0.1
v -0.1 2.9 0
v -5.96046e-008 2.9 0
v 0.1 2.9 0
v -0.4 3 0
v -0.3 3 0
v 0.3 3 0
v 0.4 3 0
v -0.4 3 -0.1
v -0.3 3 -0.1
v 0.3 3 -0.1
v 0.4 3 -0.1
v -0.3 3.2 0
v -0.2 3.2 0
v 0.2 3.2 0
v 0.3 3.2 0
v -0.3 3.2 -0.1
v -0.2 3.2 -0.1
v 0.2 3.2 -0.1
v 0.3 3.2 -0.1
v -0.2 3.4 0
v -0.1 3.4 0
v 0.1 3.4 0
v 0.2 3.4 0
v -0.2 3.4 -0.1
v -0.1 3.4 -0.1
v 0.1 3.4 -0.1
v 0.2 3.4 -0.1
v -0.1 3.5 0
v 0.1 3.5 0
v -0.1 3.5 -0.1
v 0.1 3.5 -0.1

# faces
f 3/3/1 2/3/1 1/3/1
f 4/3/1 2/3/1 3/3/1
f 7/3/1 6/3/1 5/3/1
f 8/3/1 6/3/1 7/3/1
f 11/3/1 10/3/1 9/3/1
f 12/3/1 10/3/1 11/3/1
f 15/3/1 14/3/1 13/3/1
f 16/3/1 14/3/1 15/3/1
f 19/3/1 18/3/1 17/3/1
f 20/3/1 18/3/1 19/3/1
f 23/3/1 22/3/1 21/3/1
f 24/3/1 22/3/1 23/3/1
f 27/6/1 26/6/1 25/6/1
f 28/6/1 26/6/1 27/6/1
f 29/5/1 28/5/1 27/5/1
f 30/5/1 28/5/1 29/5/1
f 31/6/1 30/6/1 29/6/1
f 32/6/1 30/6/1 31/6/1
f 33/5/1 32/5/1 31/5/1
f 34/5/1 32/5/1 33/5/1
f 35/6/1 34/6/1 33/6/1
f 36/6/1 34/6/1 35/6/1
f 37/5/1 36/5/1 35/5/1
f 38/5/1 37/5/1 35/5/1
f 39/5/1 37/5/1 38/5/1
f 40/6/1 39/6/1 38/6/1
f 41/6/1 40/6/1 38/6/1
f 42/6/1 40/6/1 41/6/1
f 45/3/1 44/3/1 43/3/1
f 46/3/1 44/3/1 45/3/1
f 47/5/2 48/5/2 49/5/2
f 49/5/2 48/5/2 50/5/2
f 49/6/2 50/6/2 51/6/2
f 51/6/2 50/6/2 52/6/2
f 51/5/2 52/5/2 53/5/2
f 53/5/2 52/5/2 54/5/2
f 53/6/2 54/6/2 55/6/2
f 55/6/2 54/6/2 56/6/2
f 55/5/2 56/5/2 57/5/2
f 57/5/2 56/5/2 58/5/2
f 57/6/2 58/6/2 59/6/2
f 59/6/2 58/6/2 60/6/2
f 59/5/2 60/5/2 61/5/2
f 59/5/2 61/5/2 62/5/2
f 59/5/2 62/5/2 63/5/2
f 63/5/2 62/5/2 64/5/2
f 63/6/2 64/6/2 65/6/2
f 63/6/2 65/6/2 66/6/2
f 66/6/2 65/6/2 67/6/2
f 66/5/2 67/5/2 68/5/2
f 68/5/2 67/5/2 69/5/2
f 70/3/2 71/3/2 72/3/2
f 72/3/2 71/3/2 73/3/2
f 74/3/2 75/3/2 76/3/2
f 76/3/2 75/3/2 77/3/2
f 78/3/2 79/3/2 80/3/2
f 80/3/2 79/3/2 81/3/2
f 82/3/2 83/3/2 84/3/2
f 84/3/2 83/3/2 85/3/2
f 86/3/2 87/3/2 88/3/2
f 88/3/2 87/3/2 89/3/2
f 90/3/2 91/3/2 92/3/2
f 92/3/2 91/3/2 93/3/2
f 94/3/2 95/3/2 96/3/2
f 96/3/2 95/3/2 97/3/2
f 106/6/3 99/6/3 98/6/3
f 107/6/3 99/6/3 106/6/3
f 108/5/3 100/5/3 99/5/3
f 109/6/3 101/6/3 100/6/3
f 109/5/3 100/5/3 108/5/3
f 110/6/3 101/6/3 109/6/3
f 111/5/3 102/5/3 101/5/3
f 111/6/3 101/6/3 110/6/3
f 112/5/3 102/5/3 111/5/3
f 113/6/3 103/6/3 102/6/3
f 113/5/3 102/5/3 112/5/3
f 114/6/3 103/6/3 113/6/3
f 115/5/3 104/5/3 103/5/3
f 115/6/3 103/6/3 114/6/3
f 116/5/3 104/5/3 115/5/3
f 117/6/3 105/6/3 104/6/3
f 117/5/3 104/5/3 116/5/3
f 118/6/3 105/6/3 117/6/3
f 119/6/3 105/6/3 118/6/3
f 120/5/3 107/5/3 106/5/3
f 121/6/3 99/6/3 107/6/3
f 121/5/3 107/5/3 120/5/3
f 122/5/3 108/5/3 99/5/3
f 122/6/3 99/6/3 121/6/3
f 123/6/3 110/6/3 109/6/3
f 123/5/3 108/5/3 122/5/3
f 123/6/3 109/6/3 108/6/3
f 124/5/3 112/5/3 111/5/3
f 124/6/3 110/6/3 123/6/3
f 124/5/3 111/5/3 110/5/3
f 125/6/3 114/6/3 113/6/3
f 125/5/3 112/5/3 124/5/3
f 125/6/3 113/6/3 112/6/3
f 126/5/3 116/5/3 115/5/3
f 126/6/3 114/6/3 125/6/3
f 126/5/3 115/5/3 114/5/3
f 127/6/3 118/6/3 117/6/3
f 127/5/3 116/5/3 126/5/3
f 127/6/3 117/6/3 116/6/3
f 128/5/3 119/5/3 118/5/3
f 128/6/3 118/6/3 127/6/3
f 129/5/3 119/5/3 128/5/3
f 133/3/3 131/3/3 130/3/3
f 134/3/3 131/3/3 133/3/3
f 136/1/3 134/1/3 133/1/3
f 136/3/3 135/3/3 134/3/3
f 137/3/3 135/3/3 136/3/3
f 139/1/3 137/1/3 136/1/3
f 140/3/3 138/3/3 137/3/3
f 140/1/3 137/1/3 139/1/3
f 141/3/3 138/3/3 140/3/3
f 143/1/3 136/1/3 133/1/3
f 143/1/3 139/1/3 136/1/3
f 144/2/3 140/2/3 139/2/3
f 144/1/3 139/1/3 143/1/3
f 145/1/3 141/1/3 140/1/3
f 145/2/3 140/2/3 144/2/3
f 146/1/3 141/1/3 145/1/3
f 147/3/3 142/3/3 141/3/3
f 147/1/3 141/1/3 146/1/3
f 148/3/3 142/3/3 147/3/3
f 150/3/3 133/3/3 132/3/3
f 151/1/3 143/1/3 133/1/3
f 151/3/3 133/3/3 150/3/3
f 152/2/3 144/2/3 143/2/3
f 152/1/3 143/1/3 151/1/3
f 152/2/3 145/2/3 144/2/3
f 153/4/3 146/4/3 145/4/3
f 153/2/3 145/2/3 152/2/3
f 154/1/3 148/1/3 147/1/3
f 154/4/3 146/4/3 153/4/3
f 154/1/3 147/1/3 146/1/3
f 155/3/3 149/3/3 148/3/3
f 155/1/3 148/1/3 154/1/3
f 156/3/3 149/3/3 155/3/3
f 158/1/3 156/1/3 155/1/3
f 158/1/3 155/1/3 154/1/3
f 164/1/3 156/1/3 158/1/3
f 165/1/3 156/1/3 164/1/3
f 166/3/3 157/3/3 156/3/3
f 166/1/3 156/1/3 165/1/3
f 167/3/3 157/3/3 166/3/3
f 168/1/3 161/1/3 160/1/3
f 168/1/3 162/1/3 161/1/3
f 169/2/3 163/2/3 162/2/3
f 169/1/3 162/1/3 168/1/3
f 170/1/3 165/1/3 164/1/3
f 170/2/3 163/2/3 169/2/3
f 170/1/3 164/1/3 163/1/3
f 171/1/3 165/1/3 170/1/3
f 172/1/3 165/1/3 171/1/3
f 173/3/3 166/3/3 165/3/3
f 173/1/3 165/1/3 172/1/3
f 174/3/3 166/3/3 173/3/3
f 175/2/3 169/2/3 168/2/3
f 175/1/3 168/1/3 160/1/3
f 176/1/3 170/1/3 169/1/3
f 176/2/3 169/2/3 175/2/3
f 177/2/3 171/2/3 170/2/3
f 177/1/3 170/1/3 176/1/3
f 178/1/3 172/1/3 171/1/3
f 178/2/3 171/2/3 177/2/3
f 179/3/3 173/3/3 172/3/3
f 179/1/3 172/1/3 178/1/3
f 180/3/3 173/3/3 179/3/3
f 181/1/3 177/1/3 176/1/3
f 181/1/3 175/1/3 160/1/3
f 181/1/3 176/1/3 175/1/3
f 182/3/3 178/3/3 177/3/3
f 182/1/3 177/1/3 181/1/3
f 182/3/3 179/3/3 178/3/3
f 183/3/3 179/3/3 182/3/3
f 184/3/3 160/3/3 159/3/3
f 185/1/3 181/1/3 160/1/3
f 185/3/3 160/3/3 184/3/3
f 186/3/3 182/3/3 181/3/3
f 186/1/3 181/1/3 185/1/3
f 187/3/3 182/3/3 186/3/3
f 188/3/3 186/3/3 185/3/3
f 189/3/3 186/3/3 188/3/3
f 190/6/4 191/6/4 196/6/4
f 196/6/4 191/6/4 197/6/4
f 191/5/4 192/5/4 198/5/4
f 192/6/4 193/6/4 199/6/4
f 198/5/4 192/5/4 199/5/4
f 199/6/4 193/6/4 200/6/4
f 193/5/4 194/5/4 201/5/4
f 200/6/4 193/6/4 201/6/4
f 201/5/4 194/5/4 202/5/4
f 194/6/4 195/6/4 203/6/4
f 202/5/4 194/5/4 203/5/4
f 203/6/4 195/6/4 204/6/4
f 204/6/4 195/6/4 205/6/4
f 196/5/4 197/5/4 206/5/4
f 197/6/4 191/6/4 207/6/4
f 206/5/4 197/5/4 207/5/4
f 191/5/4 198/5/4 208/5/4
f 207/6/4 191/6/4 208/6/4
f 199/6/4 200/6/4 209/6/4
f 208/5/4 198/5/4 209/5/4
f 198/6/4 199/6/4 209/6/4
f 201/5/4 202/5/4 210/5/4
f 209/6/4 200/6/4 210/6/4
f 200/5/4 201/5/4 210/5/4
f 203/6/4 204/6/4 211/6/4
f 210/5/4 202/5/4 211/5/4
f 202/6/4 203/6/4 211/6/4
f 204/5/4 205/5/4 212/5/4
f 211/6/4 204/6/4 212/6/4
f 212/5/4 205/5/4 213/5/4
f 214/3/4 215/3/4 217/3/4
f 217/3/4 215/3/4 218/3/4
f 217/1/4 218/1/4 220/1/4
f 218/3/4 219/3/4 220/3/4
f 220/3/4 219/3/4 221/3/4
f 220/1/4 221/1/4 223/1/4
f 221/3/4 222/3/4 224/3/4
f 223/1/4 221/1/4 224/1/4
f 224/3/4 222/3/4 225/3/4
f 217/1/4 220/1/4 227/1/4
f 220/1/4 223/1/4 227/1/4
f 223/2/4 224/2/4 228/2/4
f 227/1/4 223/1/4 228/1/4
f 224/1/4 225/1/4 229/1/4
f 228/2/4 224/2/4 229/2/4
f 229/1/4 225/1/4 230/1/4
f 225/3/4 226/3/4 231/3/4
f 230/1/4 225/1/4 231/1/4
f 231/3/4 226/3/4 232/3/4
f 229/4/4 230/4/4 234/4/4
f 227/2/4 228/2/4 234/2/4
f 228/2/4 229/2/4 234/2/4
f 231/1/4 232/1/4 235/1/4
f 234/4/4 230/4/4 235/4/4
f 230/1/4 231/1/4 235/1/4
f 232/3/4 233/3/4 236/3/4
f 235/1/4 232/1/4 236/1/4
f 236/3/4 233/3/4 237/3/4
f 234/2/4 235/2/4 239/2/4
f 227/2/4 234/2/4 239/2/4
f 217/1/4 227/1/4 239/1/4
f 239/2/4 235/2/4 240/2/4
f 240/2/4 235/2/4 241/2/4
f 236/1/4 237/1/4 242/1/4
f 241/2/4 235/2/4 242/2/4
f 235/1/4 236/1/4 242/1/4
f 242/1/4 237/1/4 243/1/4
f 237/3/4 238/3/4 244/3/4
f 243/1/4 237/1/4 244/1/4
f 244/3/4 238/3/4 245/3/4
f 239/1/4 240/1/4 246/1/4
f 217/1/4 239/1/4 246/1/4
f 240/2/4 241/2/4 247/2/4
f 246/1/4 240/1/4 247/1/4
f 242/1/4 243/1/4 248/1/4
f 247/2/4 241/2/4 248/2/4
f 241/1/4 242/1/4 248/1/4
f 248/1/4 243/1/4 249/1/4
f 249/1/4 243/1/4 250/1/4
f 243/3/4 244/3/4 251/3/4
f 250/1/4 243/1/4 251/1/4
f 251/3/4 244/3/4 252/3/4
f 246/2/4 247/2/4 253/2/4
f 217/1/4 246/1/4 253/1/4
f 247/1/4 248/1/4 254/1/4
f 253/2/4 247/2/4 254/2/4
f 248/2/4 249/2/4 255/2/4
f 254/1/4 248/1/4 255/1/4
f 249/1/4 250/1/4 256/1/4
f 255/2/4 249/2/4 256/2/4
f 250/3/4 251/3/4 257/3/4
f 256/1/4 250/1/4 257/1/4
f 257/3/4 251/3/4 258/3/4
f 254/1/4 255/1/4 259/1/4
f 217/1/4 253/1/4 259/1/4
f 253/1/4 254/1/4 259/1/4
f 255/3/4 256/3/4 260/3/4
f 259/1/4 255/1/4 260/1/4
f 256/3/4 257/3/4 260/3/4
f 260/3/4 257/3/4 261/3/4
f 216/3/4 217/3/4 262/3/4
f 217/1/4 259/1/4 263/1/4
f 262/3/4 217/3/4 263/3/4
f 259/3/4 260/3/4 264/3/4
f 263/1/4 259/1/4 264/1/4
f 264/3/4 260/3/4 265/3/4
f 263/3/4 264/3/4 266/3/4
f 266/3/4 264/3/4 267/3/4
f 271/6/5 269/6/5 268/6/5
f 272/5/5 270/5/5 269/5/5
f 272/6/5 269/6/5 271/6/5
f 273/5/5 270/5/5 272/5/5
f 279/3/5 275/3/5 274/3/5
f 279/3/5 278/3/5 277/3/5
f 279/3/5 277/3/5 276/3/5
f 279/3/5 276/3/5 275/3/5
f 280/3/5 278/3/5 279/3/5
f 285/3/5 282/3/5 281/3/5
f 286/3/5 282/3/5 285/3/5
f 287/3/5 284/3/5 283/3/5
f 288/3/5 284/3/5 287/3/5
f 289/3/6 290/3/6 293/3/6
f 293/3/6 290/3/6 294/3/6
f 291/3/6 292/3/6 295/3/6
f 295/3/6 292/3/6 296/3/6
f 297/3/6 298/3/6 301/3/6
f 301/3/6 298/3/6 302/3/6
f 299/3/6 300/3/6 303/3/6
f 303/3/6 300/3/6 304/3/6
f 305/6/6 306/6/6 308/6/6
f 306/5/6 307/5/6 309/5/6
f 308/6/6 306/6/6 309/6/6
f 309/5/6 307/5/6 310/5/6
f 311/3/6 312/3/6 315/3/6
f 315/3/6 312/3/6 316/3/6
f 313/3/6 314/3/6 317/3/6
f 317/3/6 314/3/6 318/3/6
f 319/3/6 320/3/6 323/3/6
f 323/3/6 320/3/6 324/3/6
f 321/3/6 322/3/6 325/3/6
f 325/3/6 322/3/6 326/3/6
f 327/3/6 328/3/6 331/3/6
f 331/3/6 328/3/6 332/3/6
f 329/3/6 330/3/6 333/3/6
f 333/3/6 330/3/6 334/3/6
f 335/3/6 336/3/6 337/3/6
f 337/3/6 336/3/6 338/3/6
